﻿<?xml version="1.0"?>
<!-- Generator: Adobe Illustrator 18.1.1, SVG Export Plug-In . SVG Version: 6.00 Build 0)  -->
<!DOCTYPE svg PUBLIC "-//W3C//DTD SVG 1.0//EN" "http://www.w3.org/TR/2001/REC-SVG-20010904/DTD/svg10.dtd"[
	<!ENTITY ns_flows "http://ns.adobe.com/Flows/1.0/">
	<!ENTITY ns_svg "http://www.w3.org/2000/svg">
	<!ENTITY ns_xlink "http://www.w3.org/1999/xlink">
	<!ENTITY st0 "fill:none;stroke:#FFFFFF;stroke-width:0.2;">
	<!ENTITY st1 "fill:none;stroke:#000000;stroke-width:0.175;stroke-linecap:round;stroke-linejoin:round;">
	<!ENTITY st2 "fill:none;stroke:#000000;stroke-width:0.35;">
	<!ENTITY st3 "fill:#FFFFFF;stroke:#000000;stroke-width:0.35;stroke-linecap:round;stroke-linejoin:round;">
	<!ENTITY st4 "fill:none;stroke:#000000;stroke-width:0.35;stroke-linecap:round;stroke-linejoin:round;">
	<!ENTITY st5 "fill:none;stroke:#FFFFFF;stroke-width:0.525;stroke-linecap:round;stroke-linejoin:round;">
	<!ENTITY st6 "fill:none;stroke:#FFFFFF;stroke-width:2;">
	<!ENTITY st7 "fill:none;stroke:#000000;stroke-width:0.5;">
	<!ENTITY st8 "font-family:'Arial'; font-size:10px;">
	<!ATTLIST svg
		xmlns:ewd CDATA #FIXED "http://shcl.co.jp/ewd"
		xmlns:a CDATA #FIXED "http://ns.adobe.com/AdobeSVGViewerExtensions/3.0/"
		ewd:ver CDATA #IMPLIED>
	<!ATTLIST a
		ewd:innerGroupID CDATA #IMPLIED
		ewd:figtype CDATA #IMPLIED
		ewd:code CDATA #IMPLIED
		ewd:pinNo CDATA #IMPLIED>
]>
<svg version="1.0" x="0px" y="0px" viewBox="0 0 518.94 312.011" style="enable-background:new 0 0 518.94 312.011;" xml:space="preserve" width="518.94" height="312.011" onload="call_execInitLoadProc_svg('location')" ewd:ver="2.2.0.10" xmlns="&ns_svg;" xmlns:ewd="http://shcl.co.jp/ewd" xmlns:a="http://ns.adobe.com/AdobeSVGViewerExtensions/3.0/" xmlns:xlink="&ns_xlink;">
<script type="text/javascript" xlink:href="../../../../../system/js/ewd/fig/svgfig.js"/>
<g id="台紙">
	<path d="M0.1,0.1v311.811h518.74v-311.811h-518.74z" style="&st0;"/>
	<g>
	</g>
</g>
<g id="Engine_0615">
	<g>
		<path style="&st1;" d="M314.127,109.042    l-3.428,0.136c0,0-0.097,0.039-0.185-0.003c-0.145,0.006-0.353-2.353-0.467-5.269c-0.113-2.916-0.087-5.284,0.057-5.29l0.092,0    l3.487-0.16l0.129-4.374c0.022-0.306,0.197-0.394,0.394-0.394s5.316-0.262,5.316-0.262c0.197,0.022,0.197,0.175,0.197,0.175    l0.087,1.094l5.031-0.241c0.153,0,0.197,0.109,0.197,0.109v0.284l1.313-0.022c0.109-0.022,0.241,0.022,0.241,0.022l0.394,0.219    c0.153,0.109,0.109,0.263,0.109,0.263l0.948,15.794c0.029,0.554,0.029,1.196,0.029,1.458l0.023,3.845    c-0.013,0.141,0,0.205-0.09,0.282l-0.371,0.256c-0.09,0.103-0.231,0.077-0.231,0.077l-1.319,0.077v0.333    c0,0.077-0.051,0.115-0.103,0.115l-1.947,0.115c-0.09,0-0.128-0.077-0.128-0.077l-0.09-1.832l-3.061,0.115    c-0.128,0-0.141-0.141-0.141-0.141l-0.205-3.253l-5.763,0.282c-0.128,0-0.179-0.089-0.179-0.153S314.127,109.042,314.127,109.042z    "/>
		<path style="&st2;" d="M314.207,93.601c-0.288,0-0.459,0.169-0.481,0.475    c0,0-0.122,4.14-0.126,4.296c-0.155,0.007-3.406,0.157-3.406,0.157l-0.088,0c-0.148,0.006-0.221,0.724-0.221,2.143    c0,0.837,0.026,1.917,0.077,3.238c0.068,1.75,0.256,5.115,0.481,5.324c0.016,0.014,0.013,0.02,0.035,0.021l0.255,0.006    c0,0,3.159-0.121,3.316-0.127c0.097,1.013,0.325,3.408,0.328,3.491c0,0.115,0.094,0.239,0.267,0.239    c0,0,5.514-0.269,5.681-0.278c0.01,0.163,0.199,3.167,0.199,3.167c0.009,0.091,0.076,0.223,0.229,0.223    c0,0,2.814-0.106,2.978-0.112c0.007,0.157,0.085,1.745,0.085,1.745c0.033,0.082,0.103,0.16,0.216,0.16l1.952-0.115    c0.087,0,0.185-0.071,0.185-0.203c0,0,0-0.157,0-0.25c0.145-0.008,1.237-0.072,1.237-0.072c-0.013,0,0.17,0.032,0.292-0.106    l0.355-0.242c0.11-0.093,0.116-0.181,0.123-0.283l0.005-0.063l-0.023-3.854l-0.029-1.462c0,0-0.948-15.793-0.948-15.794    c0.001,0.015,0.052-0.187-0.146-0.329l-0.402-0.224c-0.015-0.006-0.3-0.031-0.3-0.031s-1.053,0.016-1.208,0.019    c0-0.084,0-0.196,0-0.196c-0.031-0.093-0.117-0.197-0.284-0.197c0,0-4.787,0.229-4.951,0.237c-0.011-0.144-0.081-1.01-0.081-1.01    c0-0.074-0.058-0.231-0.274-0.255C319.467,93.341,314.399,93.601,314.207,93.601z"/>
		<path style="&st1;" d="M313.781,98.393    c0.145-0.006,0.353,2.353,0.467,5.269c0.113,2.916,0.087,5.284-0.057,5.29"/>
		<path style="&st1;" d="M310.362,98.872    c0.137-0.006,0.334,2.226,0.441,4.984c0.107,2.758,0.083,4.999-0.054,5.004"/>
		<path d="M319.807,94.695 l0.563,11.174 l0.036,6.625 " style="&st1;"/>
		<path style="&st1;" d="M325.035,94.848    l0.943,16.093c0.048,0.6,0.128,1.558,0.097,2.403v3.76"/>
		<path d="M314.068,94.06l0.7,11.9" style="&st1;"/>
		<path d="M314.768,106.31l-0.175,6.3" style="&st1;"/>
		<path d="M315.118,106.135l4.959,-0.291" style="&st1;"/>
		<path style="&st1;" d="M318.883,94.407    c0.126,0.118,0.204,0.279,0.204,0.455c0,0.362-0.326,0.656-0.729,0.656c-0.403,0-0.729-0.294-0.729-0.656    c0-0.151,0.057-0.29,0.151-0.4"/>
		<path style="&st1;" d="M319.087,97.645    c0.126,0.118,0.204,0.279,0.204,0.455c0,0.362-0.326,0.656-0.729,0.656c-0.403,0-0.729-0.294-0.729-0.656    c0-0.151,0.057-0.29,0.151-0.4"/>
		<path style="&st1;" d="M319.292,100.882    c0.126,0.118,0.204,0.279,0.204,0.455c0,0.362-0.326,0.656-0.729,0.656c-0.403,0-0.729-0.294-0.729-0.656    c0-0.151,0.057-0.29,0.151-0.4"/>
		<path style="&st1;" d="M319.496,104.12    c0.126,0.118,0.204,0.279,0.204,0.455c0,0.362-0.326,0.656-0.729,0.656c-0.403,0-0.729-0.294-0.729-0.656    c0-0.151,0.057-0.29,0.151-0.4"/>
		<path d="M319.931,95.402l2.625,-0.117" style="&st1;"/>
		<path d="M322.731,95.344 l0.145,3.179 l-2.8,0.117 " style="&st1;"/>
		<path d="M320.281,101.906l2.625,-0.116" style="&st1;"/>
		<path d="M323.081,101.848l0.145,3.179" style="&st1;"/>
		<path d="M324.481,112.348l1.195,-0.058" style="&st1;"/>
		<path style="&st1;" d="M326.085,112.027    h1.138c0.117,0.029,0.379-0.088,0.379-0.088l0.175-0.087"/>
		<path d="M319.963,96.514l2.41,-0.075" style="&st1;"/>
		<path d="M320.314,103.018l2.411,-0.076" style="&st1;"/>
		<path d="M320.943,107.586 l1.807,0.654 l0.879,-0.025 " style="&st1;"/>
		<path d="M320.992,108.265 l1.808,0.653 l0.854,-0.025 " style="&st1;"/>
		<path style="&st1;" d="M320.415,109.295    c-0.025-0.201,0.151-0.301,0.326-0.352l2.938-0.05"/>
		<path style="&st1;" d="M320.666,109.546    l0.176,2.285c0.075,0.603,0.075,1.23,0.075,1.23l-0.075,2.486"/>
		<path d="M321.344,112.308l2.134,-0.125" style="&st1;"/>
		<path style="&st1;" d="M320.382,105.22    l3.107-0.135l0.467,6.854c0.029,0.525,0.058,0.933,0.058,0.933l-0.029,2.713"/>
	</g>
	<g>
		<path style="&st3;" d="M335.356,115.574    l-0.863-0.833c-0.238-0.298-0.446-0.863-0.446-0.863l-0.506-1.309l-0.416-0.476c-0.238-0.208-0.446-0.536-0.446-0.536    l-1.726-3.422l-0.893-1.101c-0.119-0.149-0.09-0.684,0.476-1.131l2.351-1.785l0.149,0.149l0.387-0.238l0.982,1.16l0.059,0.298    l0.565-0.417c0.446-0.238,0.863-0.268,1.25,0.119l2.529,2.648"/>
		<g>
			<g>
				<path style="&st1;" d="M335.394,127.424      c0,0.948,0.875,1.21,1.203,1.21s6.598,0,6.598,0v1.357c0,0.204,0.183,0.163,0.183,0.163h0.347c0-0.204,0.102-0.204,0.265-0.204      h2.2c0.102,0,0.245,0.021,0.245,0.183h0.204c0.224,0,0.346-0.021,0.346-0.143v-2.098l9.27-2.323      c0.285-0.082,0.795-0.326,0.937-0.795"/>
				<path style="&st1;" d="M341.529,138.149      c0-0.199,0.215-0.337,0.352-0.337h2.189c0.133,0,0.223,0.029,0.281,0.076"/>
				<path d="M337.225,135.251h0.853" style="&st1;"/>
				<path style="&st1;" d="M356.084,129.365      l0.075,0.284c0.03,0.18,0.015,0.314,0.015,0.314l0.03,0.644c0.015,0.18-0.219,0.209-0.219,0.209"/>
				<path style="&st1;" d="M357.375,118.694      l0.826,1.335c0.389,0.33,0.777,0.466,1.088,0.466c0.311,0,1.457,0,1.457,0c0.272,0,0.428-0.33,0.447-0.505l0.427-2.642      c0.058-0.388-0.058-0.66-0.33-0.699"/>
				<path style="&st1;" d="M357.388,116.957      l3.688-0.057c0.311,0,0.524,0.214,0.524,0.486"/>
				<path style="&st1;" d="M357.334,121.656      l-0.011-5.792c0-0.253-0.004-0.526-0.088-0.723"/>
				<path d="M341.554,136.289l0,4.835" style="&st1;"/>
				<path d="M344.379,135.529l0,5.568" style="&st1;"/>
				<path d="M338.539,132.585l0,5.008" style="&st1;"/>
				<path d="M339.626,132.622l0,4.944" style="&st1;"/>
				<path style="&st1;" d="M339.654,136.604      c0.184,0.024,0.364,0.078,0.515,0.174"/>
				<path style="&st1;" d="M338.566,136.751      c0.116-0.064,0.366-0.135,0.652-0.156"/>
				<path style="&st1;" d="M352.824,130.287      v0.812l0.248,0.338c0.158,0.135,0.338,0.135,0.451,0.113"/>
				<path d="M346.87,133.444 l4.172,-2.052 l1.714,-0.473 " style="&st1;"/>
				<path d="M356.183,130.017l0.339,-0.113" style="&st1;"/>
				<path style="&st1;" d="M335.715,127.101      c0.146,0.599,0.68,0.744,1.02,0.744c0.313,0,5.963,0,6.844,0"/>
				<path style="&st1;" d="M346.509,127.214      l9.84-2.46c0.502-0.178,0.728-0.502,0.728-0.89"/>
				<path style="&st1;" d="M343.645,126.069      v2.617c0,0.178,0.113,0.162,0.21,0.162c0.097,0,2.379,0,2.379,0c0.13,0,0.227,0.049,0.227-0.162v-3.431"/>
				<path d="M344.377,125.721 l0,0.781 l1.395,0 l0,-1.102 " style="&st1;"/>
				<path style="&st1;" d="M337.098,107.865      c-0.7,0-0.875,0.525-0.875,0.875v17.194c0,0.7,0.35,0.7,0.744,0.7c0.394,0,6.519,0,6.519,0"/>
				<path style="&st1;" d="M346.548,126.022      l9.319-2.363c0.263,0,0.569-0.306,0.569-0.656v-8.006c0-0.481-0.022-0.696-0.35-1.356"/>
				<path style="&st1;" d="M352.765,124.101      c0.211-0.211,0.211-0.655,0.211-0.655v-2.596c0-0.585,0.398-0.678,0.655-0.678c0.257,0,1.824,0,1.824,0      c0.374,0,0.749-0.164,0.819-0.397"/>
				<path style="&st1;" d="M337.553,125.074      h5.629c0.413,0,0.788-0.038,0.901-0.075c0.112-0.037,7.43-1.839,7.43-1.839c0.45-0.15,0.6-0.413,0.6-0.563      c0-0.15,0-2.327,0-2.327c0-0.901,0.713-1.201,1.088-1.238c0.375-0.037,2.102,0,2.102,0"/>
				<path d="M344.056,127.129h2.009" style="&st1;"/>
				<path style="&st1;" d="M360.301,118.232      c0.18,0.17,0.292,0.405,0.292,0.665c0,0.519-0.446,0.94-0.997,0.94c-0.551,0-0.997-0.421-0.997-0.94      c0-0.253,0.106-0.483,0.279-0.652"/>
				<path d="M342.837,133.586l0,1.075" style="&st1;"/>
				<path style="&st1;" d="M340.644,135.074      h1.868c0.202,0,0.323-0.027,0.323-0.202v-0.309h0.82c0.309,0,0.556-0.024,1.34-0.207"/>
				<path d="M336.884,134.372l0,0.418" style="&st1;"/>
				<path d="M341.025,137.138l0,-0.833" style="&st1;"/>
				<path d="M338.132,132.559l0,4.629" style="&st1;"/>
				<path d="M340.643,132.622l0,4.51" style="&st1;"/>
			</g>
			<path style="&st4;" d="M336.676,107.834     c-0.304,0.028-0.591,0.189-0.853,0.48c-0.15,0.167-0.5,0.631-0.5,1.332v23.428c0,0.964,0.746,1.631,1.445,1.679     c0.021,0.404,0.191,0.541,0.368,0.571c0,0.135,0,1.668,0,1.668l0.074,0.174l0.229,0.058c0,0,0.461,0,0.594,0.001     c0.001,0.13,0.003,0.552,0.003,0.552c0,0.421,1.062,0.442,1.275,0.442c0.654,0,1.417-0.13,1.417-0.495c0,0,0-0.408,0-0.537     c0.074,0,0.137,0,0.211,0c0,0.168,0,4.082,0,4.082c0,0.229,0.083,0.613,0.643,0.613l2.649-0.044c0.559,0,0.851-0.473,0.851-0.941     c0,0,0-6.339,0-6.472c0.118-0.03,1.122-0.282,1.122-0.282c0.2-0.098,0.49-0.281,0.565-0.508c0.072-0.021,9.239-2.734,9.239-2.734     c0.369-0.117,0.565-0.282,0.599-0.506c0,0,0.001-0.379,0.001-0.465c0.2-0.212,0.305-0.436,0.305-0.685c0,0,0-2.217,0-2.314     c0.122-0.068,0.243-0.228,0.243-0.618c0,0,0-1.228,0-1.273c0.04-0.066,0.243-0.415,0.243-0.752c0,0,0.018-2.388,0.02-2.547     c0.161-0.004,3.277-0.079,3.277-0.079c0.667,0,0.8-0.164,0.973-0.814l0.427-2.417c0-0.002,0.062-0.556,0.062-0.556l0.004-0.654     c0.007-0.041,0.01-0.084,0.01-0.128c0-0.25-0.103-0.531-0.281-0.738c-0.159-0.185-0.358-0.287-0.561-0.287h-0.532     c-0.004,0-0.383-0.001-0.653-0.068c0,0-2.721-0.817-2.796-0.839c-0.027-0.06-0.266-0.599-0.266-0.599l-2.591-6.033     c-0.167-0.301-0.466-0.692-1.18-0.692h-16.568c-0.015,0-0.015,0.02-0.027,0.027C336.702,107.855,336.697,107.832,336.676,107.834     z"/>
		</g>
		<path style="&st1;" d="M331.16,106.587    l0.442,0.542l0.393,0.482l1.664,2.04c0.268,0.357,0.446,0.714,0.446,0.714l0.506,0.922c0.268,0.476,0.803,0.922,0.803,0.922"/>
		<path style="&st1;" d="M334.634,105.4    c-0.216,0.062-0.278,0.278-0.278,0.278v1.08"/>
		<path style="&st1;" d="M335.023,106.998    c-0.103-0.194-0.128-0.362-0.05-0.427c0.113-0.094,0.402,0.067,0.645,0.359c0.243,0.292,0.348,0.606,0.235,0.7    c-0.054,0.045-0.148,0.031-0.259-0.027"/>
		<path style="&st1;" d="M334.727,105.59    c0.12,0.009,0.25,0.062,0.359,0.161l2.129,2.027"/>
		<path d="M334.547,107.055l1.277,1.259" style="&st1;"/>
	</g>
	<path d="M261.553,216.699c6.366,0 11.527,2.703 11.527,6.037c0,3.334  -5.161,6.037 -11.527,6.037c-6.366,0 -11.527,-2.703 -11.527,-6.037c0,-3.334 5.161,-6.037 11.527,-6.037" style="&st5;" transform=""/>
	<path style="&st5;" d="M132.917,54.315   c-0.7,31.675-1.75,93.975,3.675,131.95c1.632,10.235,2.655,18.584,6.825,26.775c4.9,9.625,20.136,24.839,44.493,35.643   c2.357,0.884,3.045,0.59,3.732,0.393l1.551-0.686"/>
	<path style="&st5;" d="M133.092,142.282   c3.15,3.5,8.517,8.517,13.3,11.433"/>
	<path style="&st5;" d="M147.325,54.549   c0.117,16.45,2.1,49.233,3.383,57.05"/>
	<path style="&st5;" d="M159.409,54.445   c0.191,2.677,2.103,12.238,2.103,12.238c-3.633,3.314-9.306,10.899-9.433,20.396l0.128,5.163c0,0.701,0.51,0.956,1.083,0.956   c0.574,0,1.976,0.064,1.976,0.064l0.446-0.255l5.227,0.382c0.765,0.191,1.084,1.084,1.147,1.721   c0.064,0.637,0.54,10.102,0.54,10.102c0.058,0.982-1.04,1.502-1.675,1.618"/>
	<path style="&st5;" d="M215.026,208.216   l-0.616,1.265c-0.195,0.454-0.714,0.746-1.518,0.818c-14.988,1.776-17.092,0.467-21.35-1.4   c-26.706-13.464-34.067-20.358-38.337-29.049c-6.284-12.79-8.097-31.735-7.513-51.568c0.028-0.94,0-3.967,1.283-7.35l3.5-8.4   c0.185-0.592,0.902-1.15,0.902-1.15l1.913-0.957c0.957-0.319,1.515,0,1.515,0c1.276,0.478,1.435,1.275,1.594,2.152   c0,0,4.346,28.075,7.972,38.663c1.993,5.82,4.065,7.972,7.175,11.639c3.109,3.667,10.443,10.921,13.472,13.711   c3.029,2.79,6.138,4.783,9.885,7.175c3.747,2.391,4.593,3.184,6.394,4.573c1.431,1.104,7.768,6.173,7.768,6.173l-0.412,0.412   c-0.154,0.206-0.154,0.772-0.154,0.772l-0.103,0.72l-0.514,1.749c-0.154,0.566,0.018,0.688,0.309,0.875   c0.216,0.138,0.461,0.291,0.734,0.456"/>
	<path style="&st5;" d="M209.014,199.604   c0.36,0.617,2.006,3.035,2.006,3.035c0.36,0.515,0.875,0.721,0.875,0.721s0.116,0.064,0.335,0.184   c0.029,0.016,0.058,0.033,0.088,0.049"/>
	<path style="&st5;" d="M215.04,208.232   c-0.076-0.391-0.237-0.846-0.573-1.426l-2.135-3.201"/>
	<path style="&st5;" d="M209.065,194.511   l2.212,1.132l0.205-1.389c0.206-1.955,3.756-2.572,4.27,0.154l0.566,4.218l0.309,0.36l0.137,0.984   c13.103,7.061,19.986,9.861,44.311,11.552l2.25-0.007c0.253,0,0.696,0.316,0.696,0.316c0.822,0.506,1.519,0.443,2.025,0.443   c0.506,0,9.744-1.139,9.744-1.139c0.696-0.063,1.202-0.823,1.202-0.823c0.316-0.317,0.565-0.353,0.565-0.353   c12.64-1.834,18.949-4.73,28.71-9.99l0.137-0.984l0.309-0.36l0.566-4.218c0.514-2.727,4.064-2.109,4.27-0.154l0.205,1.389   l2.212-1.132"/>
	<path style="&st5;" d="M194.406,181.047   c0-0.425,0.048-5.238,0.048-5.238l0.33-0.236h0.66l1.462-1.132c0.142-0.047,0.33-0.047,0.33-0.047h0.809   c0.142,0,0.33,0.236,0.33,0.236l0.236,0.189h7.921c0.424,0,0.472-0.33,0.472-0.33c0.236-0.424,0.283-0.566,0.754-0.566h14.57   c0.472,0,0.566,0.33,0.566,0.33c0,0.424,0.236,0.424,0.472,0.424h3.065c1.085,0,1.65,0.755,1.65,1.556v3.725   c0,0.943,0.519,1.226,1.085,1.226c0.566,0,3.536,0,3.536,0c0.72,0,1.246-0.446,1.246-1.082v-4.096c0-0.719,0.83-1.301,1.273-1.301   c0.443,0,2.878,0,2.878,0c0.415,0,0.941,0.221,0.941,0.221h6.061c0.387,0,0.553-0.194,0.553-0.194l0.221-0.249   c0.194-0.277,0.498-0.387,0.637-0.47l2.851-1.162c0.277-0.138,0.637-0.138,0.637-0.138h11.411"/>
	<path style="&st5;" d="M196.408,176.659V178   c0,1.337,1.919,2.442,2.5,2.674c0.581,0.232,5.522,1.86,5.522,1.86c0.814,0.174,1.512,0.291,2.325,0.291c0.814,0,38.89,0,38.89,0   c2.5,0,4.011-0.814,4.011-2.732v-6.569"/>
	<path d="M228.169,176.034h5.779" style="&st5;"/>
	<path style="&st5;" d="M198.93,174.782v-1.665   l0.333-1.11c0,0,0.055-0.555-0.341-0.796c-8.17-2.381-12.922-8.329-15.808-12.608c-2.235-3.314-4.132-6.752-5.946-9.574   c0,0-11.253-15.919-13.001-19.148c-3.693-6.824-2.526-14.973,1.403-21.002"/>
	<path style="&st5;" d="M153.729,109.256   c0-1.156,0.231-1.213,0.809-1.329c0.578-0.116,2.253-0.462,2.253-0.462l0.058-3.178c0.116-1.04,0.924-1.56,1.56-1.56l1.213-0.058   c0.924,0.116,1.329,1.04,1.329,1.733c0,0.693,0.116,3.813,0.116,3.813c0,0.751-0.116,1.098-0.173,1.618l-0.751,2.6l-0.116,6.529   l-0.578,2.542l0.563,4.15"/>
	<path style="&st5;" d="M208.808,210.746   l22.388,7.608c3.056,1.06,6.611,2.619,9.105,4.241c2.494,1.621,5.425,3.367,7.234,3.866"/>
	<path style="&st5;" d="M247.558,226.448   c2.156,2.249,5.64,3.449,14.008,3.506"/>
	<path style="&st5;" d="M261.503,214.363   c-9.229,0.063-22.512-2.37-27.19-3.804l-0.312,0.686"/>
	<path style="&st5;" d="M199.538,181.613   l22.946,14.235c1.345,0.991,1.629,1.771,1.7,2.549l0.85,5.099"/>
	<path style="&st5;" d="M225.246,197.83   c10.765,3.541,18.343,5.099,37.535,4.957"/>
	<path style="&st5;" d="M162.537,205.912   c0.091-0.544,0.589-0.454,0.725-0.408l0.725,0.045c0.499,0.136,0.779,0.169,1.768,0.816c8.461,5.537,20.274,11.925,24.299,14.287   c4.025,2.362,5.337,3.412,9.012,5.688c3.675,2.275,5.247,2.991,8.663,4.9c2.975,1.663,4.637,1.925,7.7,2.625   s17.412,4.375,46.113,4.988"/>
	<path style="&st5;" d="M261.367,258.103   c-30.975,0-53.025-4.462-55.125-5.104c-2.1-0.642-4.258-1.633-5.192-3.383l-2.333-5.017c0.271-0.25,0.564-0.278,0.903-0.192   c10.559,2.672,23.509,6.259,61.659,6.872"/>
	<path style="&st5;" d="M163.776,205.884   c0.017,0.046,0.031,0.083,0.039,0.107c0.047,0.141,1.802,4.434,1.802,4.434l1.982,3.881c0.68,1.43,7.482,14.112,14.357,20.533   c6.875,6.421,11.172,9.649,11.172,13.222c0,0.297,0.231,0.428,0.231,0.428l8.467,2.306"/>
	<path style="&st5;" d="M209.026,199.515   c3.278,2.185,17.657,9.213,23.642,11.597c0.434,0.171,0.714,0.312,0.923,0.468"/>
	<path style="&st5;" d="M149.993,116.939   c-0.104,21.707,2.126,35.865,6.397,45.415c4.361,9.752,16.108,17.849,26.086,24.5c10.704,7.135,18.213,11.134,19.981,12.052   c1.768,0.918,2.684,1.89,3.727,3.013c2.061,2.22,5.629,6.581,5.629,6.581"/>
	<path style="&st5;" d="M150,115.988   c-0.003,0.318-0.005,0.635-0.006,0.95"/>
	<path style="&st5;" d="M161.339,65.475   l1.09,0.641l2.5-0.641c0.898-0.192,1.218-1.026,1.218-1.475c0-0.449,0.256-5.001,0.256-5.001c-0.064-1.282-1.026-1.731-1.603-1.795   l-4.103-0.513l0.192-1.987"/>
	<path style="&st5;" d="M165.511,75.206   c0.153,0.656,0.219,1.159,0.219,2.275c0.065,1.549,0.201,3.189,1.09,4.624"/>
	<path style="&st5;" d="M165.092,104.649   l0.183,0.66c0.502,5.829,1.067,14.627,1.173,15.801c0,0.183,0.44,0.22,0.44,0.22l0.99-0.037l0.22,0.22l1.906-0.11   c0.293-0.257,0.587-0.33,0.587-0.33l0.513-0.073c0.257,0,0.623-0.22,0.587-0.953c-0.037-0.733-1.1-15.361-1.1-15.361l0.11-0.367   l0.513-0.367c0.257-0.147,0.262-0.44,0.257-0.733c-0.11-5.902-0.513-11.988-0.99-17.524c-0.11-0.917-0.349-0.974-0.689-0.993   c-0.17-0.057-0.283,0.094-0.283,0.094l-0.378,0.265"/>
	<path style="&st5;" d="M160.635,67.424   c1.92,1.706,2.204,1.849,2.488,3.342c0.284,1.493,1.137,5.403,1.137,5.403c0,0.355,0.142,0.853-0.213,2.417   c-0.355,1.564-0.853,2.844-0.782,5.83c0.042,1.771,0.925,10.273,1.807,20.212"/>
	<path style="&st5;" d="M165.533,75.14   l-1.531-7.416c-0.262-1.006-0.919-1.75-0.919-1.75"/>
	<path style="&st5;" d="M163.848,78.422h-4.769   c-0.919,0-1.619,1.269-1.619,2.319c0,1.05,0.7,2.056,1.531,2.056l4.156,0.088"/>
	<path style="&st5;" d="M162.492,54.578   c0,0,4.375,1.575,6.212,2.1"/>
	<path d="M354.767,56.725l5.345,-1.881" style="&st5;"/>
	<path style="&st5;" d="M169.492,72.632   c7.35,4.083,15.4,6.417,24.15,7.7c8.75,1.283,21.116,4.783,67.783,4.9"/>
	<path style="&st5;" d="M179.555,88.469   c-0.129,1.734-1.777,3.106-3.792,3.106c-2.098,0-3.799-1.489-3.799-3.325c0-0.554,0.155-1.075,0.428-1.535"/>
	<path style="&st5;" d="M182.666,89.77   c0,3.336-3.09,6.04-6.903,6.04c-1.817,0-3.469-0.614-4.702-1.618"/>
	<path style="&st5;" d="M173.488,101.083   c6.655-0.447,11.207-2.46,12.075-9.038"/>
	<path style="&st5;" d="M390.115,54.315   c0.7,31.675,1.75,93.975-3.675,131.95c-1.632,10.235-2.655,18.584-6.825,26.775c-4.9,9.625-20.136,24.839-44.493,35.643   c-2.357,0.884-3.045,0.59-3.732,0.393l-1.551-0.686"/>
	<path style="&st5;" d="M389.94,142.282   c-3.15,3.5-8.517,8.517-13.3,11.433"/>
	<path style="&st5;" d="M375.707,54.549   c-0.117,16.45-2.1,49.233-3.383,57.05"/>
	<path style="&st5;" d="M363.623,54.445   c-0.191,2.677-2.103,12.238-2.103,12.238c3.633,3.314,9.306,10.899,9.433,20.396l-0.127,5.163c0,0.701-0.51,0.956-1.083,0.956   c-0.574,0-1.976,0.064-1.976,0.064l-0.446-0.255l-5.227,0.382c-0.765,0.191-1.084,1.084-1.147,1.721   c-0.064,0.637-0.54,10.102-0.54,10.102c-0.058,0.982,1.04,1.502,1.675,1.618"/>
	<path style="&st5;" d="M308.005,208.216   l0.616,1.265c0.195,0.454,0.714,0.746,1.519,0.818c14.988,1.776,17.092,0.467,21.35-1.4c26.706-13.464,34.067-20.358,38.337-29.049   c6.285-12.79,8.097-31.735,7.513-51.568c-0.028-0.94,0-3.967-1.283-7.35l-3.5-8.4c-0.185-0.592-0.902-1.15-0.902-1.15l-1.913-0.957   c-0.957-0.319-1.514,0-1.514,0c-1.276,0.478-1.435,1.275-1.595,2.152c0,0-4.346,28.075-7.972,38.663   c-1.993,5.82-4.066,7.972-7.175,11.639c-3.109,3.667-10.443,10.921-13.472,13.711c-3.029,2.79-6.138,4.783-9.885,7.175   c-3.746,2.391-4.593,3.184-6.394,4.573c-1.431,1.104-7.768,6.173-7.768,6.173l0.412,0.412c0.154,0.206,0.154,0.772,0.154,0.772   l0.103,0.72l0.514,1.749c0.154,0.566-0.018,0.688-0.309,0.875c-0.216,0.138-0.461,0.291-0.733,0.456"/>
	<path style="&st5;" d="M314.018,199.604   c-0.36,0.617-2.006,3.035-2.006,3.035c-0.36,0.515-0.875,0.721-0.875,0.721s-0.117,0.064-0.335,0.184   c-0.029,0.016-0.058,0.033-0.088,0.049"/>
	<path style="&st5;" d="M307.991,208.232   c0.076-0.391,0.238-0.846,0.573-1.426l2.135-3.201"/>
	<path style="&st5;" d="M261.621,172.712   h11.411c0,0,0.36,0,0.637,0.138l2.078,0.847c0.263,0.148,0.479,0.175,0.668,0.175h8.917c0.27,0,0.486,0.189,0.486,0.189h6.026   c0.216-0.135,0.349-0.139,0.54-0.139h22.888c0.472,0,0.519,0.141,0.754,0.566c0,0,0.047,0.33,0.472,0.33h7.921l0.236-0.189   c0,0,0.189-0.236,0.33-0.236h1.085c0,0,0.189,0,0.33,0.047l1.462,1.132h0.66l0.33,0.236c0,0,0.048,4.814,0.048,5.238"/>
	<path style="&st5;" d="M326.624,176.659V178   c0,1.337-1.918,2.442-2.5,2.674c-0.581,0.232-5.522,1.86-5.522,1.86c-0.814,0.174-1.511,0.291-2.325,0.291   c-0.814,0-38.89,0-38.89,0c-2.5,0-4.011-0.814-4.011-2.732v-6.569"/>
	<path style="&st5;" d="M324.102,174.782   v-1.665l-0.333-1.11c0,0-0.055-0.555,0.341-0.796c8.17-2.381,12.922-8.329,15.807-12.608c2.235-3.314,4.132-6.752,5.946-9.574   c0,0,11.253-15.919,13.001-19.148c3.693-6.824,2.526-14.973-1.403-21.002"/>
	<path style="&st5;" d="M369.303,109.256   c0-1.156-0.231-1.213-0.809-1.329c-0.578-0.116-2.253-0.462-2.253-0.462l-0.058-3.178c-0.116-1.04-0.924-1.56-1.56-1.56   l-1.213-0.058c-0.925,0.116-1.329,1.04-1.329,1.733c0,0.693-0.116,3.813-0.116,3.813c0,0.751,0.116,1.098,0.173,1.618l0.751,2.6   l0.116,6.529l0.578,2.542l-0.563,4.15"/>
	<path style="&st5;" d="M314.224,210.746   l-22.388,7.608c-3.056,1.06-6.611,2.619-9.105,4.241c-2.494,1.621-5.425,3.367-7.234,3.866"/>
	<path style="&st5;" d="M275.464,226.459   c-2.157,2.242-5.643,3.438-13.998,3.495"/>
	<path style="&st5;" d="M261.529,214.363   c9.229,0.063,22.512-2.37,27.19-3.804l0.312,0.686"/>
	<path style="&st5;" d="M323.493,181.613   l-22.946,14.235c-1.346,0.991-1.629,1.771-1.7,2.549l-0.85,5.099"/>
	<path style="&st5;" d="M263.072,202.796   c-0.912,0.001-1.852-0.001-2.821-0.009"/>
	<path style="&st5;" d="M297.786,197.83   c-6.633,2.182-12.055,3.611-19.731,4.353"/>
	<path style="&st5;" d="M360.495,205.912   c-0.091-0.544-0.589-0.454-0.725-0.408l-0.726,0.045c-0.499,0.136-0.779,0.169-1.768,0.816   c-8.461,5.537-20.274,11.925-24.299,14.287c-4.025,2.362-5.337,3.412-9.013,5.688c-3.675,2.275-5.247,2.991-8.662,4.9   c-2.975,1.663-4.638,1.925-7.7,2.625s-17.413,4.375-46.112,4.988"/>
	<path style="&st5;" d="M261.665,258.103   c30.975,0,53.025-4.462,55.125-5.104c2.1-0.642,4.258-1.633,5.192-3.383l2.333-5.017c-0.271-0.25-0.564-0.278-0.903-0.192   c-10.559,2.672-23.509,6.259-61.659,6.872"/>
	<path style="&st5;" d="M359.256,205.884   c-0.017,0.046-0.031,0.083-0.039,0.107c-0.047,0.141-1.802,4.434-1.802,4.434l-1.982,3.881c-0.68,1.43-7.482,14.112-14.356,20.533   c-6.875,6.421-11.172,9.649-11.172,13.222c0,0.297-0.231,0.428-0.231,0.428l-8.467,2.306"/>
	<path style="&st5;" d="M314.005,199.515   c-3.278,2.185-17.657,9.213-23.641,11.597c-0.434,0.171-0.714,0.312-0.923,0.468"/>
	<path style="&st5;" d="M373.038,116.939   c0.104,21.707-2.127,35.865-6.397,45.415c-4.361,9.752-16.108,17.849-26.086,24.5c-10.704,7.135-18.213,11.134-19.981,12.052   c-1.768,0.918-2.684,1.89-3.727,3.013c-2.061,2.22-5.629,6.581-5.629,6.581"/>
	<path style="&st5;" d="M373.032,115.988   c0.002,0.318,0.004,0.635,0.006,0.95"/>
	<path style="&st5;" d="M361.693,65.475   l-1.09,0.641l-2.5-0.641c-0.898-0.192-1.218-1.026-1.218-1.475c0-0.449-0.256-5.001-0.256-5.001   c0.064-1.282,1.026-1.731,1.603-1.795l4.103-0.513l-0.192-1.987"/>
	<path style="&st5;" d="M357.521,75.206   c-0.153,0.656-0.219,1.159-0.219,2.275c-0.065,1.549-0.201,3.189-1.09,4.624"/>
	<path style="&st5;" d="M357.94,104.649   l-0.183,0.66c-0.502,5.829-1.067,14.627-1.173,15.801c0,0.183-0.44,0.22-0.44,0.22l-0.99-0.037l-0.22,0.22l-1.907-0.11   c-0.293-0.257-0.586-0.33-0.586-0.33L351.927,121c-0.257,0-0.623-0.22-0.587-0.953c0.037-0.733,1.1-15.361,1.1-15.361l-0.11-0.367   l-0.513-0.367c-0.257-0.147-0.262-0.44-0.257-0.733c0.11-5.902,0.513-11.988,0.99-17.524c0.11-0.917,0.349-0.974,0.689-0.993   c0.17-0.057,0.283,0.094,0.283,0.094l0.378,0.265"/>
	<path style="&st5;" d="M362.396,67.424   c-1.92,1.706-2.204,1.849-2.488,3.342c-0.284,1.493-1.138,5.403-1.138,5.403c0,0.355-0.142,0.853,0.213,2.417   c0.355,1.564,0.853,2.844,0.782,5.83c-0.042,1.771-0.925,10.273-1.807,20.212"/>
	<path style="&st5;" d="M357.499,75.14   l1.531-7.416c0.262-1.006,0.919-1.75,0.919-1.75"/>
	<path style="&st5;" d="M359.184,78.422h4.769   c0.919,0,1.619,1.269,1.619,2.319c0,1.05-0.7,2.056-1.531,2.056l-4.156,0.088"/>
	<path style="&st5;" d="M352.422,85.679   l-1.131-3.021l-0.486,0.973l-0.081,2.108c-20.189,8.108-38.676,13.946-72.974,13.297h-32.467   c-34.298,0.649-52.785-5.189-72.974-13.297l-0.081-2.108l-0.487-0.973l-1.131,3.021"/>
	<path style="&st5;" d="M353.54,72.632   c-7.35,4.083-15.4,6.417-24.15,7.7c-8.75,1.283-21.116,4.783-67.783,4.9"/>
	<path style="&st5;" d="M343.476,88.469   c0.129,1.734,1.777,3.106,3.792,3.106c2.098,0,3.799-1.489,3.799-3.325c0-0.554-0.155-1.075-0.428-1.535"/>
	<path style="&st5;" d="M340.365,89.77   c0,3.336,3.09,6.04,6.903,6.04c1.817,0,3.469-0.614,4.702-1.618"/>
	<path style="&st5;" d="M349.544,101.083   c-6.655-0.447-11.207-2.46-12.075-9.038"/>
	<path style="&st5;" d="M263.751,210.849   v-9.689c0-0.895,1.044-1.416,1.863-1.416c0.82,0,10.211,0,10.211,0c1.043,0,1.714,0.82,1.789,2.311v7.378"/>
	<path d="M251.111,181.318h20.406" style="&st5;"/>
	<path d="M261.553,216.699c6.366,0 11.527,2.703 11.527,6.037c0,3.334  -5.161,6.037 -11.527,6.037c-6.366,0 -11.527,-2.703 -11.527,-6.037c0,-3.334 5.161,-6.037 11.527,-6.037" style="&st1;" transform=""/>
	<path style="&st1;" d="M132.917,54.315   c-0.7,31.675-1.75,93.975,3.675,131.95c1.632,10.235,2.655,18.584,6.825,26.775c4.9,9.625,20.136,24.839,44.493,35.643   c2.357,0.884,3.045,0.59,3.732,0.393l1.551-0.686"/>
	<path style="&st1;" d="M133.092,142.282   c3.15,3.5,8.517,8.517,13.3,11.433"/>
	<path style="&st1;" d="M147.325,54.549   c0.117,16.45,2.1,49.233,3.383,57.05"/>
	<path style="&st1;" d="M159.409,54.445   c0.191,2.677,2.103,12.238,2.103,12.238c-3.633,3.314-9.306,10.899-9.433,20.396l0.128,5.163c0,0.701,0.51,0.956,1.083,0.956   c0.574,0,1.976,0.064,1.976,0.064l0.446-0.255l5.227,0.382c0.765,0.191,1.084,1.084,1.147,1.721   c0.064,0.637,0.54,10.102,0.54,10.102c0.058,0.982-1.04,1.502-1.675,1.618"/>
	<path style="&st1;" d="M215.026,208.216   l-0.616,1.265c-0.195,0.454-0.714,0.746-1.518,0.818c-14.988,1.776-17.092,0.467-21.35-1.4   c-26.706-13.464-34.067-20.358-38.337-29.049c-6.284-12.79-8.097-31.735-7.513-51.568c0.028-0.94,0-3.967,1.283-7.35l3.5-8.4   c0.185-0.592,0.902-1.15,0.902-1.15l1.913-0.957c0.957-0.319,1.515,0,1.515,0c1.276,0.478,1.435,1.275,1.594,2.152   c0,0,4.346,28.075,7.972,38.663c1.993,5.82,4.065,7.972,7.175,11.639c3.109,3.667,10.443,10.921,13.472,13.711   c3.029,2.79,6.138,4.783,9.885,7.175c3.747,2.391,4.593,3.184,6.394,4.573c1.431,1.104,7.768,6.173,7.768,6.173l-0.412,0.412   c-0.154,0.206-0.154,0.772-0.154,0.772l-0.103,0.72l-0.514,1.749c-0.154,0.566,0.018,0.688,0.309,0.875   c0.216,0.138,0.461,0.291,0.734,0.456"/>
	<path style="&st1;" d="M209.014,199.604   c0.36,0.617,2.006,3.035,2.006,3.035c0.36,0.515,0.875,0.721,0.875,0.721s0.116,0.064,0.335,0.184   c0.029,0.016,0.058,0.033,0.088,0.049"/>
	<path style="&st1;" d="M215.04,208.232   c-0.076-0.391-0.237-0.846-0.573-1.426l-2.135-3.201"/>
	<path style="&st1;" d="M209.065,194.511   l2.212,1.132l0.205-1.389c0.206-1.955,3.756-2.572,4.27,0.154l0.566,4.218l0.309,0.36l0.137,0.984   c13.103,7.061,19.986,9.861,44.311,11.552l2.25-0.007c0.253,0,0.696,0.316,0.696,0.316c0.822,0.506,1.519,0.443,2.025,0.443   c0.506,0,9.744-1.139,9.744-1.139c0.696-0.063,1.202-0.823,1.202-0.823c0.316-0.317,0.565-0.353,0.565-0.353   c12.64-1.834,18.949-4.73,28.71-9.99l0.137-0.984l0.309-0.36l0.566-4.218c0.514-2.727,4.064-2.109,4.27-0.154l0.205,1.389   l2.212-1.132"/>
	<path style="&st1;" d="M194.406,181.047   c0-0.425,0.048-5.238,0.048-5.238l0.33-0.236h0.66l1.462-1.132c0.142-0.047,0.33-0.047,0.33-0.047h0.809   c0.142,0,0.33,0.236,0.33,0.236l0.236,0.189h7.921c0.424,0,0.472-0.33,0.472-0.33c0.236-0.424,0.283-0.566,0.754-0.566h14.57   c0.472,0,0.566,0.33,0.566,0.33c0,0.424,0.236,0.424,0.472,0.424h3.065c1.085,0,1.65,0.755,1.65,1.556v3.725   c0,0.943,0.519,1.226,1.085,1.226c0.566,0,3.536,0,3.536,0c0.72,0,1.246-0.446,1.246-1.082v-4.096c0-0.719,0.83-1.301,1.273-1.301   c0.443,0,2.878,0,2.878,0c0.415,0,0.941,0.221,0.941,0.221h6.061c0.387,0,0.553-0.194,0.553-0.194l0.221-0.249   c0.194-0.277,0.498-0.387,0.637-0.47l2.851-1.162c0.277-0.138,0.637-0.138,0.637-0.138h11.411"/>
	<path style="&st1;" d="M196.408,176.659V178   c0,1.337,1.919,2.442,2.5,2.674c0.581,0.232,5.522,1.86,5.522,1.86c0.814,0.174,1.512,0.291,2.325,0.291c0.814,0,38.89,0,38.89,0   c2.5,0,4.011-0.814,4.011-2.732v-6.569"/>
	<path d="M228.169,176.034h5.779" style="&st1;"/>
	<path style="&st1;" d="M198.93,174.782v-1.665   l0.333-1.11c0,0,0.055-0.555-0.341-0.796c-8.17-2.381-12.922-8.329-15.808-12.608c-2.235-3.314-4.132-6.752-5.946-9.574   c0,0-11.253-15.919-13.001-19.148c-3.693-6.824-2.526-14.973,1.403-21.002"/>
	<path style="&st1;" d="M153.729,109.256   c0-1.156,0.231-1.213,0.809-1.329c0.578-0.116,2.253-0.462,2.253-0.462l0.058-3.178c0.116-1.04,0.924-1.56,1.56-1.56l1.213-0.058   c0.924,0.116,1.329,1.04,1.329,1.733c0,0.693,0.116,3.813,0.116,3.813c0,0.751-0.116,1.098-0.173,1.618l-0.751,2.6l-0.116,6.529   l-0.578,2.542l0.563,4.15"/>
	<path style="&st1;" d="M208.808,210.746   l22.388,7.608c3.056,1.06,6.611,2.619,9.105,4.241c2.494,1.621,5.425,3.367,7.234,3.866"/>
	<path style="&st1;" d="M247.558,226.448   c2.156,2.249,5.64,3.449,14.008,3.506"/>
	<path style="&st1;" d="M261.503,214.363   c-9.229,0.063-22.512-2.37-27.19-3.804l-0.312,0.686"/>
	<path style="&st1;" d="M199.538,181.613   l22.946,14.235c1.345,0.991,1.629,1.771,1.7,2.549l0.85,5.099"/>
	<path style="&st1;" d="M225.246,197.83   c10.765,3.541,18.343,5.099,37.535,4.957"/>
	<path style="&st1;" d="M162.537,205.912   c0.091-0.544,0.589-0.454,0.725-0.408l0.725,0.045c0.499,0.136,0.779,0.169,1.768,0.816c8.461,5.537,20.274,11.925,24.299,14.287   c4.025,2.362,5.337,3.412,9.012,5.688c3.675,2.275,5.247,2.991,8.663,4.9c2.975,1.663,4.637,1.925,7.7,2.625   s17.412,4.375,46.113,4.988"/>
	<path style="&st1;" d="M261.367,258.103   c-30.975,0-53.025-4.462-55.125-5.104c-2.1-0.642-4.258-1.633-5.192-3.383l-2.333-5.017c0.271-0.25,0.564-0.278,0.903-0.192   c10.559,2.672,23.509,6.259,61.659,6.872"/>
	<path style="&st1;" d="M163.776,205.884   c0.017,0.046,0.031,0.083,0.039,0.107c0.047,0.141,1.802,4.434,1.802,4.434l1.982,3.881c0.68,1.43,7.482,14.112,14.357,20.533   c6.875,6.421,11.172,9.649,11.172,13.222c0,0.297,0.231,0.428,0.231,0.428l8.467,2.306"/>
	<path style="&st1;" d="M209.026,199.515   c3.278,2.185,17.657,9.213,23.642,11.597c0.434,0.171,0.714,0.312,0.923,0.468"/>
	<path style="&st1;" d="M149.993,116.939   c-0.104,21.707,2.126,35.865,6.397,45.415c4.361,9.752,16.108,17.849,26.086,24.5c10.704,7.135,18.213,11.134,19.981,12.052   c1.768,0.918,2.684,1.89,3.727,3.013c2.061,2.22,5.629,6.581,5.629,6.581"/>
	<path style="&st1;" d="M150,115.988   c-0.003,0.318-0.005,0.635-0.006,0.95"/>
	<path style="&st1;" d="M161.339,65.475   l1.09,0.641l2.5-0.641c0.898-0.192,1.218-1.026,1.218-1.475c0-0.449,0.256-5.001,0.256-5.001c-0.064-1.282-1.026-1.731-1.603-1.795   l-4.103-0.513l0.192-1.987"/>
	<path style="&st1;" d="M165.511,75.206   c0.153,0.656,0.219,1.159,0.219,2.275c0.065,1.549,0.201,3.189,1.09,4.624"/>
	<path style="&st1;" d="M165.092,104.649   l0.183,0.66c0.502,5.829,1.067,14.627,1.173,15.801c0,0.183,0.44,0.22,0.44,0.22l0.99-0.037l0.22,0.22l1.906-0.11   c0.293-0.257,0.587-0.33,0.587-0.33l0.513-0.073c0.257,0,0.623-0.22,0.587-0.953c-0.037-0.733-1.1-15.361-1.1-15.361l0.11-0.367   l0.513-0.367c0.257-0.147,0.262-0.44,0.257-0.733c-0.11-5.902-0.513-11.988-0.99-17.524c-0.11-0.917-0.349-0.974-0.689-0.993   c-0.17-0.057-0.283,0.094-0.283,0.094l-0.378,0.265"/>
	<path style="&st1;" d="M160.635,67.424   c1.92,1.706,2.204,1.849,2.488,3.342c0.284,1.493,1.137,5.403,1.137,5.403c0,0.355,0.142,0.853-0.213,2.417   c-0.355,1.564-0.853,2.844-0.782,5.83c0.042,1.771,0.925,10.273,1.807,20.212"/>
	<path style="&st1;" d="M165.533,75.14   l-1.531-7.416c-0.262-1.006-0.919-1.75-0.919-1.75"/>
	<path style="&st1;" d="M163.848,78.422h-4.769   c-0.919,0-1.619,1.269-1.619,2.319c0,1.05,0.7,2.056,1.531,2.056l4.156,0.088"/>
	<path style="&st1;" d="M162.492,54.578   c0,0,4.375,1.575,6.212,2.1"/>
	<path d="M354.767,56.725l5.345,-1.881" style="&st1;"/>
	<path style="&st1;" d="M169.492,72.632   c7.35,4.083,15.4,6.417,24.15,7.7c8.75,1.283,21.116,4.783,67.783,4.9"/>
	<path style="&st1;" d="M179.555,88.469   c-0.129,1.734-1.777,3.106-3.792,3.106c-2.098,0-3.799-1.489-3.799-3.325c0-0.554,0.155-1.075,0.428-1.535"/>
	<path style="&st1;" d="M182.666,89.77   c0,3.336-3.09,6.04-6.903,6.04c-1.817,0-3.469-0.614-4.702-1.618"/>
	<path style="&st1;" d="M173.488,101.083   c6.655-0.447,11.207-2.46,12.075-9.038"/>
	<path style="&st1;" d="M390.115,54.315   c0.7,31.675,1.75,93.975-3.675,131.95c-1.632,10.235-2.655,18.584-6.825,26.775c-4.9,9.625-20.136,24.839-44.493,35.643   c-2.357,0.884-3.045,0.59-3.732,0.393l-1.551-0.686"/>
	<path style="&st1;" d="M389.94,142.282   c-3.15,3.5-8.517,8.517-13.3,11.433"/>
	<path style="&st1;" d="M375.707,54.549   c-0.117,16.45-2.1,49.233-3.383,57.05"/>
	<path style="&st1;" d="M363.623,54.445   c-0.191,2.677-2.103,12.238-2.103,12.238c3.633,3.314,9.306,10.899,9.433,20.396l-0.127,5.163c0,0.701-0.51,0.956-1.083,0.956   c-0.574,0-1.976,0.064-1.976,0.064l-0.446-0.255l-5.227,0.382c-0.765,0.191-1.084,1.084-1.147,1.721   c-0.064,0.637-0.54,10.102-0.54,10.102c-0.058,0.982,1.04,1.502,1.675,1.618"/>
	<path style="&st1;" d="M308.005,208.216   l0.616,1.265c0.195,0.454,0.714,0.746,1.519,0.818c14.988,1.776,17.092,0.467,21.35-1.4c26.706-13.464,34.067-20.358,38.337-29.049   c6.285-12.79,8.097-31.735,7.513-51.568c-0.028-0.94,0-3.967-1.283-7.35l-3.5-8.4c-0.185-0.592-0.902-1.15-0.902-1.15l-1.913-0.957   c-0.957-0.319-1.514,0-1.514,0c-1.276,0.478-1.435,1.275-1.595,2.152c0,0-4.346,28.075-7.972,38.663   c-1.993,5.82-4.066,7.972-7.175,11.639c-3.109,3.667-10.443,10.921-13.472,13.711c-3.029,2.79-6.138,4.783-9.885,7.175   c-3.746,2.391-4.593,3.184-6.394,4.573c-1.431,1.104-7.768,6.173-7.768,6.173l0.412,0.412c0.154,0.206,0.154,0.772,0.154,0.772   l0.103,0.72l0.514,1.749c0.154,0.566-0.018,0.688-0.309,0.875c-0.216,0.138-0.461,0.291-0.733,0.456"/>
	<path style="&st1;" d="M314.018,199.604   c-0.36,0.617-2.006,3.035-2.006,3.035c-0.36,0.515-0.875,0.721-0.875,0.721s-0.117,0.064-0.335,0.184   c-0.029,0.016-0.058,0.033-0.088,0.049"/>
	<path style="&st1;" d="M307.991,208.232   c0.076-0.391,0.238-0.846,0.573-1.426l2.135-3.201"/>
	<path style="&st1;" d="M261.621,172.712   h11.411c0,0,0.36,0,0.637,0.138l2.078,0.847c0.263,0.148,0.479,0.175,0.668,0.175h8.917c0.27,0,0.486,0.189,0.486,0.189h6.026   c0.216-0.135,0.349-0.139,0.54-0.139h22.888c0.472,0,0.519,0.141,0.754,0.566c0,0,0.047,0.33,0.472,0.33h7.921l0.236-0.189   c0,0,0.189-0.236,0.33-0.236h1.085c0,0,0.189,0,0.33,0.047l1.462,1.132h0.66l0.33,0.236c0,0,0.048,4.814,0.048,5.238"/>
	<path style="&st1;" d="M326.624,176.659V178   c0,1.337-1.918,2.442-2.5,2.674c-0.581,0.232-5.522,1.86-5.522,1.86c-0.814,0.174-1.511,0.291-2.325,0.291   c-0.814,0-38.89,0-38.89,0c-2.5,0-4.011-0.814-4.011-2.732v-6.569"/>
	<path style="&st1;" d="M324.102,174.782   v-1.665l-0.333-1.11c0,0-0.055-0.555,0.341-0.796c8.17-2.381,12.922-8.329,15.807-12.608c2.235-3.314,4.132-6.752,5.946-9.574   c0,0,11.253-15.919,13.001-19.148c3.693-6.824,2.526-14.973-1.403-21.002"/>
	<path style="&st1;" d="M369.303,109.256   c0-1.156-0.231-1.213-0.809-1.329c-0.578-0.116-2.253-0.462-2.253-0.462l-0.058-3.178c-0.116-1.04-0.924-1.56-1.56-1.56   l-1.213-0.058c-0.925,0.116-1.329,1.04-1.329,1.733c0,0.693-0.116,3.813-0.116,3.813c0,0.751,0.116,1.098,0.173,1.618l0.751,2.6   l0.116,6.529l0.578,2.542l-0.563,4.15"/>
	<path style="&st1;" d="M314.224,210.746   l-22.388,7.608c-3.056,1.06-6.611,2.619-9.105,4.241c-2.494,1.621-5.425,3.367-7.234,3.866"/>
	<path style="&st1;" d="M275.464,226.459   c-2.157,2.242-5.643,3.438-13.998,3.495"/>
	<path style="&st1;" d="M261.529,214.363   c9.229,0.063,22.512-2.37,27.19-3.804l0.312,0.686"/>
	<path style="&st1;" d="M323.493,181.613   l-22.946,14.235c-1.346,0.991-1.629,1.771-1.7,2.549l-0.85,5.099"/>
	<path style="&st1;" d="M263.072,202.796   c-0.912,0.001-1.852-0.001-2.821-0.009"/>
	<path style="&st1;" d="M297.786,197.83   c-6.633,2.182-12.055,3.611-19.731,4.353"/>
	<path style="&st1;" d="M360.495,205.912   c-0.091-0.544-0.589-0.454-0.725-0.408l-0.726,0.045c-0.499,0.136-0.779,0.169-1.768,0.816   c-8.461,5.537-20.274,11.925-24.299,14.287c-4.025,2.362-5.337,3.412-9.013,5.688c-3.675,2.275-5.247,2.991-8.662,4.9   c-2.975,1.663-4.638,1.925-7.7,2.625s-17.413,4.375-46.112,4.988"/>
	<path style="&st1;" d="M261.665,258.103   c30.975,0,53.025-4.462,55.125-5.104c2.1-0.642,4.258-1.633,5.192-3.383l2.333-5.017c-0.271-0.25-0.564-0.278-0.903-0.192   c-10.559,2.672-23.509,6.259-61.659,6.872"/>
	<path style="&st1;" d="M359.256,205.884   c-0.017,0.046-0.031,0.083-0.039,0.107c-0.047,0.141-1.802,4.434-1.802,4.434l-1.982,3.881c-0.68,1.43-7.482,14.112-14.356,20.533   c-6.875,6.421-11.172,9.649-11.172,13.222c0,0.297-0.231,0.428-0.231,0.428l-8.467,2.306"/>
	<path style="&st1;" d="M314.005,199.515   c-3.278,2.185-17.657,9.213-23.641,11.597c-0.434,0.171-0.714,0.312-0.923,0.468"/>
	<path style="&st1;" d="M373.038,116.939   c0.104,21.707-2.127,35.865-6.397,45.415c-4.361,9.752-16.108,17.849-26.086,24.5c-10.704,7.135-18.213,11.134-19.981,12.052   c-1.768,0.918-2.684,1.89-3.727,3.013c-2.061,2.22-5.629,6.581-5.629,6.581"/>
	<path style="&st1;" d="M373.032,115.988   c0.002,0.318,0.004,0.635,0.006,0.95"/>
	<path style="&st1;" d="M361.693,65.475   l-1.09,0.641l-2.5-0.641c-0.898-0.192-1.218-1.026-1.218-1.475c0-0.449-0.256-5.001-0.256-5.001   c0.064-1.282,1.026-1.731,1.603-1.795l4.103-0.513l-0.192-1.987"/>
	<path style="&st1;" d="M357.521,75.206   c-0.153,0.656-0.219,1.159-0.219,2.275c-0.065,1.549-0.201,3.189-1.09,4.624"/>
	<path style="&st1;" d="M357.94,104.649   l-0.183,0.66c-0.502,5.829-1.067,14.627-1.173,15.801c0,0.183-0.44,0.22-0.44,0.22l-0.99-0.037l-0.22,0.22l-1.907-0.11   c-0.293-0.257-0.586-0.33-0.586-0.33L351.927,121c-0.257,0-0.623-0.22-0.587-0.953c0.037-0.733,1.1-15.361,1.1-15.361l-0.11-0.367   l-0.513-0.367c-0.257-0.147-0.262-0.44-0.257-0.733c0.11-5.902,0.513-11.988,0.99-17.524c0.11-0.917,0.349-0.974,0.689-0.993   c0.17-0.057,0.283,0.094,0.283,0.094l0.378,0.265"/>
	<path style="&st1;" d="M362.396,67.424   c-1.92,1.706-2.204,1.849-2.488,3.342c-0.284,1.493-1.138,5.403-1.138,5.403c0,0.355-0.142,0.853,0.213,2.417   c0.355,1.564,0.853,2.844,0.782,5.83c-0.042,1.771-0.925,10.273-1.807,20.212"/>
	<path style="&st1;" d="M357.499,75.14   l1.531-7.416c0.262-1.006,0.919-1.75,0.919-1.75"/>
	<path style="&st1;" d="M359.184,78.422h4.769   c0.919,0,1.619,1.269,1.619,2.319c0,1.05-0.7,2.056-1.531,2.056l-4.156,0.088"/>
	<path style="&st1;" d="M352.422,85.679   l-1.131-3.021l-0.486,0.973l-0.081,2.108c-20.189,8.108-38.676,13.946-72.974,13.297h-32.467   c-34.298,0.649-52.785-5.189-72.974-13.297l-0.081-2.108l-0.487-0.973l-1.131,3.021"/>
	<path style="&st1;" d="M353.54,72.632   c-7.35,4.083-15.4,6.417-24.15,7.7c-8.75,1.283-21.116,4.783-67.783,4.9"/>
	<path style="&st1;" d="M343.476,88.469   c0.129,1.734,1.777,3.106,3.792,3.106c2.098,0,3.799-1.489,3.799-3.325c0-0.554-0.155-1.075-0.428-1.535"/>
	<path style="&st1;" d="M340.365,89.77   c0,3.336,3.09,6.04,6.903,6.04c1.817,0,3.469-0.614,4.702-1.618"/>
	<path style="&st1;" d="M349.544,101.083   c-6.655-0.447-11.207-2.46-12.075-9.038"/>
	<path style="&st1;" d="M263.751,210.849   v-9.689c0-0.895,1.044-1.416,1.863-1.416c0.82,0,10.211,0,10.211,0c1.043,0,1.714,0.82,1.789,2.311v7.378"/>
	<path d="M251.111,181.318h20.406" style="&st1;"/>
</g>
<g id="キャプション">
	<text transform="matrix(1 0 0 1 185.8119 17.2392)"><tspan style="&st8;" x="0" y="0">Brake Actuator Assembly</tspan></text>
	<g>
		<path d="M241.941,19.684 l0,16.5 l77.58,65.002 " style="&st6;"/>
		<path d="M241.941,19.684 l0,16.5 l77.58,65.002 " style="&st7;"/>
	</g>
	<a ewd:figtype="jb" ewd:code="5" style="cursor:pointer;fill:#0000ff;" onmouseover="text_mouse_over(evt)" onmouseout="text_mouse_out(evt)">
		<text transform="matrix(1 0 0 1 318.6195 17.2392)"><tspan x="0" y="0" style="&st8;">Engine Room Relay Block Assembly</tspan><tspan x="0" y="10" style="&st8;">Engine Room Junction Block Assembly</tspan></text>
	</a>
	<g>
		<path d="M403.216,28.447 l0,16.5 l-57.142,70.652 " style="&st6;"/>
		<path d="M403.216,28.447 l0,16.5 l-57.142,70.652 " style="&st7;"/>
	</g>
</g>
</svg>