﻿<?xml version="1.0"?>
<!-- Generator: Adobe Illustrator 18.1.1, SVG Export Plug-In . SVG Version: 6.00 Build 0)  -->
<!DOCTYPE svg PUBLIC "-//W3C//DTD SVG 1.0//EN" "http://www.w3.org/TR/2001/REC-SVG-20010904/DTD/svg10.dtd"[
	<!ENTITY ns_flows "http://ns.adobe.com/Flows/1.0/">
	<!ENTITY ns_svg "http://www.w3.org/2000/svg">
	<!ENTITY ns_xlink "http://www.w3.org/1999/xlink">
	<!ENTITY st0 "fill:none;stroke:#FFFFFF;stroke-width:0.2;">
	<!ENTITY st1 "fill:none;stroke:#000000;stroke-linecap:round;stroke-linejoin:round;">
	<!ENTITY st2 "fill:none;stroke:#000000;stroke-width:1.0;stroke-linecap:round;stroke-linejoin:round;">
	<!ENTITY st3 "fill:none;stroke:#000000;stroke-width:1.67;">
	<!ENTITY st4 "font-family:'Arial'; font-size:8px;">
	<!ENTITY st5 "font-family:'Arial';font-weight:bold; font-size:10px;">
	<!ENTITY st6 "font-family:'Arial'; font-size:10px;">
	<!ATTLIST svg
		xmlns:ewd CDATA #FIXED "http://shcl.co.jp/ewd"
		xmlns:a CDATA #FIXED "http://ns.adobe.com/AdobeSVGViewerExtensions/3.0/"
		ewd:ver CDATA #IMPLIED>
	<!ATTLIST a
		ewd:innerGroupID CDATA #IMPLIED
		ewd:figtype CDATA #IMPLIED
		ewd:code CDATA #IMPLIED
		ewd:pinNo CDATA #IMPLIED>
]>
<svg version="1.0" x="0px" y="0px" viewBox="0 0 510.436 680.514" style="enable-background:new 0 0 510.436 680.514;" xml:space="preserve" width="510.436" height="680.514" onload="call_execInitLoadProc_svg('inner')" ewd:ver="2.2.0.10" xmlns="&ns_svg;" xmlns:ewd="http://shcl.co.jp/ewd" xmlns:a="http://ns.adobe.com/AdobeSVGViewerExtensions/3.0/" xmlns:xlink="&ns_xlink;">
<script type="text/javascript" xlink:href="../../../../../system/js/ewd/fig/svgfig.js"/>
<g id="WAKU">
	<path d="M0.1,0.1v680.314h510.236v-680.314h-510.236z" style="&st0;"/>
</g>
<g id="レイヤ_xFF0D__1">
	<path style="&st1;" d="M264.904,248.655   c-1.613-2.738-5.141-3.649-7.879-2.037"/>
	<path style="&st1;" d="M257.024,246.618   c-0.883,0.52-1.518,1.155-2.037,2.037"/>
	<path style="&st1;" d="M245.071,248.655   c1.613,2.738,5.141,3.65,7.879,2.037"/>
	<path style="&st1;" d="M252.95,250.692   c0.881-0.52,1.518-1.154,2.037-2.037"/>
	<path style="&st2;" d="M267.736,248.655   c0-0.782-0.635-1.416-1.418-1.416"/>
	<path style="&st2;" d="M266.318,247.239   c-0.781,0-1.414,0.634-1.414,1.416"/>
	<path style="&st2;" d="M264.904,248.655   c0,0.783,0.633,1.416,1.414,1.416"/>
	<path style="&st2;" d="M266.318,250.071   c0.783,0,1.418-0.633,1.418-1.416"/>
	<path style="&st2;" d="M245.071,248.655   c0-0.782-0.633-1.416-1.416-1.416"/>
	<path style="&st2;" d="M243.655,247.239   c-0.781,0-1.416,0.634-1.416,1.416"/>
	<path style="&st2;" d="M242.239,248.655   c0,0.783,0.635,1.416,1.416,1.416"/>
	<path style="&st2;" d="M243.655,250.071   c0.783,0,1.416-0.633,1.416-1.416"/>
	<path style="&st1;" d="M264.904,282.671   c-1.613-2.738-5.141-3.649-7.879-2.037"/>
	<path style="&st1;" d="M257.024,280.634   c-0.883,0.519-1.518,1.155-2.037,2.037"/>
	<path style="&st1;" d="M245.071,282.671   c1.613,2.738,5.141,3.65,7.879,2.037"/>
	<path style="&st1;" d="M252.95,284.708   c0.881-0.52,1.518-1.154,2.037-2.037"/>
	<path style="&st2;" d="M267.736,282.671   c0-0.782-0.635-1.416-1.418-1.416"/>
	<path style="&st2;" d="M266.318,281.255   c-0.781,0-1.414,0.634-1.414,1.416"/>
	<path style="&st2;" d="M264.904,282.671   c0,0.783,0.633,1.416,1.414,1.416"/>
	<path style="&st2;" d="M266.318,284.087   c0.783,0,1.418-0.633,1.418-1.416"/>
	<path style="&st2;" d="M245.071,282.671   c0-0.782-0.633-1.416-1.416-1.416"/>
	<path style="&st2;" d="M243.655,281.255   c-0.781,0-1.416,0.634-1.416,1.416"/>
	<path style="&st2;" d="M242.239,282.671   c0,0.783,0.635,1.416,1.416,1.416"/>
	<path style="&st2;" d="M243.655,284.087   c0.783,0,1.416-0.633,1.416-1.416"/>
	<path d="M134.99,175.632v189.043h246.456v-189.043h-246.456z" style="&st1;"/>
</g>
<g id="キャプション">
	<a ewd:innerGroupID="4" style="cursor:pointer;">
		<g>
			<path d="M134.99,248.655h107.249" style="&st2;"/>
			<text transform="matrix(0.88 0 0 1 128.1301 242.1278)"><tspan style="&st4;" x="0" y="0">1</tspan></text>
		</g>
	</a>
	<a ewd:innerGroupID="3" style="cursor:pointer;">
		<g>
			<path d="M267.736,248.655h113.711" style="&st2;"/>
			<text transform="matrix(0.88 0 0 1 384.698 242.1278)"><tspan style="&st4;" x="0" y="0">2</tspan></text>
		</g>
	</a>
	<a ewd:innerGroupID="2" style="cursor:pointer;">
		<g>
			<path d="M134.99,282.671h107.249" style="&st2;"/>
			<text transform="matrix(0.88 0 0 1 128.1301 276.1434)"><tspan style="&st4;" x="0" y="0">3</tspan></text>
		</g>
	</a>
	<a ewd:innerGroupID="1" style="cursor:pointer;">
		<g>
			<path d="M267.736,282.671h113.711" style="&st2;"/>
			<text transform="matrix(0.88 0 0 1 384.698 276.1434)"><tspan style="&st4;" x="0" y="0">4</tspan></text>
		</g>
	</a>
	<text transform="matrix(1 0 0 1 230.5361 261.411)"><tspan style="&st4;" x="0" y="0">5A DEF NO.2</tspan></text>
	<text transform="matrix(1 0 0 1 230.7607 295.4266)"><tspan style="&st4;" x="0" y="0">5A ECU-ACC</tspan></text>
	<g>
		<path d="M386.502,277.615c2.792,0 5.056,2.264 5.056,5.056c0,2.792  -2.264,5.056 -5.056,5.056c-2.792,0 -5.056,-2.264 -5.056,-5.056c0,-2.792 2.264,-5.056 5.056,-5.056" style="&st2;"/>
		<text transform="matrix(0.88 0 0 1 384.1399 285.3758)"><tspan style="&st4;" x="0" y="0">A</tspan></text>
	</g>
	<g>
		<path d="M386.502,243.599c2.792,0 5.056,2.264 5.056,5.056c0,2.792  -2.264,5.056 -5.056,5.056c-2.792,0 -5.056,-2.264 -5.056,-5.056c0,-2.792 2.264,-5.056 5.056,-5.056" style="&st2;"/>
		<text transform="matrix(0.88 0 0 1 384.1399 251.3602)"><tspan style="&st4;" x="0" y="0">A</tspan></text>
	</g>
	<g>
		<path d="M129.934,277.615c2.792,0 5.056,2.264 5.056,5.056c0,2.792  -2.264,5.056 -5.056,5.056c-2.792,0 -5.056,-2.264 -5.056,-5.056c0,-2.792 2.264,-5.056 5.056,-5.056" style="&st2;"/>
		<text transform="matrix(0.88 0 0 1 127.572 285.3758)"><tspan style="&st4;" x="0" y="0">A</tspan></text>
	</g>
	<g>
		<path d="M129.934,243.599c2.792,0 5.056,2.264 5.056,5.056c0,2.792  -2.264,5.056 -5.056,5.056c-2.792,0 -5.056,-2.264 -5.056,-5.056c0,-2.792 2.264,-5.056 5.056,-5.056" style="&st2;"/>
		<text transform="matrix(0.88 0 0 1 127.572 251.3602)"><tspan style="&st4;" x="0" y="0">A</tspan></text>
	</g>
	<text transform="matrix(1 0 0 1 139.0175 160.3807)"><tspan style="&st5;" x="0" y="0">F79(A)</tspan></text>
	<text transform="matrix(1 0 0 1 139.0175 170.3021)"><tspan style="&st6;" x="0" y="0">Fuse Block Assembly No. 1</tspan></text>
</g>
</svg>