﻿<?xml version="1.0"?>
<!-- Generator: Adobe Illustrator 18.1.1, SVG Export Plug-In . SVG Version: 6.00 Build 0)  -->
<!DOCTYPE svg PUBLIC "-//W3C//DTD SVG 1.0//EN" "http://www.w3.org/TR/2001/REC-SVG-20010904/DTD/svg10.dtd"[
	<!ENTITY ns_flows "http://ns.adobe.com/Flows/1.0/">
	<!ENTITY ns_svg "http://www.w3.org/2000/svg">
	<!ENTITY ns_xlink "http://www.w3.org/1999/xlink">
	<!ENTITY st0 "fill:none;stroke:#FFFFFF;stroke-width:0.2;">
	<!ENTITY st1 "fill:none;stroke:#000000;stroke-width:0.35;stroke-linecap:round;stroke-linejoin:round;">
	<!ENTITY st2 "fill:none;stroke:#000000;stroke-width:0.175;stroke-linecap:round;stroke-linejoin:round;">
	<!ENTITY st3 "fill:none;stroke:#FFFFFF;stroke-width:0.525;stroke-linecap:round;stroke-linejoin:round;">
	<!ENTITY st4 "fill:none;stroke:#FFFFFF;stroke-width:2;">
	<!ENTITY st5 "fill:none;stroke:#000000;stroke-width:0.5;">
	<!ENTITY st6 "font-family:'Arial'; font-size:10px;">
	<!ATTLIST svg
		xmlns:ewd CDATA #FIXED "http://shcl.co.jp/ewd"
		xmlns:a CDATA #FIXED "http://ns.adobe.com/AdobeSVGViewerExtensions/3.0/"
		ewd:ver CDATA #IMPLIED>
	<!ATTLIST a
		ewd:innerGroupID CDATA #IMPLIED
		ewd:figtype CDATA #IMPLIED
		ewd:code CDATA #IMPLIED
		ewd:pinNo CDATA #IMPLIED>
]>
<svg version="1.0" x="0px" y="0px" viewBox="0 0 518.94 312.011" style="enable-background:new 0 0 518.94 312.011;" xml:space="preserve" width="518.94" height="312.011" onload="call_execInitLoadProc_svg('location')" ewd:ver="2.2.0.10" xmlns="&ns_svg;" xmlns:ewd="http://shcl.co.jp/ewd" xmlns:a="http://ns.adobe.com/AdobeSVGViewerExtensions/3.0/" xmlns:xlink="&ns_xlink;">
<script type="text/javascript" xlink:href="../../../../../system/js/ewd/fig/svgfig.js"/>
<g id="台紙">
	<path d="M0.1,0.1v311.811h518.74v-311.811h-518.74z" style="&st0;"/>
	<g>
	</g>
</g>
<g id="SDBody_0809">
	<g>
		<path style="&st1;" d="M320.413,152.29    c-0.577,0.15-1.247,0.323-1.928,0.499l-0.166-0.072c-2.027,0.523-4.1,1.057-4.1,1.057c-0.252,0.045-0.705,0.122-1.126-0.081    l-1.031-0.421l-0.109-0.03l-0.556-0.058l-1.374-0.562v-0.183l-1.094-0.447c-0.202-0.074-0.283-0.237-0.283-0.454    c0-0.217,0-3.85,0-3.85c0-0.325,0.198-0.579,0.523-0.687c0.326-0.108,8.009-2.086,8.009-2.086c0.265-0.089,0.424,0,0.495,0.035    l4.438,1.786c0.3,0.159,0.406,0.407,0.424,0.654c0.017,0.248,0,3.942,0,3.942c0,0.141-0.177,0.318-0.389,0.389    c-0.062,0.021-0.767,0.205-1.733,0.456V152.29z"/>
		<path d="M310.089,152.339l0,-0.937" style="&st2;"/>
		<path d="M312.063,153.272l0,-1.145" style="&st2;"/>
		<path style="&st2;" d="M320.308,152.215    c0.053-0.053,0.106-0.141,0.106-0.23c0-0.088,0-1.202,0-1.202c0-0.159-0.089-0.371-0.3-0.354l-1.379,0.371    c-0.283,0.071-0.336,0.336-0.336,0.477c0,0.142,0,1.114,0,1.114l-0.177,0.018"/>
		<path style="&st2;" d="M319.089,152.427    v-1.171c0,0,0.015-0.058,0.088-0.087c0.072-0.029,0.477-0.13,0.477-0.13c0.058,0,0.116,0.058,0.116,0.058"/>
		<path style="&st2;" d="M309.235,147.501    l4.172,1.697c0.189,0.094,0.472,0.094,0.636,0.047c0.165-0.047,8.014-2.122,8.014-2.122"/>
		<path d="M313.737,149.669l0,3.772" style="&st2;"/>
	</g>
	<g>
		<path style="&st1;" d="M324.614,125.153    l3.394,1.382c0.3,0.159,0.406,0.407,0.424,0.654c0.017,0.248,0,3.235,0,3.235c0,0.142-0.177,0.318-0.389,0.389    c-0.062,0.021-7.927,2.055-7.927,2.055c-0.252,0.045-0.705,0.122-1.126-0.081l-4.164-1.702c-0.202-0.074-0.283-0.237-0.283-0.454    c0-0.217,0-3.143,0-3.143c0-0.325,0.198-0.579,0.523-0.687c0.254-0.084,6.954-1.814,6.954-1.814    c0.243-0.062,0.287-0.084,0.79,0.129c0.412,0.175,0.553,0.146,1.038,0.021C324.209,125.043,324.226,124.993,324.614,125.153z"/>
		<path d="M315.132,127.301l3.447,1.402" style="&st2;"/>
		<path style="&st2;" d="M319.097,129.741    l0.409-0.109c0.159-0.044,0.268-0.044,0.427,0.016c0.014,0.005,0.181,0.063,0.331,0.121"/>
		<path d="M319.722,128.783l0,0.568" style="&st2;"/>
		<path d="M319.517,130.2l-0.649,-0.26" style="&st2;"/>
		<path style="&st2;" d="M318.774,129.677    v-0.773c0.01-0.193,0.09-0.292,0.243-0.343l0.461-0.111c0.213-0.06,0.39-0.042,0.547,0.027l0.454,0.191    c0.142,0.077,0.153,0.175,0.147,0.345v0.755c0,0.153,0.001,0.213-0.169,0.265l-0.557,0.156c-0.175,0.049-0.265,0.133-0.265,0.37    v1.974"/>
		<path d="M327.954,126.923l-6.924,1.832" style="&st2;"/>
	</g>
	<g>
		<path style="&st2;" d="M315.267,128.19    l1.408,0.542c0.202,0.095,0.202,0.183,0.202,0.303l0.009,1.804"/>
		<path d="M315.227,130.162l1.588,-0.418" style="&st2;"/>
	</g>
	<g>
		<path d="M423.458,213.044l0.497,-5.641" style="&st3;"/>
		<path style="&st3;" d="M420.805,163.828    c1.05,2.8,3.413,10.588,4.025,14.088c0.613,3.5,0.68,6.565,0.788,8.575c0.263,4.9-0.891,13.126-0.891,14.614    c0,1.488,0.337,2.991,0.337,4.041c0.096,1.058-0.241,1.298-1.01,2.116"/>
		<path style="&st3;" d="M250.408,223.45    c-3.061-12.369-10.481-21.087-16.57-19.469c-6.089,1.616-8.542,12.954-5.479,25.323c3.063,12.367,10.482,21.085,16.572,19.468    C251.019,247.156,253.472,235.818,250.408,223.45z"/>
		<path style="&st3;" d="M246.322,257.221    c0.908,0.051,1.802-0.039,2.676-0.282c5.726-1.583,9.087-9.256,9.291-19.289"/>
		<path style="&st3;" d="M241.786,196.695    c-2.944-1.954-5.959-2.702-8.765-1.924c-1.195,0.331-2.29,0.92-3.277,1.737"/>
		<path style="&st3;" d="M271.545,244.45    c-2.778,7.778-7.632,9.171-9.972,9.814c-0.696,0.194-7.736,2.03-8.348,2.177c-4.533,1.089-6.865,0.954-8.7,0.481    c-7.443-2.002-15.245-12.623-18.898-26.749c-3.629-14.034-2.041-27.184,3.356-32.823c1.926-1.989,4.714-3.428,7.697-4.352    l0.764-0.123"/>
		<path style="&st3;" d="M113.889,179.453    c1.063,0.306,2.109,0.352,3.116,0.109c2.849-0.689,4.918-3.584,6.064-7.865"/>
		<path style="&st3;" d="M114.244,130.65    c-3.411-4.542-7.21-6.952-10.568-6.14c-1.027,0.25-1.954,0.785-2.771,1.569"/>
		<path style="&st3;" d="M132.567,175.464    c-1.4,1.275-3.06,1.959-7.496,2.999c-0.552,0.129-1.147,0.264-1.789,0.406c-7.645,1.526-8.606,0.882-10.676,0.095    c-5.588-2.649-11.403-12.032-14.304-24.013c-2.896-11.967-2.023-22.959,1.723-27.88c1.688-1.886,3.038-3.032,7.82-4.306    l1.12-0.265"/>
		<path style="&st3;" d="M126.077,107.696    c-0.91,2.887-1.891,6.564-2.497,11.107c-1.219,9.143-0.152,20.571,1.981,26.514c0.866,2.412,1.807,5.452,2.62,8.304l1.862,8.632    c0.7,3.588,1.137,5.25,3.238,6.387"/>
		<path style="&st3;" d="M242.412,145.804    c-0.616,0.382-1.204,0.939-1.507,1.748c0,0-2.816,6.723-3.516,9.056c-0.169,0.564-0.337,0.928-0.422,1.925    c-0.163,1.925-1.057,4.135-2.669,8.137c-3.858,9.579-9.551,15.209-11.908,18.942c-3.78,5.32-5.278,11.75-5.45,15.282l-0.116,1.302    c-0.233,1.867-0.907,7.889-2.307,9.755c0,0-1.125,0.764-2.525,0.064c-21.01-11.19-62.169-34.067-78.556-43.345"/>
		<path style="&st3;" d="M219.568,202.072    c0.797-8.314,5.193-12.331,11.16-11.958c2.733,0.171,6.171,1.633,9.623,4.442c10.99,8.94,18.753,27.664,23.42,43.764    c0.629,1.183,1.936,4.015,1.936,4.015s0.872,0.654,2.179,1.089c1.307,0.435,23.009,6.159,23.009,6.159    c6.155,1.816,12.501,1.683,17.511,1.248l9.614-1.212c1.564-0.241,2.527-0.722,3.369-1.324c0.842-0.602,5.814-2.391,10.266-3.353    c4.452-0.962,21.129-3.703,40.15-9.19c17.461-5.036,25.287-8.011,36.925-12.775c3.432-1.405,4.84-1.457,6.628-1.308    c1.046,0.087,2.136-0.314,2.616-0.589c0.916-0.523,5.69-3.859,5.69-3.859c0.523-0.327,0.906-1.072,1.112-1.897    c0.392-1.57,0.457-2.486-1.178-3.532"/>
		<path style="&st3;" d="M186.472,124.268    c-3.15,2.374-5.326,7.053-6.344,13.197c-1.586,9.568-3.445,17.227-1.013,30.604c2.432,13.377,2.027,17.835,2.027,18.646    c0,0.811,0,2.838,0.405,3.648c0.405,0.811,2.837,6.486,2.837,6.486"/>
		<path style="&st3;" d="M97.405,150.353    c-1.75-0.7-6.3-6.825-7.175-9.8c-0.35-1.05,0.525-3.5,0.875-4.025c0-2.975-2.8-15.4-1.925-24.5s3.325-10.15,3.325-10.15"/>
		<path style="&st3;" d="M104.93,88.053    c0,0-4.2,1.575-5.775,2.1c-1.575,0.525-2.8,1.575-4.025,2.975c-1.225,1.4-2.1,2.625-2.45,4.725s-0.35,5.075-0.35,7.175    l0.841,0.774c1.832-1.603,6.527-4.351,7.901-4.924s1.718-1.145,2.176-1.718c0.458-0.573,1.145-2.29,1.145-2.29    c0.343-1.145,0-1.832-0.801-2.863c-0.802-1.031-1.489-2.519-0.229-4.122l2.519-2.634c0.916-0.687,1.03-0.916,1.832-1.26    c0.333-0.143,6.757-3.308,16.728-6.397c7.029-2.177,13.466-4.312,23.333-6.271c9.867-1.958,24.564-3.711,36.167-4.667"/>
		<path style="&st3;" d="M103.224,92.743    l1.84-0.92c1.073-0.306,1.877-0.497,2.95-0.191s5.705,1.141,5.705,1.141c1.997,0.499,2.924,0.499,4.229-0.641    c0.979-0.856,2.553-1.406,3.473-1.712c0.92-0.307,4.486-1.476,6.632-1.783l16.603-5.781"/>
		<path style="&st3;" d="M132.336,90.704    c-3.757,1.056-9.698,3.971-12.696,7.536c-1.024,1.024-1.641,2.249-1.68,2.76c-0.085,1.119,0,2.76,0,2.76    c0,1.024,1.475,2.085,1.877,2.312c2.944,1.664,3.711,1.664,5.119,1.664s4.735-0.384,4.735-0.384    c1.92-0.256,2.861-0.936,3.747-2.332c0.808-1.273,2.523-7.778,2.523-10.465c0-2.688-0.272-3.122-0.783-3.633    S133,90.517,132.336,90.704z"/>
		<path style="&st3;" d="M135.919,91.643    c7.468-4.979,14.413-8.124,24.371-12.055c10.614-4.19,17.715-4.278,26.074-2.358c17.689,4.062,34.198,13.889,39.439,17.165    c4.177,2.61,9.172,7.207,14.151,14.544c4.979,7.338,16.116,29.088,16.771,30.791c0.655,1.703,0,3.407-1.179,3.669    c0,0-7.338,2.489-8.779,2.751c-1.441,0.262-3.276-0.131-5.634-0.786l-103.424-40.17"/>
		<path style="&st3;" d="M133.268,105.407    c1.664-0.544,3-0.609,4.223,0.124c0.218-0.708,1.053-1.636,1.795-1.265c0,0,3.525-11.223,6.4-17.345l-0.371-0.649"/>
		<path d="M139.287,104.267l43.74,17.012" style="&st3;"/>
		<path style="&st3;" d="M182.94,122.631    c0.963-4.263,3.272-11.117,5.954-17.569c3.818-9.187,8.759-17.794,12.24-23.066"/>
		<path style="&st3;" d="M190.942,125.584    l0.955-0.822c1.097-6.035,3.523-12.995,7.369-23.285c1.574-4.211,3.227-7.999,6.641-14.466c-0.201-0.216,0.027-0.559,0.199-0.901    c0.171-0.343,1.029-1.771,1.029-1.771"/>
		<path style="&st3;" d="M206.126,87.076    c4.39,2.004,8.955,4.241,13.231,6.557c5.978,3.238,11.887,7.351,16.642,13.302c-2.242,5.084-9.949,23.816-11.235,30.501"/>
		<path style="&st3;" d="M144.83,88.928    c7.7-4.025,17.878-8.762,25.375-10.15c4.725-0.875,9.232-0.904,14.132,0.146c2.542,0.545,8.839,2.567,15.45,5.364"/>
		<path style="&st3;" d="M225.657,137.733    c0.687-3.374,2.813-9.647,4.985-15.248c2.296-5.924,4.743-11.542,5.404-13.062c0.302-0.655,0.957-0.604,1.41,0.101    c0.416,0.647,0.729,1.247,1.013,1.719c2.67,4.45,6.462,10.41,9.787,16.185c0.35,0.992,0.467,1.458,0.175,2.158    c-0.292,0.7-4.492,11.375-5.658,14.875l-0.292-0.058l-50.63-19.641"/>
		<path style="&st3;" d="M224.252,223.909    c0,0-4.713,0.647-5.082,0.647c-0.37,0-0.924,0.185-1.991-0.557c-11.963-8.304-21.26-14.563-30.778-20.106    c-7.135-4.156-14.551-7.9-22.446-11.847c-16.536-8.268-29.853-15.662-38.596-20.483c-0.299-0.303-0.506-0.579-0.506-0.579    s-0.413-0.758-0.275-1.928c0.138-1.17,0.619-6.473,0.482-8.882c-0.138-2.41-0.689-6.335-1.239-8.262l-0.141-0.687    c-1.276-5.036-3.908-11.307-6.849-17.123c-3.034-5.999-6.8-11.147-9.953-13.39c-5.626-4.001-9.505-1.157-10.869,2.226    c-1.14,2.975-1.494,4.534-1.398,8.061"/>
		<path style="&st3;" d="M325.78,190.019    c-1.458-4.725-2.275-6.883-3.908-10.033c-1.153-2.223-2.683-3.15-5.25-3.15c-11.949-0.736-18.093-1.584-25.243-3.371    c-7.965-1.991-21.764-7.018-22.899-7.321c-1.75-0.467-2.257-0.275-2.607,0.775s-0.467,1.167,1.05,3.15    c5.157,5.7,9.643,13.688,12.573,19.971c2.944,1.262,7.631,3.124,12.49,4.431c9.796,2.634,25.37,3.913,35.805,6.456    c0.315,0.118,0.472-0.039,0.591-0.158c0.118-0.118,0.275-0.433,0.275-0.433c0.079-0.158-0.039-0.512-0.039-0.512    S327.243,194.758,325.78,190.019z"/>
		<path style="&st3;" d="M247.849,202.675    c0,0,2.222-1.646,3.045-1.975c0.823-0.329,1.24-0.327,1.811-0.247c4.115,0.576,12.262,1.975,24.936,4.197    c3.348,0.587,5.996-0.923,5.432-5.185c-0.16-1.205-1.507-4.981-3.435-9.193"/>
		<path style="&st3;" d="M406.255,180.346    c0.347,0.043,0.51,0.041,0.793-0.215c1.007-0.911,3.756-3.888,6.714-6.985c2.8-2.931,5.063-5.919,6.933-9.017    c0.768-1.272,0.971-2.633,0.898-4.458c-0.087-2.187-0.4-4.427-0.483-4.842c-0.083-0.415-0.249-1.827-0.498-2.491    c0,0-1.031-2.554-1.819-4.479c-0.549-1.342-0.803-1.695-2.713-3.106c-1.91-1.411-5.732-3.021-5.732-3.021    c2.84,2.515,3.57,4.3,2.921,6.329c-0.553,1.728-3.327,4.868-4.219,5.761c-0.892,0.893-0.649,1.623-0.649,2.596    c0,0,0.568,4.625,0.73,5.598s-0.162,1.461-0.162,1.461l-0.414,0.587c-0.27,3.448-0.563,7.728-1.262,11.735    c-0.578,3.313-1.482,6.383-2.444,9.139c-1.967,5.639-3.953,7.411-11.364,10.375c-3.613,1.445-13.092,5.064-27.173,8.646    c-13.111,3.335-22.593,4.979-29.51,5.844c-3.329,0.416-5.691-0.409-6.309-2.509c-0.618-2.1-1.839-6.957-1.839-6.957"/>
		<path style="&st3;" d="M287.805,248.236    l0.233-0.35l1.4-0.817l10.15-5.367c1.867-0.583,3.267-1.283,6.3-1.517c3.033-0.233,13.067-0.933,21.292-1.983    c8.225-1.05,16.275-2.8,26.6-4.9"/>
		<path style="&st3;" d="M291.736,246.026    c4.085,1.04,6.388,1.485,10.472,1.485s5.496-0.297,7.576-0.52c2.079-0.223,4.159-0.966,5.273-2.451    c1.114-1.485,3.045-5.347,3.045-5.347"/>
		<path style="&st3;" d="M391.982,222.499    c11.108-3.639,22.695-8.81,32.558-15.8"/>
		<path style="&st3;" d="M339.05,214.804    c0.8,0.054,2.436,0.037,3.47-0.072c8.635-0.912,20.024-3.346,34.885-7.329c11.317-3.033,23.424-7.976,26.483-9.567    c2.825-1.469,3.747-3.143,4.9-5.6c1.26-2.685,3.033-7.117,6.533-13.417c3.254-5.858,6.047-11.854,5.367-14.7"/>
		<path style="&st3;" d="M330.766,207.679    c0.238,1.13,1.605,3.273,2.39,4.193"/>
		<path style="&st3;" d="M310.595,176.254    c0,0-0.897-2.59-1.102-3.102c-0.205-0.512-0.505-1.121-1.12-1.736c0,0-2.813-3.111-3.949-4.097    c-0.495-0.43-1.041-0.915-2.152-1.508c-0.512-0.274-3.558-1.75-7.215-3.716c-3.617-1.945-5.152-3.284-5.677-8.184    c-1.661-1.111-3.174-2.624-5.734-5.998l-26.874-36.293c-5.74-8.024-13.153-15.93-21.996-21.736    c-7.739-5.081-15.905-8.462-23.855-11.511c-17.107-6.562-25.268-7.072-34.272-6.581c-18.763,2.165-37.046,13.712-42.727,16.845    c-2.148,1.184-4.783,1.633-5.6,0.233"/>
		<path style="&st3;" d="M289.38,153.911    c3.576,0.169,6.253-0.064,9.51-0.529s27.939-6.179,45.439-10.379c17.5-4.2,33.6-8.05,40.075-10.325    c4.03-1.416,4.044-1.666,4.622-2.606l1.202,0.011c2.513,0.821,8.063,3.249,12.688,7.024c2.109,1.721,4.658,3.609,6.013,5.706    c1.792,2.775,2.399,5.906,2.824,7.775"/>
		<path style="&st3;" d="M256.772,111.619    c0,0,77.408-17.267,91.058-20.067"/>
		<path style="&st3;" d="M382.651,122.489    c2.58,1.214,8.645,5.109,14.744,9.232c4.892,3.307,9.671,7.234,12.953,10.011"/>
		<path style="&st3;" d="M176.649,71.791    c6.156-2.813,19.571-7.37,39.406-11.563c15.542-3.286,33.73-5.621,49.875-5.775c5.6-0.875,7.551-0.96,16.248,1.193    c4.229,1.047,12.093,3.438,22.982,8.009c9.402,3.946,17.017,7.945,25.335,12.838c10.428,6.134,22.542,16.645,33.691,27.325    c5.239,5.019,11.54,11.656,17.083,17.246c3.557,3.649,7.363,7.264,8.974,8.969"/>
		<path style="&st3;" d="M266.734,54.408    c6.075-0.75,19.002,3.188,36.208,10.107c16.538,6.65,32.725,15.925,45.15,27.125c1.843,1.465,7.5,6.53,13.913,12.408    c8.725,7.998,18.867,18.677,26.075,27.054"/>
		<path style="&st3;" d="M243.466,145.857    c1.166-1.036,1.27-1.244,1.684-2.124c0.635-1.349,5.939-15.185,5.939-15.185"/>
		<path style="&st3;" d="M416.359,211.92    c0.825,3.713,2.148,4.93,3.403,4.185c1.468-0.872,2.443-1.484,3.449-2.534"/>
		<path style="&st3;" d="M324.439,185.353    c11.534-0.624,28.94-3.094,48.284-8.287c11.189-3.004,22.207-5.786,35.834-13.003"/>
		<path style="&st3;" d="M322.054,180.037    c11.729-1.251,30.686-4.199,49.921-9.047c11.233-2.831,24.191-6.589,36.58-13.026"/>
		<path style="&st3;" d="M281.274,191.485    c4.308,2.202,15.708,6.433,28.408,10.097c9.152,2.641,17.41,6.768,20.878,8.728c2.888,1.709,5.172,4.549,8.413,4.549"/>
		<path style="&st3;" d="M311.08,171.878    c8.083-1.535,21.173-3.696,34.65-6.475c9.574-1.974,19.942-4.308,26.775-6.125c15.55-4.136,30.428-8.502,36.636-11.558"/>
		<path style="&st3;" d="M186.935,124.161    c1.721-7.459,6.577-22.889,17.019-40.904"/>
		<path style="&st3;" d="M121.583,106.478    c-0.488-0.427-0.648-0.889-0.648-1.498c0-0.609,0.114-2.29,0.114-2.29c0.122-0.914,0.731-2.864,2.377-4.448    c1.645-1.584,3.899-2.985,8.897-5.484c1.706-0.853,2.742-0.914,3.169,0.122"/>
		<path style="&st3;" d="M121.016,104.251    c0,0.85,1.136,1.992,2.308,2.065c2.592,0.162,4.292,0.081,6.763-0.365c1.094-0.197,1.618-0.866,1.984-1.782    c0.405-1.012,1.089-3.718,1.255-7.33c0.162-3.523,0.057-4.117-1.004-4.083"/>
		<path d="M95.13,104.153 l0.527,12.228 l1.533,4.332 " style="&st3;"/>
		<path d="M108.97,131.789c4.822,0 8.732,9.117 8.732,20.364c0,11.247  -3.91,20.364 -8.732,20.364c-4.822,0 -8.732,-9.117 -8.732,-20.364c0,-11.247 3.91,-20.364 8.732,-20.364" style="&st3;" transform="matrix(0.9761 -0.2173 0.2173 0.9761 -30.4643 27.321)"/>
	</g>
	<g>
		<path d="M423.458,213.044l0.497,-5.641" style="&st2;"/>
		<path style="&st2;" d="M420.805,163.828    c1.05,2.8,3.413,10.588,4.025,14.088c0.613,3.5,0.68,6.565,0.788,8.575c0.263,4.9-0.891,13.126-0.891,14.614    c0,1.488,0.337,2.991,0.337,4.041c0.096,1.058-0.241,1.298-1.01,2.116"/>
		<path style="&st2;" d="M250.408,223.45    c-3.061-12.369-10.481-21.087-16.57-19.469c-6.089,1.616-8.542,12.954-5.479,25.323c3.063,12.367,10.482,21.085,16.572,19.468    C251.019,247.156,253.472,235.818,250.408,223.45z"/>
		<path style="&st2;" d="M246.322,257.221    c0.908,0.051,1.802-0.039,2.676-0.282c5.726-1.583,9.087-9.256,9.291-19.289"/>
		<path style="&st2;" d="M241.786,196.695    c-2.944-1.954-5.959-2.702-8.765-1.924c-1.195,0.331-2.29,0.92-3.277,1.737"/>
		<path style="&st2;" d="M271.545,244.45    c-2.778,7.778-7.632,9.171-9.972,9.814c-0.696,0.194-7.736,2.03-8.348,2.177c-4.533,1.089-6.865,0.954-8.7,0.481    c-7.443-2.002-15.245-12.623-18.898-26.749c-3.629-14.034-2.041-27.184,3.356-32.823c1.926-1.989,4.714-3.428,7.697-4.352    l0.764-0.123"/>
		<path style="&st2;" d="M113.889,179.453    c1.063,0.306,2.109,0.352,3.116,0.109c2.849-0.689,4.918-3.584,6.064-7.865"/>
		<path style="&st2;" d="M114.244,130.65    c-3.411-4.542-7.21-6.952-10.568-6.14c-1.027,0.25-1.954,0.785-2.771,1.569"/>
		<path style="&st2;" d="M132.567,175.464    c-1.4,1.275-3.06,1.959-7.496,2.999c-0.552,0.129-1.147,0.264-1.789,0.406c-7.645,1.526-8.606,0.882-10.676,0.095    c-5.588-2.649-11.403-12.032-14.304-24.013c-2.896-11.967-2.023-22.959,1.723-27.88c1.688-1.886,3.038-3.032,7.82-4.306    l1.12-0.265"/>
		<path style="&st2;" d="M126.077,107.696    c-0.91,2.887-1.891,6.564-2.497,11.107c-1.219,9.143-0.152,20.571,1.981,26.514c0.866,2.412,1.807,5.452,2.62,8.304l1.862,8.632    c0.7,3.588,1.137,5.25,3.238,6.387"/>
		<path style="&st2;" d="M242.412,145.804    c-0.616,0.382-1.204,0.939-1.507,1.748c0,0-2.816,6.723-3.516,9.056c-0.169,0.564-0.337,0.928-0.422,1.925    c-0.163,1.925-1.057,4.135-2.669,8.137c-3.858,9.579-9.551,15.209-11.908,18.942c-3.78,5.32-5.278,11.75-5.45,15.282l-0.116,1.302    c-0.233,1.867-0.907,7.889-2.307,9.755c0,0-1.125,0.764-2.525,0.064c-21.01-11.19-62.169-34.067-78.556-43.345"/>
		<path style="&st2;" d="M219.568,202.072    c0.797-8.314,5.193-12.331,11.16-11.958c2.733,0.171,6.171,1.633,9.623,4.442c10.99,8.94,18.753,27.664,23.42,43.764    c0.629,1.183,1.936,4.015,1.936,4.015s0.872,0.654,2.179,1.089c1.307,0.435,23.009,6.159,23.009,6.159    c6.155,1.816,12.501,1.683,17.511,1.248l9.614-1.212c1.564-0.241,2.527-0.722,3.369-1.324c0.842-0.602,5.814-2.391,10.266-3.353    c4.452-0.962,21.129-3.703,40.15-9.19c17.461-5.036,25.287-8.011,36.925-12.775c3.432-1.405,4.84-1.457,6.628-1.308    c1.046,0.087,2.136-0.314,2.616-0.589c0.916-0.523,5.69-3.859,5.69-3.859c0.523-0.327,0.906-1.072,1.112-1.897    c0.392-1.57,0.457-2.486-1.178-3.532"/>
		<path style="&st2;" d="M186.472,124.268    c-3.15,2.374-5.326,7.053-6.344,13.197c-1.586,9.568-3.445,17.227-1.013,30.604c2.432,13.377,2.027,17.835,2.027,18.646    c0,0.811,0,2.838,0.405,3.648c0.405,0.811,2.837,6.486,2.837,6.486"/>
		<path style="&st2;" d="M97.405,150.353    c-1.75-0.7-6.3-6.825-7.175-9.8c-0.35-1.05,0.525-3.5,0.875-4.025c0-2.975-2.8-15.4-1.925-24.5s3.325-10.15,3.325-10.15"/>
		<path style="&st2;" d="M104.93,88.053    c0,0-4.2,1.575-5.775,2.1c-1.575,0.525-2.8,1.575-4.025,2.975c-1.225,1.4-2.1,2.625-2.45,4.725s-0.35,5.075-0.35,7.175    l0.841,0.774c1.832-1.603,6.527-4.351,7.901-4.924s1.718-1.145,2.176-1.718c0.458-0.573,1.145-2.29,1.145-2.29    c0.343-1.145,0-1.832-0.801-2.863c-0.802-1.031-1.489-2.519-0.229-4.122l2.519-2.634c0.916-0.687,1.03-0.916,1.832-1.26    c0.333-0.143,6.757-3.308,16.728-6.397c7.029-2.177,13.466-4.312,23.333-6.271c9.867-1.958,24.564-3.711,36.167-4.667"/>
		<path style="&st2;" d="M103.224,92.743    l1.84-0.92c1.073-0.306,1.877-0.497,2.95-0.191s5.705,1.141,5.705,1.141c1.997,0.499,2.924,0.499,4.229-0.641    c0.979-0.856,2.553-1.406,3.473-1.712c0.92-0.307,4.486-1.476,6.632-1.783l16.603-5.781"/>
		<path style="&st2;" d="M132.336,90.704    c-3.757,1.056-9.698,3.971-12.696,7.536c-1.024,1.024-1.641,2.249-1.68,2.76c-0.085,1.119,0,2.76,0,2.76    c0,1.024,1.475,2.085,1.877,2.312c2.944,1.664,3.711,1.664,5.119,1.664s4.735-0.384,4.735-0.384    c1.92-0.256,2.861-0.936,3.747-2.332c0.808-1.273,2.523-7.778,2.523-10.465c0-2.688-0.272-3.122-0.783-3.633    S133,90.517,132.336,90.704z"/>
		<path style="&st2;" d="M135.919,91.643    c7.468-4.979,14.413-8.124,24.371-12.055c10.614-4.19,17.715-4.278,26.074-2.358c17.689,4.062,34.198,13.889,39.439,17.165    c4.177,2.61,9.172,7.207,14.151,14.544c4.979,7.338,16.116,29.088,16.771,30.791c0.655,1.703,0,3.407-1.179,3.669    c0,0-7.338,2.489-8.779,2.751c-1.441,0.262-3.276-0.131-5.634-0.786l-103.424-40.17"/>
		<path style="&st2;" d="M133.268,105.407    c1.664-0.544,3-0.609,4.223,0.124c0.218-0.708,1.053-1.636,1.795-1.265c0,0,3.525-11.223,6.4-17.345l-0.371-0.649"/>
		<path d="M139.287,104.267l43.74,17.012" style="&st2;"/>
		<path style="&st2;" d="M182.94,122.631    c0.963-4.263,3.272-11.117,5.954-17.569c3.818-9.187,8.759-17.794,12.24-23.066"/>
		<path style="&st2;" d="M190.942,125.584    l0.955-0.822c1.097-6.035,3.523-12.995,7.369-23.285c1.574-4.211,3.227-7.999,6.641-14.466c-0.201-0.216,0.027-0.559,0.199-0.901    c0.171-0.343,1.029-1.771,1.029-1.771"/>
		<path style="&st2;" d="M206.126,87.076    c4.39,2.004,8.955,4.241,13.231,6.557c5.978,3.238,11.887,7.351,16.642,13.302c-2.242,5.084-9.949,23.816-11.235,30.501"/>
		<path style="&st2;" d="M144.83,88.928    c7.7-4.025,17.878-8.762,25.375-10.15c4.725-0.875,9.232-0.904,14.132,0.146c2.542,0.545,8.839,2.567,15.45,5.364"/>
		<path style="&st2;" d="M225.657,137.733    c0.687-3.374,2.813-9.647,4.985-15.248c2.296-5.924,4.743-11.542,5.404-13.062c0.302-0.655,0.957-0.604,1.41,0.101    c0.416,0.647,0.729,1.247,1.013,1.719c2.67,4.45,6.462,10.41,9.787,16.185c0.35,0.992,0.467,1.458,0.175,2.158    c-0.292,0.7-4.492,11.375-5.658,14.875l-0.292-0.058l-50.63-19.641"/>
		<path style="&st2;" d="M224.252,223.909    c0,0-4.713,0.647-5.082,0.647c-0.37,0-0.924,0.185-1.991-0.557c-11.963-8.304-21.26-14.563-30.778-20.106    c-7.135-4.156-14.551-7.9-22.446-11.847c-16.536-8.268-29.853-15.662-38.596-20.483c-0.299-0.303-0.506-0.579-0.506-0.579    s-0.413-0.758-0.275-1.928c0.138-1.17,0.619-6.473,0.482-8.882c-0.138-2.41-0.689-6.335-1.239-8.262l-0.141-0.687    c-1.276-5.036-3.908-11.307-6.849-17.123c-3.034-5.999-6.8-11.147-9.953-13.39c-5.626-4.001-9.505-1.157-10.869,2.226    c-1.14,2.975-1.494,4.534-1.398,8.061"/>
		<path style="&st2;" d="M325.78,190.019    c-1.458-4.725-2.275-6.883-3.908-10.033c-1.153-2.223-2.683-3.15-5.25-3.15c-11.949-0.736-18.093-1.584-25.243-3.371    c-7.965-1.991-21.764-7.018-22.899-7.321c-1.75-0.467-2.257-0.275-2.607,0.775s-0.467,1.167,1.05,3.15    c5.157,5.7,9.643,13.688,12.573,19.971c2.944,1.262,7.631,3.124,12.49,4.431c9.796,2.634,25.37,3.913,35.805,6.456    c0.315,0.118,0.472-0.039,0.591-0.158c0.118-0.118,0.275-0.433,0.275-0.433c0.079-0.158-0.039-0.512-0.039-0.512    S327.243,194.758,325.78,190.019z"/>
		<path style="&st2;" d="M247.849,202.675    c0,0,2.222-1.646,3.045-1.975c0.823-0.329,1.24-0.327,1.811-0.247c4.115,0.576,12.262,1.975,24.936,4.197    c3.348,0.587,5.996-0.923,5.432-5.185c-0.16-1.205-1.507-4.981-3.435-9.193"/>
		<path style="&st2;" d="M406.255,180.346    c0.347,0.043,0.51,0.041,0.793-0.215c1.007-0.911,3.756-3.888,6.714-6.985c2.8-2.931,5.063-5.919,6.933-9.017    c0.768-1.272,0.971-2.633,0.898-4.458c-0.087-2.187-0.4-4.427-0.483-4.842c-0.083-0.415-0.249-1.827-0.498-2.491    c0,0-1.031-2.554-1.819-4.479c-0.549-1.342-0.803-1.695-2.713-3.106c-1.91-1.411-5.732-3.021-5.732-3.021    c2.84,2.515,3.57,4.3,2.921,6.329c-0.553,1.728-3.327,4.868-4.219,5.761c-0.892,0.893-0.649,1.623-0.649,2.596    c0,0,0.568,4.625,0.73,5.598s-0.162,1.461-0.162,1.461l-0.414,0.587c-0.27,3.448-0.563,7.728-1.262,11.735    c-0.578,3.313-1.482,6.383-2.444,9.139c-1.967,5.639-3.953,7.411-11.364,10.375c-3.613,1.445-13.092,5.064-27.173,8.646    c-13.111,3.335-22.593,4.979-29.51,5.844c-3.329,0.416-5.691-0.409-6.309-2.509c-0.618-2.1-1.839-6.957-1.839-6.957"/>
		<path style="&st2;" d="M287.805,248.236    l0.233-0.35l1.4-0.817l10.15-5.367c1.867-0.583,3.267-1.283,6.3-1.517c3.033-0.233,13.067-0.933,21.292-1.983    c8.225-1.05,16.275-2.8,26.6-4.9"/>
		<path style="&st2;" d="M291.736,246.026    c4.085,1.04,6.388,1.485,10.472,1.485s5.496-0.297,7.576-0.52c2.079-0.223,4.159-0.966,5.273-2.451    c1.114-1.485,3.045-5.347,3.045-5.347"/>
		<path style="&st2;" d="M391.982,222.499    c11.108-3.639,22.695-8.81,32.558-15.8"/>
		<path style="&st2;" d="M339.05,214.804    c0.8,0.054,2.436,0.037,3.47-0.072c8.635-0.912,20.024-3.346,34.885-7.329c11.317-3.033,23.424-7.976,26.483-9.567    c2.825-1.469,3.747-3.143,4.9-5.6c1.26-2.685,3.033-7.117,6.533-13.417c3.254-5.858,6.047-11.854,5.367-14.7"/>
		<path style="&st2;" d="M330.766,207.679    c0.238,1.13,1.605,3.273,2.39,4.193"/>
		<path style="&st2;" d="M310.595,176.254    c0,0-0.897-2.59-1.102-3.102c-0.205-0.512-0.505-1.121-1.12-1.736c0,0-2.813-3.111-3.949-4.097    c-0.495-0.43-1.041-0.915-2.152-1.508c-0.512-0.274-3.558-1.75-7.215-3.716c-3.617-1.945-5.152-3.284-5.677-8.184    c-1.661-1.111-3.174-2.624-5.734-5.998l-26.874-36.293c-5.74-8.024-13.153-15.93-21.996-21.736    c-7.739-5.081-15.905-8.462-23.855-11.511c-17.107-6.562-25.268-7.072-34.272-6.581c-18.763,2.165-37.046,13.712-42.727,16.845    c-2.148,1.184-4.783,1.633-5.6,0.233"/>
		<path style="&st2;" d="M289.38,153.911    c3.576,0.169,6.253-0.064,9.51-0.529s27.939-6.179,45.439-10.379c17.5-4.2,33.6-8.05,40.075-10.325    c4.03-1.416,4.044-1.666,4.622-2.606l1.202,0.011c2.513,0.821,8.063,3.249,12.688,7.024c2.109,1.721,4.658,3.609,6.013,5.706    c1.792,2.775,2.399,5.906,2.824,7.775"/>
		<path style="&st2;" d="M256.772,111.619    c0,0,77.408-17.267,91.058-20.067"/>
		<path style="&st2;" d="M382.651,122.489    c2.58,1.214,8.645,5.109,14.744,9.232c4.892,3.307,9.671,7.234,12.953,10.011"/>
		<path style="&st2;" d="M176.649,71.791    c6.156-2.813,19.571-7.37,39.406-11.563c15.542-3.286,33.73-5.621,49.875-5.775c5.6-0.875,7.551-0.96,16.248,1.193    c4.229,1.047,12.093,3.438,22.982,8.009c9.402,3.946,17.017,7.945,25.335,12.838c10.428,6.134,22.542,16.645,33.691,27.325    c5.239,5.019,11.54,11.656,17.083,17.246c3.557,3.649,7.363,7.264,8.974,8.969"/>
		<path style="&st2;" d="M266.734,54.408    c6.075-0.75,19.002,3.188,36.208,10.107c16.538,6.65,32.725,15.925,45.15,27.125c1.843,1.465,7.5,6.53,13.913,12.408    c8.725,7.998,18.867,18.677,26.075,27.054"/>
		<path style="&st2;" d="M243.466,145.857    c1.166-1.036,1.27-1.244,1.684-2.124c0.635-1.349,5.939-15.185,5.939-15.185"/>
		<path style="&st2;" d="M416.359,211.92    c0.825,3.713,2.148,4.93,3.403,4.185c1.468-0.872,2.443-1.484,3.449-2.534"/>
		<path style="&st2;" d="M324.439,185.353    c11.534-0.624,28.94-3.094,48.284-8.287c11.189-3.004,22.207-5.786,35.834-13.003"/>
		<path style="&st2;" d="M322.054,180.037    c11.729-1.251,30.686-4.199,49.921-9.047c11.233-2.831,24.191-6.589,36.58-13.026"/>
		<path style="&st2;" d="M281.274,191.485    c4.308,2.202,15.708,6.433,28.408,10.097c9.152,2.641,17.41,6.768,20.878,8.728c2.888,1.709,5.172,4.549,8.413,4.549"/>
		<path style="&st2;" d="M311.08,171.878    c8.083-1.535,21.173-3.696,34.65-6.475c9.574-1.974,19.942-4.308,26.775-6.125c15.55-4.136,30.428-8.502,36.636-11.558"/>
		<path style="&st2;" d="M186.935,124.161    c1.721-7.459,6.577-22.889,17.019-40.904"/>
		<path style="&st2;" d="M121.583,106.478    c-0.488-0.427-0.648-0.889-0.648-1.498c0-0.609,0.114-2.29,0.114-2.29c0.122-0.914,0.731-2.864,2.377-4.448    c1.645-1.584,3.899-2.985,8.897-5.484c1.706-0.853,2.742-0.914,3.169,0.122"/>
		<path style="&st2;" d="M121.016,104.251    c0,0.85,1.136,1.992,2.308,2.065c2.592,0.162,4.292,0.081,6.763-0.365c1.094-0.197,1.618-0.866,1.984-1.782    c0.405-1.012,1.089-3.718,1.255-7.33c0.162-3.523,0.057-4.117-1.004-4.083"/>
		<path d="M95.13,104.153 l0.527,12.228 l1.533,4.332 " style="&st2;"/>
		<path d="M108.97,131.789c4.822,0 8.732,9.117 8.732,20.364c0,11.247  -3.91,20.364 -8.732,20.364c-4.822,0 -8.732,-9.117 -8.732,-20.364c0,-11.247 3.91,-20.364 8.732,-20.364" style="&st2;" transform="matrix(0.9761 -0.2173 0.2173 0.9761 -30.4643 27.321)"/>
	</g>
</g>
<g id="キャプション">
	<text transform="matrix(1 0 0 1 235.1234 303.4066)"><tspan style="&st6;" x="0" y="0">Door Control Receiver</tspan></text>
	<text transform="matrix(1 0 0 1 261.1073 17.2392)"><tspan x="0" y="0" style="&st6;">Tire Pressure Warning ECU and Receiver </tspan><tspan x="0" y="10" style="&st6;">(Tire Pressure Monitor Receiver Assembly)</tspan></text>
	<g>
		<path d="M356.99,29.864 l0,16.5 l-35.395,81.266 " style="&st4;"/>
		<path d="M356.99,29.864 l0,16.5 l-35.395,81.266 " style="&st5;"/>
	</g>
	<g>
		<path d="M284.586,293.465 l0,-16.5 l31.506,-129.264 " style="&st4;"/>
		<path d="M284.586,293.465 l0,-16.5 l31.506,-129.264 " style="&st5;"/>
	</g>
</g>
</svg>