﻿<?xml version="1.0" encoding="UTF-8"?>
<!DOCTYPE svg PUBLIC "-//W3C//DTD SVG 1.0//EN" "http://www.w3.org/TR/2001/REC-SVG-20010904/DTD/svg10.dtd"[
	<!ENTITY ns_flows "http://ns.adobe.com/Flows/1.0/">
	<!ENTITY ns_svg "http://www.w3.org/2000/svg">
	<!ENTITY ns_xlink "http://www.w3.org/1999/xlink">
	<!ENTITY st0 "font-size:7px;font-family:'MS-PGothic';adobe-font-script:japanese;">
	<!ENTITY st1 "font-size:6px;font-family:'ArialMT';">
	<!-- White fill  -->
	<!ENTITY st2 "fill:#FFFFFF;stroke:#000000; stroke-width:1.41;stroke-linecap:round;stroke-linejoin:round;">
	<!-- Yellow fill  -->
	<!ENTITY st3 "fill:#FFFFCC;stroke:#FFFFCC; stroke-width:0.1;stroke-linecap:round;stroke-linejoin:round;">
	<!-- Gray fill  -->
	<!ENTITY st4 "fill:#CCCCCC;stroke:#CCCCCC; stroke-width:0.1;stroke-linecap:round;stroke-linejoin:round;">
	<!-- Light-blue fill -->
	<!ENTITY st5 "fill:#CCECF4;stroke:#000000; stroke-width:1.133;stroke-linecap:round;stroke-linejoin:round;">
	<!ENTITY st6 "fill:none;stroke-linecap:butt; stroke-linejoin:round;">
	<!ENTITY st7 "fill:none;stroke:#000000;stroke-linecap:round;stroke-linejoin:round;">
	<!ENTITY st8 "enable-background:new    ;">
	<!-- Black fill -->
	<!ENTITY st9 "fill:#000000;stroke:#000000; stroke-linecap:round;stroke-linejoin:round;">
	<!-- SRS note   -->
	<!ENTITY st10 "font-size:9px;font-family:'ArialMT';">
	<!ENTITY st11 "font-size:9px;font-family:'Svg Symbol';">
	<!ENTITY st12 "font-size:6px;font-family:'Svg Symbol';">
	<!ENTITY st13 "fill:none;stroke:#ff0000;stroke-linecap:round;stroke-linejoin:round;">
	<!-- Yellow fill  -->
	<!ENTITY st14 "fill:#FFFF00;stroke:#FFFF00; stroke-width:0.1;stroke-linecap:round;stroke-linejoin:round;">
	<!ENTITY st15 "font-size:6px;font-family:'MS-PGothic';adobe-font-script:japanese;">
	<!ENTITY st16 "1.00 0.00 0.00 1.00">
	<!ENTITY st17 "0.00 -1.00 1.00 0.00">
	<!ENTITY st18 "font-size:6px;font-family:'Arial';">
	<!ENTITY st19 "font-size:9px;font-family:'Arial';">
	<!ENTITY st20 "font-size:6px;font-family:'MS-PGothic','MS PGothic';adobe-font-script:japanese;">
	<!ENTITY st21 "font-size:7px;font-family:'MS-PGothic','MS PGothic';adobe-font-script:japanese;">
	<!ATTLIST svg
		xmlns:ewd CDATA #FIXED "http://shcl.co.jp/ewd"
		xmlns:a CDATA #FIXED "http://ns.adobe.com/AdobeSVGViewerExtensions/3.0/"
		ewd:ver CDATA #IMPLIED
	>
	<!ATTLIST a
		ewd:lineID CDATA #IMPLIED
		ewd:groupID CDATA #IMPLIED
		ewd:figtype CDATA #IMPLIED
		ewd:code CDATA #IMPLIED
		ewd:figID CDATA #IMPLIED
		ewd:pinNo CDATA #IMPLIED
		ewd:comment CDATA #IMPLIED >
	<!ATTLIST g
		ewd:lineID CDATA #IMPLIED
		ewd:groupID CDATA #IMPLIED
		ewd:figtype CDATA #IMPLIED
		ewd:code CDATA #IMPLIED
		ewd:figID CDATA #IMPLIED
		ewd:pinNo CDATA #IMPLIED
		ewd:comment CDATA #IMPLIED >
	<!ATTLIST text
		ewd:textID CDATA #IMPLIED >
	<!ATTLIST title
		ewd:textID CDATA #IMPLIED >
]>
<!-- Generator: Shintec Hozumi YS   -->
<svg onload="call_execInitLoadProc_svg('system')" style="overflow:visible;  enable-background:new 0 0 498.542 710.000" viewBox="0 0 498.542 710.000" height="710.000" width="498.542" xml:space="preserve" ewd:ver="2.2.0.10" xmlns="&ns_svg;" xmlns:a="http://ns.adobe.com/AdobeSVGViewerExtensions/3.0/" xmlns:ewd="http://shcl.co.jp/ewd" xmlns:xlink="&ns_xlink;">
	<script type="text/javascript" xlink:href="../../../../../system/js/ewd/fig/svgfig.js"/>
<g id="ewd_top">
	<a ewd:figtype="conn" style="cursor:pointer;" ewd:code="F80" ewd:figID="1">
		<path style="fill:#CCECF4;stroke:#000000; stroke-width:1.133; stroke-linecap:round;stroke-linejoin:round; " d=" M   169.97,    35.78  L   169.97,    78.27  L   212.46,    78.27  L   212.46,    35.78  L   169.97,    35.78 "/>
		<title ewd:textID="3">Fuse Block Assembly No. 2</title>
	</a>
	<a ewd:figtype="conn" style="cursor:pointer;" ewd:code="F70" ewd:figID="2">
		<path style="fill:#CCECF4;stroke:#000000; stroke-width:1.133; stroke-linecap:round;stroke-linejoin:round; " d=" M   203.97,   630.68  L   220.96,   630.68  L   220.96,   647.68  L   203.97,   647.68  L   203.97,   630.68 "/>
		<title ewd:textID="5">No. 7 Junction Connector</title>
	</a>
	<a ewd:figtype="conn" style="cursor:pointer;" ewd:code="F25,F88,F137" ewd:figID="3">
		<path style="fill:#CCECF4;stroke:#000000; stroke-width:1.133; stroke-linecap:round;stroke-linejoin:round; " d=" M   195.47,   520.20  L   237.96,   520.20  L   237.96,   571.19  L   195.47,   571.19  L   195.47,   520.20 "/>
		<title ewd:textID="7">Rear Combination Light Assembly LH</title>
	</a>
	<a ewd:figtype="conn" style="cursor:pointer;" ewd:code="F26,F89,F138" ewd:figID="4">
		<path style="fill:#CCECF4;stroke:#000000; stroke-width:1.133; stroke-linecap:round;stroke-linejoin:round; " d=" M   101.98,   520.20  L   144.48,   520.20  L   144.48,   571.19  L   101.98,   571.19  L   101.98,   520.20 "/>
		<title ewd:textID="8">Rear Combination Light Assembly RH</title>
	</a>
	<a ewd:figtype="conn" style="cursor:pointer;" ewd:code="F68,F69" ewd:figID="5">
		<path style="fill:#CCECF4;stroke:#000000; stroke-width:1.133; stroke-linecap:round;stroke-linejoin:round; " d=" M   110.48,   443.71  L   110.48,   460.71  L   220.96,   460.71  L   220.96,   443.71  L   110.48,   443.71 "/>
		<title ewd:textID="4">No. 6 Junction Connector</title>
	</a>
	<a ewd:figtype="conn" style="cursor:pointer;" ewd:code="B19" ewd:figID="6">
		<path style="fill:#CCECF4;stroke:#000000; stroke-width:1.133; stroke-linecap:round;stroke-linejoin:round; " d=" M   169.97,   205.75  L   169.97,   239.75  L   220.96,   239.75  L   220.96,   205.75  L   169.97,   205.75 "/>
		<title ewd:textID="6">Park/Neutral Position Switch Assembly</title>
	</a>
	<a ewd:figtype="conn" style="cursor:pointer;" ewd:code="B23,B41" ewd:figID="7">
		<path style="fill:#CCECF4;stroke:#000000; stroke-width:1.133; stroke-linecap:round;stroke-linejoin:round; " d=" M    93.48,   239.75  L    93.48,   205.75  L    76.49,   205.75  L    76.49,   239.75  L    93.48,   239.75 "/>
		<title ewd:textID="2">Back-Up Light Switch Assembly</title>
	</a>
	<a ewd:figtype="fuse" style="cursor:pointer;" ewd:code="FUSE114" ewd:figID="14">
		<path style="&st7; stroke-width:0;" d=" M   169.97,    35.78  L   169.97,    78.27  L   212.46,    78.27  L   212.46,    35.78  L   169.97,    35.78 "/>
	</a>
	<a ewd:comment="17" style="cursor:pointer;" ewd:lineID="1">
		<path style="stroke:#FF0000;stroke-width: 5.10 ;&st6;" d=" M    84.99,   257.88  L    84.99,   350.23  L   203.97,   350.23  L   212.46,   358.73  L   212.46,   367.22  "/>
	</a>
	<a ewd:comment="17" style="cursor:pointer;" ewd:lineID="2">
		<path style="stroke:#008837;stroke-width: 5.10 ;&st6;" d=" M    84.99,   187.62  L    84.99,   154.76  L   186.97,   154.76  L   195.47,   146.26  L   195.47,   137.76  "/>
	</a>
	<a style="cursor:pointer;" ewd:lineID="3">
		<path style="stroke:#000000;stroke-width: 5.10 ;&st6;" d=" M   118.98,   598.39  L   118.98,   639.18  L   203.97,   639.18  "/>
		<path style="stroke:#FFFFFF;stroke-width: 4.53 ;&st6;" d=" M   118.98,   598.39  L   118.98,   639.18  L   203.97,   639.18  "/>
		<path style="stroke:#000000;stroke-width: 1.13 ;&st6;" d=" M   118.98,   598.39  L   118.98,   639.18  L   203.97,   639.18  "/>
	</a>
	<a style="cursor:pointer;" ewd:lineID="4">
		<path style="stroke:#000000;stroke-width: 5.10 ;&st6;" d=" M   118.98,   469.77  L   118.98,   493.00  "/>
	</a>
	<a ewd:comment="42" style="cursor:pointer;" ewd:lineID="5">
		<path style="stroke:#999999;stroke-width: 5.10 ;&st6;" d=" M   161.47,   401.22  L   161.47,   418.22  L   203.97,   418.22  L   212.46,   426.71  L   212.46,   434.65  "/>
	</a>
	<a ewd:comment="16,43" style="cursor:pointer;" ewd:lineID="6">
		<path style="stroke:#008837;stroke-width: 5.10 ;&st6;" d=" M   195.47,   137.76  L   195.47,   187.62  "/>
	</a>
	<a style="cursor:pointer;" ewd:lineID="7">
		<path style="stroke:#008837;stroke-width: 5.10 ;&st6;" d=" M   195.47,   123.03  L   195.47,    78.27  "/>
	</a>
	<a style="cursor:pointer;" ewd:lineID="8">
		<path style="stroke:#000000;stroke-width: 5.10 ;&st6;" d=" M   212.46,   647.68  L   212.46,   681.67  "/>
		<path style="stroke:#FFFFFF;stroke-width: 4.53 ;&st6;" d=" M   212.46,   647.68  L   212.46,   681.67  "/>
		<path style="stroke:#000000;stroke-width: 1.13 ;&st6;" d=" M   212.46,   647.68  L   212.46,   681.67  "/>
	</a>
	<a style="cursor:pointer;" ewd:lineID="9">
		<path style="stroke:#000000;stroke-width: 5.10 ;&st6;" d=" M   212.46,   598.39  L   212.46,   630.68  "/>
		<path style="stroke:#FFFFFF;stroke-width: 4.53 ;&st6;" d=" M   212.46,   598.39  L   212.46,   630.68  "/>
		<path style="stroke:#000000;stroke-width: 1.13 ;&st6;" d=" M   212.46,   598.39  L   212.46,   630.68  "/>
	</a>
	<a style="cursor:pointer;" ewd:lineID="10">
		<path style="stroke:#56077D;stroke-width: 5.10 ;&st6;" d=" M   212.46,   469.77  L   212.46,   493.00  "/>
	</a>
	<a ewd:comment="42" style="cursor:pointer;" ewd:lineID="11">
		<path style="stroke:#999999;stroke-width: 5.10 ;&st6;" d=" M   212.46,   381.95  L   212.46,   384.22  L   203.97,   392.72  L   169.97,   392.72  "/>
	</a>
	<a ewd:comment="41" style="cursor:pointer;" ewd:lineID="12">
		<path style="stroke:#999999;stroke-width: 5.10 ;&st6;" d=" M   212.46,   381.95  L   212.46,   434.65  "/>
	</a>
	<a ewd:comment="16" style="cursor:pointer;" ewd:lineID="13">
		<path style="stroke:#FF0000;stroke-width: 5.10 ;&st6;" d=" M   212.46,   316.23  L   212.46,   367.22  "/>
	</a>
	<a ewd:comment="43" style="cursor:pointer;" ewd:lineID="14">
		<path style="stroke:#99D9E8;stroke-width: 5.10 ;&st6;" d=" M   212.46,   257.88  L   212.46,   265.24  L   220.96,   273.74  L   254.96,   273.74  L   254.96,   350.23  L   220.96,   350.23  L   212.46,   358.73  L   212.46,   367.22  "/>
	</a>
	<a ewd:comment="16" style="cursor:pointer;" ewd:lineID="15">
		<path style="stroke:#FF0000;stroke-width: 5.10 ;&st6;" d=" M   212.46,   257.88  L   212.46,   299.24  "/>
	</a>
	<g ewd:figtype="conn" ewd:figID="1" ewd:code="F80">
		<path style="stroke-width: 1.42 ;&st7;   " d=" M   195.47,    47.11  C   192.73     48.72    191.82     52.25    193.43     54.99  "/>
		<path style="stroke-width: 1.42 ;&st7;   " d=" M   193.43,    54.99  C   193.95     55.87    194.59     56.51    195.47     57.03  "/>
		<path style="stroke-width: 1.42 ;&st7;   " d=" M   195.47,    66.94  C   198.21     65.33    199.12     61.80    197.50     59.06  "/>
		<path style="stroke-width: 1.42 ;&st7;   " d=" M   197.50,    59.06  C   196.98     58.18    196.35     57.55    195.47     57.03  "/>
		<path style="stroke-width: 0.85 ;&st7;   " d=" M   196.88,    45.69  C   196.88     44.91    196.25     44.28    195.47     44.28  "/>
		<path style="stroke-width: 0.85 ;&st7;   " d=" M   195.47,    44.28  C   194.69     44.28    194.05     44.91    194.05     45.69  "/>
		<path style="stroke-width: 0.85 ;&st7;   " d=" M   194.05,    45.69  C   194.05     46.48    194.69     47.11    195.47     47.11  "/>
		<path style="stroke-width: 0.85 ;&st7;   " d=" M   195.47,    47.11  C   196.25     47.11    196.88     46.48    196.88     45.69  "/>
		<path style="stroke-width: 0.85 ;&st7;   " d=" M   196.88,    68.36  C   196.88     67.57    196.25     66.94    195.47     66.94  "/>
		<path style="stroke-width: 0.85 ;&st7;   " d=" M   195.47,    66.94  C   194.69     66.94    194.05     67.57    194.05     68.36  "/>
		<path style="stroke-width: 0.85 ;&st7;   " d=" M   194.05,    68.36  C   194.05     69.14    194.69     69.77    195.47     69.77  "/>
		<path style="stroke-width: 0.85 ;&st7;   " d=" M   195.47,    69.77  C   196.25     69.77    196.88     69.14    196.88     68.36  "/>
		<path style="stroke-width: 1.42 ;&st7;  " d=" M   169.97,    35.78  L   169.97,    78.27  L   212.46,    78.27  L   212.46,    35.78  L   169.97,    35.78  "/>
		<path style="stroke-width: 0.85 ;&st7;  " d=" M   195.47,    69.77  L   195.47,    78.27  "/>
		<text style="&st18;" transform="matrix(&st17;  177.04  67.59 )">7.5A <tspan x="0 " dy="6.0">ECU-IG </tspan><tspan x="0 " dy="6.0">NO.3</tspan></text>
		<text style="&st18;" transform="matrix(&st16;  189.28  86.47 )">2</text>
		<g ewd:figtype="title">
			<text style="&st18;" transform="matrix(&st17;  227.18  81.18 )" ewd:textID="3">Fuse Block <tspan x="0 " dy="6.0">Assembly No. 2</tspan></text>
			<text style="&st18;" transform="matrix(&st17;  220.08  81.17 )">F80</text>
		</g>
	</g>
	<g ewd:figtype="conn" ewd:figID="2" ewd:code="F70">
		<path style="stroke-width: 0.85 ;&st7;  " d=" M   212.46,   630.68  L   212.46,   647.68  "/>
		<path style="stroke-width: 1.42 ;&st7;  " d=" M   203.97,   630.68  L   220.96,   630.68  L   220.96,   647.68  L   203.97,   647.68  L   203.97,   630.68  "/>
		<path style="stroke-width: 0.85 ;&st7;  " d=" M   203.97,   639.18  L   212.46,   639.18  "/>
		<path style="stroke-width: 0.85 ;&st7;  " d=" M   211.27,   638.18  L   211.00,   638.65  L   210.91,   639.18  L   211.00,   639.71  L   211.27,   640.18  L   211.69,   640.53  L   212.19,   640.71  L   212.74,   640.71  L   213.24,   640.53  L   213.66,   640.18  L   213.93,   639.71  L   214.02,   639.18  L   213.93,   638.65  L   213.66,   638.18  L   213.24,   637.83  L   212.74,   637.64  L   212.19,   637.64  L   211.69,   637.83  L   211.27,   638.18  L   211.67,   638.89  L   211.67,   639.47  L   212.04,   639.92  L   212.61,   640.01  L   213.12,   639.73  L   213.31,   639.18  L   213.12,   638.63  L   212.61,   638.34  L   212.04,   638.44  L   212.46,   639.18  "/>
		<text style="&st18;" transform="matrix(&st16;  197.78  635.49 )">7</text>
		<text style="&st18;" transform="matrix(&st16;  206.28  655.87 )">2</text>
		<text style="&st18;" transform="matrix(&st16;  206.28  626.99 )">8</text>
		<g ewd:figtype="title">
			<text style="&st18;" transform="matrix(&st16;  223.22  632.62 )">F70</text>
			<text style="&st18;" transform="matrix(&st16;  223.22  639.73 )" ewd:textID="5">No. 7 Junction Connector</text>
		</g>
	</g>
	<g ewd:code="F25,F88,F137" ewd:figID="3" ewd:comment="39,40,41,42" ewd:figtype="conn">
		<path style="stroke-width: 0.85 ;&st7;  " d=" M   212.46,   549.94  L   212.46,   554.19  "/>
		<path style="stroke-width: 0.85 ;&st7;  " d=" M   212.46,   537.20  L   212.46,   541.44  "/>
		<path style="stroke-width: 1.42 ;&st7;   " d=" M   220.96,   545.69  C   220.96    541.00    217.16    537.20    212.46    537.20  "/>
		<path style="stroke-width: 1.42 ;&st7;   " d=" M   212.46,   537.20  C   207.77    537.20    203.97    541.00    203.97    545.69  "/>
		<path style="stroke-width: 1.42 ;&st7;   " d=" M   203.97,   545.69  C   203.97    550.39    207.77    554.19    212.46    554.19  "/>
		<path style="stroke-width: 1.42 ;&st7;   " d=" M   212.46,   554.19  C   217.16    554.19    220.96    550.39    220.96    545.69  "/>
		<path style="stroke-width: 0.85 ;&st7;   " d=" M   210.06,   545.69  C   210.85    547.03    212.58    547.48    213.91    546.69  "/>
		<path style="stroke-width: 0.85 ;&st7;   " d=" M   213.91,   546.69  C   215.25    545.89    215.70    544.17    214.91    542.83  "/>
		<path style="stroke-width: 0.85 ;&st7;   " d=" M   214.91,   542.83  C   214.38    541.94    213.50    541.44    212.46    541.44  "/>
		<path style="stroke-width: 0.85 ;&st7;   " d=" M   212.46,   549.94  C   214.02    549.95    215.29    548.70    215.30    547.14  "/>
		<path style="stroke-width: 0.85 ;&st7;   " d=" M   215.30,   547.14  C   215.31    545.59    214.05    544.32    212.50    544.31  "/>
		<path style="stroke-width: 0.85 ;&st7;   " d=" M   212.50,   544.31  C   211.47    544.31    210.58    544.81    210.06    545.69  "/>
		<path style="stroke-width: 1.42 ;&st7;  " d=" M   195.47,   520.20  L   237.96,   520.20  L   237.96,   571.19  L   195.47,   571.19  L   195.47,   520.20  "/>
		<path style="stroke-width: 0.85 ;&st7;  " d=" M   212.46,   520.20  L   212.46,   537.20  "/>
		<path style="stroke-width: 0.85 ;&st7;  " d=" M   212.46,   554.19  L   212.46,   571.19  "/>
		<text style="&st18;" transform="matrix(&st16;  215.05  567.5 )">E</text>
		<text style="&st18;" transform="matrix(&st16;  215.05  528.39 )">B</text>
		<text style="&st18;" transform="matrix(&st17;  228.6  556.96 )" ewd:textID="1">Back-Up</text>
		<text style="&st18;" transform="matrix(&st16;  203.77  517.64 )">4</text>
		<text style="&st18;" transform="matrix(&st16;  203.77  508.57 )">4</text>
		<text style="&st18;" transform="matrix(&st16;  203.77  499.5 )">3</text>
		<path style="stroke-width: 1.42 ;&st7;   " d=" M   217.00,   497.54  C   217.00    495.03    214.97    493.00    212.46    493.00  "/>
		<path style="stroke-width: 1.42 ;&st7;   " d=" M   212.46,   493.00  C   209.96    493.00    207.93    495.03    207.93    497.54  "/>
		<path style="stroke-width: 1.42 ;&st7;   " d=" M   207.93,   497.54  C   207.93    500.04    209.96    502.07    212.46    502.07  "/>
		<path style="stroke-width: 1.42 ;&st7;   " d=" M   212.46,   502.07  C   214.97    502.07    217.00    500.04    217.00    497.54  "/>
		<path style="stroke-width: 1.42 ;&st7;   " d=" M   217.00,   506.60  C   217.00    504.10    214.97    502.07    212.46    502.07  "/>
		<path style="stroke-width: 1.42 ;&st7;   " d=" M   212.46,   502.07  C   209.96    502.07    207.93    504.10    207.93    506.60  "/>
		<path style="stroke-width: 1.42 ;&st7;   " d=" M   207.93,   506.60  C   207.93    509.10    209.96    511.13    212.46    511.13  "/>
		<path style="stroke-width: 1.42 ;&st7;   " d=" M   212.46,   511.13  C   214.97    511.13    217.00    509.10    217.00    506.60  "/>
		<path style="stroke-width: 1.42 ;&st7;   " d=" M   217.00,   515.67  C   217.00    513.16    214.97    511.13    212.46    511.13  "/>
		<path style="stroke-width: 1.42 ;&st7;   " d=" M   212.46,   511.13  C   209.96    511.13    207.93    513.16    207.93    515.67  "/>
		<path style="stroke-width: 1.42 ;&st7;   " d=" M   207.93,   515.67  C   207.93    518.17    209.96    520.20    212.46    520.20  "/>
		<path style="stroke-width: 1.42 ;&st7;   " d=" M   212.46,   520.20  C   214.97    520.20    217.00    518.17    217.00    515.67  "/>
		<text style="&st18;" transform="matrix(&st16;  210.16  499.5 )">A</text>
		<text style="&st18;" transform="matrix(&st16;  210.28  508.57 )">B</text>
		<text style="&st18;" transform="matrix(&st16;  210.04  517.64 )">C</text>
		<text style="&st18;" transform="matrix(&st16;  203.77  577.69 )">4</text>
		<text style="&st18;" transform="matrix(&st16;  203.77  595.82 )">3</text>
		<text style="&st18;" transform="matrix(&st16;  203.77  586.76 )">3</text>
		<text style="&st18;" transform="matrix(&st16;  210.16  577.69 )">A</text>
		<path style="stroke-width: 1.42 ;&st7;   " d=" M   217.00,   584.79  C   217.00    582.28    214.97    580.26    212.46    580.26  "/>
		<path style="stroke-width: 1.42 ;&st7;   " d=" M   212.46,   580.26  C   209.96    580.26    207.93    582.28    207.93    584.79  "/>
		<path style="stroke-width: 1.42 ;&st7;   " d=" M   207.93,   584.79  C   207.93    587.29    209.96    589.32    212.46    589.32  "/>
		<path style="stroke-width: 1.42 ;&st7;   " d=" M   212.46,   589.32  C   214.97    589.32    217.00    587.29    217.00    584.79  "/>
		<text style="&st18;" transform="matrix(&st16;  210.04  595.82 )">C</text>
		<path style="stroke-width: 1.42 ;&st7;   " d=" M   217.00,   575.72  C   217.00    573.22    214.97    571.19    212.46    571.19  "/>
		<path style="stroke-width: 1.42 ;&st7;   " d=" M   212.46,   571.19  C   209.96    571.19    207.93    573.22    207.93    575.72  "/>
		<path style="stroke-width: 1.42 ;&st7;   " d=" M   207.93,   575.72  C   207.93    578.23    209.96    580.26    212.46    580.26  "/>
		<path style="stroke-width: 1.42 ;&st7;   " d=" M   212.46,   580.26  C   214.97    580.26    217.00    578.23    217.00    575.72  "/>
		<text style="&st18;" transform="matrix(&st16;  210.28  586.76 )">B</text>
		<path style="stroke-width: 1.42 ;&st7;   " d=" M   217.00,   593.85  C   217.00    591.35    214.97    589.32    212.46    589.32  "/>
		<path style="stroke-width: 1.42 ;&st7;   " d=" M   212.46,   589.32  C   209.96    589.32    207.93    591.35    207.93    593.85  "/>
		<path style="stroke-width: 1.42 ;&st7;   " d=" M   207.93,   593.85  C   207.93    596.36    209.96    598.39    212.46    598.39  "/>
		<path style="stroke-width: 1.42 ;&st7;   " d=" M   212.46,   598.39  C   214.97    598.39    217.00    596.36    217.00    593.85  "/>
		<g ewd:figtype="title">
			<text style="&st18;" transform="matrix(&st17;  185.82  574.1 )" ewd:textID="7">Rear Combination <tspan x="0 " dy="6.0">Light Assembly LH</tspan></text>
			<text style="&st18;" transform="matrix(&st17;  179.0  574.09 )">F25(A),F88(B),F137(C)</text>
		</g>
		<g ewd:code="" ewd:figID="22" ewd:comment="40,42" ewd:figtype="commref">
			<text style="&st18;" transform="matrix(&st16;  217.56  517.64 )">(*40 *42)</text>
		</g>
		<g ewd:code="" ewd:figID="23" ewd:comment="40,41" ewd:figtype="commref">
			<text style="&st18;" transform="matrix(&st16;  217.56  508.57 )">(*40 *41)</text>
		</g>
		<g ewd:code="" ewd:figID="26" ewd:comment="39" ewd:figtype="commref">
			<text style="&st18;" transform="matrix(&st16;  217.56  577.69 )">(*39)</text>
		</g>
		<g ewd:code="" ewd:figID="27" ewd:comment="40,41" ewd:figtype="commref">
			<text style="&st18;" transform="matrix(&st16;  217.56  586.76 )">(*40 *41)</text>
		</g>
		<g ewd:code="" ewd:figID="40" ewd:comment="39" ewd:figtype="commref">
			<text style="&st18;" transform="matrix(&st16;  217.56  499.5 )">(*39)</text>
		</g>
		<g ewd:code="" ewd:figID="41" ewd:comment="40,42" ewd:figtype="commref">
			<text style="&st18;" transform="matrix(&st16;  217.56  595.82 )">(*40 *42)</text>
		</g>
	</g>
	<g ewd:code="F26,F89,F138" ewd:figID="4" ewd:comment="39,40,41,42" ewd:figtype="conn">
		<path style="stroke-width: 0.85 ;&st7;  " d=" M   118.98,   549.94  L   118.98,   554.19  "/>
		<path style="stroke-width: 0.85 ;&st7;  " d=" M   118.98,   537.20  L   118.98,   541.44  "/>
		<path style="stroke-width: 1.42 ;&st7;   " d=" M   127.48,   545.69  C   127.48    541.00    123.67    537.20    118.98    537.20  "/>
		<path style="stroke-width: 1.42 ;&st7;   " d=" M   118.98,   537.20  C   114.29    537.20    110.48    541.00    110.48    545.69  "/>
		<path style="stroke-width: 1.42 ;&st7;   " d=" M   110.48,   545.69  C   110.48    550.39    114.29    554.19    118.98    554.19  "/>
		<path style="stroke-width: 1.42 ;&st7;   " d=" M   118.98,   554.19  C   123.67    554.19    127.48    550.39    127.48    545.69  "/>
		<path style="stroke-width: 0.85 ;&st7;   " d=" M   116.57,   545.69  C   117.36    547.03    119.09    547.48    120.43    546.69  "/>
		<path style="stroke-width: 0.85 ;&st7;   " d=" M   120.43,   546.69  C   121.77    545.89    122.21    544.17    121.42    542.83  "/>
		<path style="stroke-width: 0.85 ;&st7;   " d=" M   121.42,   542.83  C   120.90    541.94    120.01    541.44    118.98    541.44  "/>
		<path style="stroke-width: 0.85 ;&st7;   " d=" M   118.98,   549.94  C   120.54    549.95    121.80    548.70    121.81    547.14  "/>
		<path style="stroke-width: 0.85 ;&st7;   " d=" M   121.81,   547.14  C   121.82    545.59    120.57    544.32    119.01    544.31  "/>
		<path style="stroke-width: 0.85 ;&st7;   " d=" M   119.01,   544.31  C   117.98    544.31    117.10    544.81    116.57    545.69  "/>
		<path style="stroke-width: 1.42 ;&st7;  " d=" M   101.98,   520.20  L   144.48,   520.20  L   144.48,   571.19  L   101.98,   571.19  L   101.98,   520.20  "/>
		<path style="stroke-width: 0.85 ;&st7;  " d=" M   118.98,   520.20  L   118.98,   537.20  "/>
		<path style="stroke-width: 0.85 ;&st7;  " d=" M   118.98,   554.19  L   118.98,   571.19  "/>
		<text style="&st18;" transform="matrix(&st16;  121.56  567.5 )">E</text>
		<text style="&st18;" transform="matrix(&st16;  121.56  528.39 )">B</text>
		<text style="&st18;" transform="matrix(&st17;  135.12  556.96 )" ewd:textID="1">Back-Up</text>
		<text style="&st18;" transform="matrix(&st16;  110.29  577.69 )">4</text>
		<text style="&st18;" transform="matrix(&st16;  110.29  586.76 )">3</text>
		<text style="&st18;" transform="matrix(&st16;  110.29  595.82 )">3</text>
		<path style="stroke-width: 1.42 ;&st7;   " d=" M   123.51,   584.79  C   123.51    582.28    121.48    580.26    118.98    580.26  "/>
		<path style="stroke-width: 1.42 ;&st7;   " d=" M   118.98,   580.26  C   116.48    580.26    114.45    582.28    114.45    584.79  "/>
		<path style="stroke-width: 1.42 ;&st7;   " d=" M   114.45,   584.79  C   114.45    587.29    116.48    589.32    118.98    589.32  "/>
		<path style="stroke-width: 1.42 ;&st7;   " d=" M   118.98,   589.32  C   121.48    589.32    123.51    587.29    123.51    584.79  "/>
		<path style="stroke-width: 1.42 ;&st7;   " d=" M   123.51,   575.72  C   123.51    573.22    121.48    571.19    118.98    571.19  "/>
		<path style="stroke-width: 1.42 ;&st7;   " d=" M   118.98,   571.19  C   116.48    571.19    114.45    573.22    114.45    575.72  "/>
		<path style="stroke-width: 1.42 ;&st7;   " d=" M   114.45,   575.72  C   114.45    578.23    116.48    580.26    118.98    580.26  "/>
		<path style="stroke-width: 1.42 ;&st7;   " d=" M   118.98,   580.26  C   121.48    580.26    123.51    578.23    123.51    575.72  "/>
		<text style="&st18;" transform="matrix(&st16;  116.68  577.69 )">A</text>
		<text style="&st18;" transform="matrix(&st16;  116.79  586.76 )">B</text>
		<text style="&st18;" transform="matrix(&st16;  116.56  595.82 )">C</text>
		<path style="stroke-width: 1.42 ;&st7;   " d=" M   123.51,   593.85  C   123.51    591.35    121.48    589.32    118.98    589.32  "/>
		<path style="stroke-width: 1.42 ;&st7;   " d=" M   118.98,   589.32  C   116.48    589.32    114.45    591.35    114.45    593.85  "/>
		<path style="stroke-width: 1.42 ;&st7;   " d=" M   114.45,   593.85  C   114.45    596.36    116.48    598.39    118.98    598.39  "/>
		<path style="stroke-width: 1.42 ;&st7;   " d=" M   118.98,   598.39  C   121.48    598.39    123.51    596.36    123.51    593.85  "/>
		<text style="&st18;" transform="matrix(&st16;  110.29  499.5 )">3</text>
		<text style="&st18;" transform="matrix(&st16;  110.29  517.64 )">4</text>
		<text style="&st18;" transform="matrix(&st16;  110.29  508.57 )">4</text>
		<path style="stroke-width: 1.42 ;&st7;   " d=" M   123.51,   515.67  C   123.51    513.16    121.48    511.13    118.98    511.13  "/>
		<path style="stroke-width: 1.42 ;&st7;   " d=" M   118.98,   511.13  C   116.48    511.13    114.45    513.16    114.45    515.67  "/>
		<path style="stroke-width: 1.42 ;&st7;   " d=" M   114.45,   515.67  C   114.45    518.17    116.48    520.20    118.98    520.20  "/>
		<path style="stroke-width: 1.42 ;&st7;   " d=" M   118.98,   520.20  C   121.48    520.20    123.51    518.17    123.51    515.67  "/>
		<path style="stroke-width: 1.42 ;&st7;   " d=" M   123.51,   506.60  C   123.51    504.10    121.48    502.07    118.98    502.07  "/>
		<path style="stroke-width: 1.42 ;&st7;   " d=" M   118.98,   502.07  C   116.48    502.07    114.45    504.10    114.45    506.60  "/>
		<path style="stroke-width: 1.42 ;&st7;   " d=" M   114.45,   506.60  C   114.45    509.10    116.48    511.13    118.98    511.13  "/>
		<path style="stroke-width: 1.42 ;&st7;   " d=" M   118.98,   511.13  C   121.48    511.13    123.51    509.10    123.51    506.60  "/>
		<text style="&st18;" transform="matrix(&st16;  116.79  508.57 )">B</text>
		<text style="&st18;" transform="matrix(&st16;  116.56  517.64 )">C</text>
		<path style="stroke-width: 1.42 ;&st7;   " d=" M   123.51,   497.54  C   123.51    495.03    121.48    493.00    118.98    493.00  "/>
		<path style="stroke-width: 1.42 ;&st7;   " d=" M   118.98,   493.00  C   116.48    493.00    114.45    495.03    114.45    497.54  "/>
		<path style="stroke-width: 1.42 ;&st7;   " d=" M   114.45,   497.54  C   114.45    500.04    116.48    502.07    118.98    502.07  "/>
		<path style="stroke-width: 1.42 ;&st7;   " d=" M   118.98,   502.07  C   121.48    502.07    123.51    500.04    123.51    497.54  "/>
		<text style="&st18;" transform="matrix(&st16;  116.68  499.5 )">A</text>
		<g ewd:figtype="title">
			<text style="&st18;" transform="matrix(&st17;  92.34  574.1 )" ewd:textID="8">Rear Combination <tspan x="0 " dy="6.0">Light Assembly RH</tspan></text>
			<text style="&st18;" transform="matrix(&st17;  85.51  574.09 )">F26(A),F89(B),F138(C)</text>
		</g>
		<g ewd:code="" ewd:figID="20" ewd:comment="40,42" ewd:figtype="commref">
			<text style="&st18;" transform="matrix(&st16;  124.07  517.64 )">(*40 *42)</text>
		</g>
		<g ewd:code="" ewd:figID="21" ewd:comment="40,41" ewd:figtype="commref">
			<text style="&st18;" transform="matrix(&st16;  124.07  508.57 )">(*40 *41)</text>
		</g>
		<g ewd:code="" ewd:figID="24" ewd:comment="39" ewd:figtype="commref">
			<text style="&st18;" transform="matrix(&st16;  124.07  577.69 )">(*39)</text>
		</g>
		<g ewd:code="" ewd:figID="25" ewd:comment="40,41" ewd:figtype="commref">
			<text style="&st18;" transform="matrix(&st16;  124.07  586.76 )">(*40 *41)</text>
		</g>
		<g ewd:code="" ewd:figID="39" ewd:comment="39" ewd:figtype="commref">
			<text style="&st18;" transform="matrix(&st16;  124.07  499.5 )">(*39)</text>
		</g>
		<g ewd:code="" ewd:figID="42" ewd:comment="40,42" ewd:figtype="commref">
			<text style="&st18;" transform="matrix(&st16;  124.07  595.82 )">(*40 *42)</text>
		</g>
	</g>
	<g ewd:figtype="conn" ewd:figID="5" ewd:code="F68,F69">
		<path style="stroke-width: 1.42 ;&st7;  " d=" M   110.48,   443.71  L   110.48,   460.71  L   220.96,   460.71  L   220.96,   443.71  L   110.48,   443.71  "/>
		<path style="stroke-width: 0.85 ;&st7;  " d=" M   212.46,   443.71  L   212.46,   460.71  "/>
		<path style="stroke-width: 0.85 ;&st7;  " d=" M   118.98,   460.71  L   118.98,   452.21  L   212.46,   452.21  "/>
		<path style="stroke-width: 0.85 ;&st7;  " d=" M   211.27,   451.21  L   211.00,   451.68  L   210.91,   452.21  L   211.00,   452.74  L   211.27,   453.21  L   211.69,   453.56  L   212.19,   453.75  L   212.74,   453.75  L   213.24,   453.56  L   213.66,   453.21  L   213.93,   452.74  L   214.02,   452.21  L   213.93,   451.68  L   213.66,   451.21  L   213.24,   450.86  L   212.74,   450.67  L   212.19,   450.67  L   211.69,   450.86  L   211.27,   451.21  L   211.67,   451.92  L   211.67,   452.50  L   212.04,   452.95  L   212.61,   453.05  L   213.12,   452.76  L   213.31,   452.21  L   213.12,   451.66  L   212.61,   451.37  L   212.04,   451.47  L   212.46,   452.21  "/>
		<text style="&st18;" transform="matrix(&st16;  203.77  467.21 )">8</text>
		<path style="stroke-width: 1.42 ;&st7;   " d=" M   217.00,   465.24  C   217.00    462.74    214.97    460.71    212.46    460.71  "/>
		<path style="stroke-width: 1.42 ;&st7;   " d=" M   212.46,   460.71  C   209.96    460.71    207.93    462.74    207.93    465.24  "/>
		<path style="stroke-width: 1.42 ;&st7;   " d=" M   207.93,   465.24  C   207.93    467.74    209.96    469.77    212.46    469.77  "/>
		<path style="stroke-width: 1.42 ;&st7;   " d=" M   212.46,   469.77  C   214.97    469.77    217.00    467.74    217.00    465.24  "/>
		<text style="&st18;" transform="matrix(&st16;  210.28  467.21 )">B</text>
		<text style="&st18;" transform="matrix(&st16;  203.77  441.15 )">3</text>
		<text style="&st18;" transform="matrix(&st16;  210.16  441.15 )">A</text>
		<path style="stroke-width: 1.42 ;&st7;   " d=" M   217.00,   439.18  C   217.00    436.68    214.97    434.65    212.46    434.65  "/>
		<path style="stroke-width: 1.42 ;&st7;   " d=" M   212.46,   434.65  C   209.96    434.65    207.93    436.68    207.93    439.18  "/>
		<path style="stroke-width: 1.42 ;&st7;   " d=" M   207.93,   439.18  C   207.93    441.68    209.96    443.71    212.46    443.71  "/>
		<path style="stroke-width: 1.42 ;&st7;   " d=" M   212.46,   443.71  C   214.97    443.71    217.00    441.68    217.00    439.18  "/>
		<text style="&st18;" transform="matrix(&st16;  110.29  467.21 )">9</text>
		<path style="stroke-width: 1.42 ;&st7;   " d=" M   123.51,   465.24  C   123.51    462.74    121.48    460.71    118.98    460.71  "/>
		<path style="stroke-width: 1.42 ;&st7;   " d=" M   118.98,   460.71  C   116.48    460.71    114.45    462.74    114.45    465.24  "/>
		<path style="stroke-width: 1.42 ;&st7;   " d=" M   114.45,   465.24  C   114.45    467.74    116.48    469.77    118.98    469.77  "/>
		<path style="stroke-width: 1.42 ;&st7;   " d=" M   118.98,   469.77  C   121.48    469.77    123.51    467.74    123.51    465.24  "/>
		<text style="&st18;" transform="matrix(&st16;  116.79  467.21 )">B</text>
		<g ewd:figtype="title">
			<text style="&st18;" transform="matrix(&st17;  235.68  463.61 )" ewd:textID="4">No. 6 Junction <tspan x="0 " dy="6.0">Connector</tspan></text>
			<text style="&st18;" transform="matrix(&st17;  228.57  463.61 )">F68(A),F69(B)</text>
		</g>
	</g>
	<g ewd:code="B19" ewd:figID="6" ewd:comment="16,43" ewd:figtype="conn">
		<path style="stroke-width: 0.85 ;&st7;   " d=" M   196.88,   231.25  C   196.88    230.46    196.25    229.83    195.47    229.83  "/>
		<path style="stroke-width: 0.85 ;&st7;   " d=" M   195.47,   229.83  C   194.69    229.83    194.05    230.46    194.05    231.25  "/>
		<path style="stroke-width: 0.85 ;&st7;   " d=" M   194.05,   231.25  C   194.05    232.03    194.69    232.66    195.47    232.66  "/>
		<path style="stroke-width: 0.85 ;&st7;   " d=" M   195.47,   232.66  C   196.25    232.66    196.88    232.03    196.88    231.25  "/>
		<path style="stroke-width: 0.85 ;&st7;   " d=" M   213.88,   231.25  C   213.88    230.46    213.25    229.83    212.46    229.83  "/>
		<path style="stroke-width: 0.85 ;&st7;   " d=" M   212.46,   229.83  C   211.68    229.83    211.05    230.46    211.05    231.25  "/>
		<path style="stroke-width: 0.85 ;&st7;   " d=" M   211.05,   231.25  C   211.05    232.03    211.68    232.66    212.46    232.66  "/>
		<path style="stroke-width: 0.85 ;&st7;   " d=" M   212.46,   232.66  C   213.25    232.66    213.88    232.03    213.88    231.25  "/>
		<path style="stroke-width: 1.42 ;&st7;  " d=" M   169.97,   205.75  L   169.97,   239.75  L   220.96,   239.75  L   220.96,   205.75  L   169.97,   205.75  "/>
		<path style="stroke-width: 0.85 ;&st7;  " d=" M   186.97,   205.75  L   186.97,   239.75  "/>
		<path style="stroke-width: 0.85 ;&st7;  " d=" M   203.97,   205.75  L   203.97,   239.75  "/>
		<path style="stroke-width: 0.85 ;&st7;  " d=" M   169.97,   222.75  L   220.96,   222.75  "/>
		<path style="stroke-width: 0.85 ;&st7;  " d=" M   196.88,   231.25  L   211.05,   231.25  "/>
		<text style="&st18;" transform="matrix(&st16;  208.53  216.22 )">RL</text>
		<text style="&st18;" transform="matrix(&st16;  191.42  216.22 )">RB</text>
		<text style="&st18;" transform="matrix(&st16;  176.36  233.22 )">R</text>
		<text style="&st18;" transform="matrix(&st16;  203.77  255.31 )">2</text>
		<text style="&st18;" transform="matrix(&st16;  203.77  246.25 )">1</text>
		<path style="stroke-width: 1.42 ;&st7;   " d=" M   217.00,   253.34  C   217.00    250.84    214.97    248.81    212.46    248.81  "/>
		<path style="stroke-width: 1.42 ;&st7;   " d=" M   212.46,   248.81  C   209.96    248.81    207.93    250.84    207.93    253.34  "/>
		<path style="stroke-width: 1.42 ;&st7;   " d=" M   207.93,   253.34  C   207.93    255.85    209.96    257.88    212.46    257.88  "/>
		<path style="stroke-width: 1.42 ;&st7;   " d=" M   212.46,   257.88  C   214.97    257.88    217.00    255.85    217.00    253.34  "/>
		<path style="stroke-width: 1.42 ;&st7;   " d=" M   217.00,   244.28  C   217.00    241.77    214.97    239.75    212.46    239.75  "/>
		<path style="stroke-width: 1.42 ;&st7;   " d=" M   212.46,   239.75  C   209.96    239.75    207.93    241.77    207.93    244.28  "/>
		<path style="stroke-width: 1.42 ;&st7;   " d=" M   207.93,   244.28  C   207.93    246.78    209.96    248.81    212.46    248.81  "/>
		<path style="stroke-width: 1.42 ;&st7;   " d=" M   212.46,   248.81  C   214.97    248.81    217.00    246.78    217.00    244.28  "/>
		<text style="&st18;" transform="matrix(&st16;  210.28  255.31 )">B</text>
		<text style="&st18;" transform="matrix(&st16;  210.16  246.25 )">A</text>
		<text style="&st18;" transform="matrix(&st16;  186.77  194.12 )">2</text>
		<text style="&st18;" transform="matrix(&st16;  186.77  203.19 )">1</text>
		<path style="stroke-width: 1.42 ;&st7;   " d=" M   200.00,   192.15  C   200.00    189.65    197.97    187.62    195.47    187.62  "/>
		<path style="stroke-width: 1.42 ;&st7;   " d=" M   195.47,   187.62  C   192.96    187.62    190.93    189.65    190.93    192.15  "/>
		<path style="stroke-width: 1.42 ;&st7;   " d=" M   190.93,   192.15  C   190.93    194.66    192.96    196.69    195.47    196.69  "/>
		<path style="stroke-width: 1.42 ;&st7;   " d=" M   195.47,   196.69  C   197.97    196.69    200.00    194.66    200.00    192.15  "/>
		<path style="stroke-width: 1.42 ;&st7;   " d=" M   200.00,   201.22  C   200.00    198.72    197.97    196.69    195.47    196.69  "/>
		<path style="stroke-width: 1.42 ;&st7;   " d=" M   195.47,   196.69  C   192.96    196.69    190.93    198.72    190.93    201.22  "/>
		<path style="stroke-width: 1.42 ;&st7;   " d=" M   190.93,   201.22  C   190.93    203.72    192.96    205.75    195.47    205.75  "/>
		<path style="stroke-width: 1.42 ;&st7;   " d=" M   195.47,   205.75  C   197.97    205.75    200.00    203.72    200.00    201.22  "/>
		<text style="&st18;" transform="matrix(&st16;  193.28  203.19 )">B</text>
		<text style="&st18;" transform="matrix(&st16;  193.16  194.12 )">A</text>
		<g ewd:figtype="title">
			<text style="&st18;" transform="matrix(&st17;  152.94  242.64 )">B19(A),(B)</text>
			<text style="&st18;" transform="matrix(&st17;  160.04  242.65 )" ewd:textID="6">Park/Neutral Position <tspan x="0 " dy="6.0">Switch Assembly</tspan></text>
		</g>
		<g ewd:code="" ewd:figID="28" ewd:comment="43" ewd:figtype="commref">
			<text style="&st18;" transform="matrix(&st16;  200.56  203.19 )">(*43)</text>
		</g>
		<g ewd:code="" ewd:figID="29" ewd:comment="16" ewd:figtype="commref">
			<text style="&st18;" transform="matrix(&st16;  200.56  194.12 )">(*16)</text>
		</g>
		<g ewd:code="" ewd:figID="32" ewd:comment="43" ewd:figtype="commref">
			<text style="&st18;" transform="matrix(&st16;  217.56  255.31 )">(*43)</text>
		</g>
		<g ewd:code="" ewd:figID="33" ewd:comment="16" ewd:figtype="commref">
			<text style="&st18;" transform="matrix(&st16;  217.56  246.25 )">(*16)</text>
		</g>
	</g>
	<g ewd:code="B23,B41" ewd:figID="7" ewd:comment="41,42" ewd:figtype="conn">
		<path style="stroke-width: 1.42 ;&st7;  " d=" M    84.99,   232.66  L    90.65,   210.00  "/>
		<path style="stroke-width: 0.85 ;&st7;  " d=" M    84.99,   239.75  L    84.99,   235.50  "/>
		<path style="stroke-width: 0.85 ;&st7;  " d=" M    84.99,   210.00  L    84.99,   205.75  "/>
		<path style="stroke-width: 0.85 ;&st7;   " d=" M    86.40,   234.08  C    86.40    233.30     85.77    232.66     84.99    232.66  "/>
		<path style="stroke-width: 0.85 ;&st7;   " d=" M    84.99,   232.66  C    84.20    232.66     83.57    233.30     83.57    234.08  "/>
		<path style="stroke-width: 0.85 ;&st7;   " d=" M    83.57,   234.08  C    83.57    234.86     84.20    235.50     84.99    235.50  "/>
		<path style="stroke-width: 0.85 ;&st7;   " d=" M    84.99,   235.50  C    85.77    235.50     86.40    234.86     86.40    234.08  "/>
		<path style="stroke-width: 0.85 ;&st7;   " d=" M    86.40,   211.42  C    86.40    210.63     85.77    210.00     84.99    210.00  "/>
		<path style="stroke-width: 0.85 ;&st7;   " d=" M    84.99,   210.00  C    84.20    210.00     83.57    210.63     83.57    211.42  "/>
		<path style="stroke-width: 0.85 ;&st7;   " d=" M    83.57,   211.42  C    83.57    212.20     84.20    212.83     84.99    212.83  "/>
		<path style="stroke-width: 0.85 ;&st7;   " d=" M    84.99,   212.83  C    85.77    212.83     86.40    212.20     86.40    211.42  "/>
		<path style="stroke-width: 1.42 ;&st7;  " d=" M    93.48,   239.75  L    93.48,   205.75  L    76.49,   205.75  L    76.49,   239.75  L    93.48,   239.75  "/>
		<text style="&st18;" transform="matrix(&st16;  76.29  255.31 )">1</text>
		<text style="&st18;" transform="matrix(&st16;  76.29  246.25 )">1</text>
		<path style="stroke-width: 1.42 ;&st7;   " d=" M    89.52,   253.34  C    89.52    250.84     87.49    248.81     84.99    248.81  "/>
		<path style="stroke-width: 1.42 ;&st7;   " d=" M    84.99,   248.81  C    82.48    248.81     80.45    250.84     80.45    253.34  "/>
		<path style="stroke-width: 1.42 ;&st7;   " d=" M    80.45,   253.34  C    80.45    255.85     82.48    257.88     84.99    257.88  "/>
		<path style="stroke-width: 1.42 ;&st7;   " d=" M    84.99,   257.88  C    87.49    257.88     89.52    255.85     89.52    253.34  "/>
		<path style="stroke-width: 1.42 ;&st7;   " d=" M    89.52,   244.28  C    89.52    241.77     87.49    239.75     84.99    239.75  "/>
		<path style="stroke-width: 1.42 ;&st7;   " d=" M    84.99,   239.75  C    82.48    239.75     80.45    241.77     80.45    244.28  "/>
		<path style="stroke-width: 1.42 ;&st7;   " d=" M    80.45,   244.28  C    80.45    246.78     82.48    248.81     84.99    248.81  "/>
		<path style="stroke-width: 1.42 ;&st7;   " d=" M    84.99,   248.81  C    87.49    248.81     89.52    246.78     89.52    244.28  "/>
		<text style="&st18;" transform="matrix(&st16;  82.8  255.31 )">B</text>
		<text style="&st18;" transform="matrix(&st16;  82.68  246.25 )">A</text>
		<text style="&st18;" transform="matrix(&st16;  76.29  194.12 )">2</text>
		<text style="&st18;" transform="matrix(&st16;  76.29  203.19 )">2</text>
		<path style="stroke-width: 1.42 ;&st7;   " d=" M    89.52,   192.15  C    89.52    189.65     87.49    187.62     84.99    187.62  "/>
		<path style="stroke-width: 1.42 ;&st7;   " d=" M    84.99,   187.62  C    82.48    187.62     80.45    189.65     80.45    192.15  "/>
		<path style="stroke-width: 1.42 ;&st7;   " d=" M    80.45,   192.15  C    80.45    194.66     82.48    196.69     84.99    196.69  "/>
		<path style="stroke-width: 1.42 ;&st7;   " d=" M    84.99,   196.69  C    87.49    196.69     89.52    194.66     89.52    192.15  "/>
		<path style="stroke-width: 1.42 ;&st7;   " d=" M    89.52,   201.22  C    89.52    198.72     87.49    196.69     84.99    196.69  "/>
		<path style="stroke-width: 1.42 ;&st7;   " d=" M    84.99,   196.69  C    82.48    196.69     80.45    198.72     80.45    201.22  "/>
		<path style="stroke-width: 1.42 ;&st7;   " d=" M    80.45,   201.22  C    80.45    203.72     82.48    205.75     84.99    205.75  "/>
		<path style="stroke-width: 1.42 ;&st7;   " d=" M    84.99,   205.75  C    87.49    205.75     89.52    203.72     89.52    201.22  "/>
		<text style="&st18;" transform="matrix(&st16;  82.8  203.19 )">B</text>
		<text style="&st18;" transform="matrix(&st16;  82.68  194.12 )">A</text>
		<g ewd:figtype="title">
			<text style="&st18;" transform="matrix(&st17;  59.45  242.64 )">B23(A),B41(B)</text>
			<text style="&st18;" transform="matrix(&st17;  66.56  242.65 )" ewd:textID="2">Back-Up Light <tspan x="0 " dy="6.0">Switch Assembly</tspan></text>
		</g>
		<g ewd:code="" ewd:figID="30" ewd:comment="42" ewd:figtype="commref">
			<text style="&st18;" transform="matrix(&st16;  90.08  203.19 )">(*42)</text>
		</g>
		<g ewd:code="" ewd:figID="31" ewd:comment="41" ewd:figtype="commref">
			<text style="&st18;" transform="matrix(&st16;  90.08  194.12 )">(*41)</text>
		</g>
		<g ewd:code="" ewd:figID="34" ewd:comment="42" ewd:figtype="commref">
			<text style="&st18;" transform="matrix(&st16;  90.08  255.31 )">(*42)</text>
		</g>
		<g ewd:code="" ewd:figID="35" ewd:comment="41" ewd:figtype="commref">
			<text style="&st18;" transform="matrix(&st16;  90.08  246.25 )">(*41)</text>
		</g>
	</g>
	<g ewd:figtype="w2w" ewd:figID="9" ewd:code="BF1">
		<path style="stroke-width: 1.42 ;&st7;  " d=" M   191.22,   120.20  L   195.47,   124.45  L   199.72,   120.20  "/>
		<path style="stroke-width: 1.42 ;&st7;  " d=" M   199.72,   123.60  L   195.47,   127.85  L   191.22,   123.60  "/>
		<text style="&st18;" transform="matrix(&st16;  179.73  135.48 )">20</text>
	</g>
	<g ewd:figtype="w2w" ewd:figID="10" ewd:code="BF1">
		<path style="stroke-width: 1.42 ;&st7;  " d=" M   216.71,   384.79  L   212.46,   380.54  L   208.22,   384.79  "/>
		<path style="stroke-width: 1.42 ;&st7;  " d=" M   216.71,   381.39  L   212.46,   377.14  L   208.22,   381.39  "/>
		<text style="&st18;" transform="matrix(&st16;  199.83  373.44 )">1</text>
	</g>
	<g ewd:figtype="gp" ewd:figID="11" ewd:code="FI">
		<path style="stroke-width: 0.85 ;&st7;  " d=" M   212.46,   697.25  L   212.46,   701.50  "/>
		<path style="stroke-width: 0.85 ;&st7;  " d=" M   203.97,   701.50  L   220.96,   701.50  "/>
		<path style="stroke-width: 0.85 ;&st7;  " d=" M   208.22,   704.33  L   216.71,   704.33  "/>
		<path style="stroke-width: 0.85 ;&st7;  " d=" M   209.63,   707.17  L   215.30,   707.17  "/>
		<path style="stroke-width: 0.85 ;&st7;  " d=" M   211.05,   710.00  L   213.88,   710.00  "/>
	</g>
	<g ewd:figtype=" " ewd:figID="14" ewd:code="FUSE114">
		<path style="stroke-width: 1.42 ;&st7;   " d=" M   195.47,    47.11  C   192.73     48.72    191.82     52.25    193.43     54.99  "/>
		<path style="stroke-width: 1.42 ;&st7;   " d=" M   193.43,    54.99  C   193.95     55.87    194.59     56.51    195.47     57.03  "/>
		<path style="stroke-width: 1.42 ;&st7;   " d=" M   195.47,    66.94  C   198.21     65.33    199.12     61.80    197.50     59.06  "/>
		<path style="stroke-width: 1.42 ;&st7;   " d=" M   197.50,    59.06  C   196.98     58.18    196.35     57.55    195.47     57.03  "/>
		<path style="stroke-width: 0.85 ;&st7;   " d=" M   196.88,    45.69  C   196.88     44.91    196.25     44.28    195.47     44.28  "/>
		<path style="stroke-width: 0.85 ;&st7;   " d=" M   195.47,    44.28  C   194.69     44.28    194.05     44.91    194.05     45.69  "/>
		<path style="stroke-width: 0.85 ;&st7;   " d=" M   194.05,    45.69  C   194.05     46.48    194.69     47.11    195.47     47.11  "/>
		<path style="stroke-width: 0.85 ;&st7;   " d=" M   195.47,    47.11  C   196.25     47.11    196.88     46.48    196.88     45.69  "/>
		<path style="stroke-width: 0.85 ;&st7;   " d=" M   196.88,    68.36  C   196.88     67.57    196.25     66.94    195.47     66.94  "/>
		<path style="stroke-width: 0.85 ;&st7;   " d=" M   195.47,    66.94  C   194.69     66.94    194.05     67.57    194.05     68.36  "/>
		<path style="stroke-width: 0.85 ;&st7;   " d=" M   194.05,    68.36  C   194.05     69.14    194.69     69.77    195.47     69.77  "/>
		<path style="stroke-width: 0.85 ;&st7;   " d=" M   195.47,    69.77  C   196.25     69.77    196.88     69.14    196.88     68.36  "/>
		<path style="stroke-width: 1.42 ;&st7;  " d=" M   169.97,    35.78  L   169.97,    78.27  L   212.46,    78.27  L   212.46,    35.78  L   169.97,    35.78  "/>
		<path style="stroke-width: 0.85 ;&st7;  " d=" M   195.47,    69.77  L   195.47,    78.27  "/>
		<text style="&st18;" transform="matrix(&st17;  177.04  67.59 )">7.5A <tspan x="0 " dy="6.0">ECU-IG </tspan><tspan x="0 " dy="6.0">NO.3</tspan></text>
		<g ewd:figtype="title">
			<text style="&st18;" transform="matrix(&st17;  227.18  81.18 )" ewd:textID="3">Fuse Block <tspan x="0 " dy="6.0">Assembly No. 2</tspan></text>
			<text style="&st18;" transform="matrix(&st17;  220.08  81.17 )">F80</text>
		</g>
	</g>
	<g ewd:figtype="annex" ewd:figID="8" ewd:code=" ">
		<text style="&st18;" transform="matrix(&st16;  190.25  32.08 )">(IG)</text>
	</g>
	<g ewd:code="16" ewd:figID="16" ewd:comment="" ewd:figtype="comment">
		<text style="&st18;" transform="matrix(&st16;  413.02  46.25 )">*16 :A/T</text>
	</g>
	<g ewd:code="40" ewd:figID="18" ewd:comment="" ewd:figtype="comment">
		<text style="&st18;" transform="matrix(&st16;  413.02  71.74 )">*40 :H/B</text>
	</g>
	<g ewd:code="39" ewd:figID="19" ewd:comment="" ewd:figtype="comment">
		<text style="&st18;" transform="matrix(&st16;  413.02  63.24 )">*39 :S/D</text>
	</g>
	<g ewd:code="42" ewd:figID="36" ewd:comment="" ewd:figtype="comment">
		<text style="&st18;" transform="matrix(&st16;  413.02  88.74 )">*42 :1NR-FE, 2NR-FE</text>
	</g>
	<g ewd:code="43" ewd:figID="38" ewd:comment="" ewd:figtype="comment">
		<text style="&st18;" transform="matrix(&st16;  413.02  97.24 )">*43 :CVT</text>
	</g>
	<g ewd:code="41" ewd:figID="37" ewd:comment="" ewd:figtype="comment">
		<text style="&st18;" transform="matrix(&st16;  413.02  80.24 )">*41 :1NZ-FE, 2NZ-FE</text>
	</g>
	<g ewd:code="17" ewd:figID="15" ewd:comment="" ewd:figtype="comment">
		<text style="&st18;" transform="matrix(&st16;  413.02  54.75 )">*17 :M/T</text>
	</g>
	<path style="stroke-width: 1.42 ;&st7;  " d=" M   186.97,   129.26  L   195.47,   129.26  "/>
	<path style="stroke-width: 1.42 ;&st7;  " d=" M   220.96,   375.72  L   212.46,   375.72  "/>
	<text style="&st18;" transform="matrix(&st17;  208.77  615.39 )">W-B</text>
	<text style="&st18;" transform="matrix(&st17;  208.77  674.88 )">W-B</text>
	<text style="&st18;" transform="matrix(&st17;  191.77  105.73 )">G</text>
	<text style="&st18;" transform="matrix(&st17;  81.29  173.72 )">G</text>
	<text style="&st18;" transform="matrix(&st17;  92.62  178.02 )">(*17)</text>
	<text style="&st18;" transform="matrix(&st17;  191.77  173.72 )">G</text>
	<text style="&st18;" transform="matrix(&st17;  203.1  183.6 )">(*16,*43)</text>
	<text style="&st18;" transform="matrix(&st17;  81.29  309.35 )">R</text>
	<text style="&st18;" transform="matrix(&st17;  92.62  314.0 )">(*17)</text>
	<text style="&st18;" transform="matrix(&st17;  208.77  288.1 )">R</text>
	<text style="&st18;" transform="matrix(&st17;  220.1  292.75 )">(*16)</text>
	<text style="&st18;" transform="matrix(&st17;  208.77  334.84 )">R</text>
	<text style="&st18;" transform="matrix(&st17;  220.1  339.49 )">(*16)</text>
	<text style="&st18;" transform="matrix(&st17;  208.77  405.04 )">GR</text>
	<text style="&st18;" transform="matrix(&st17;  115.28  483.64 )">B</text>
	<text style="&st18;" transform="matrix(&st17;  115.28  615.39 )">W-B</text>
	<text style="&st18;" transform="matrix(&st17;  208.77  483.76 )">V</text>
	<path style="stroke-width: 1.42 ;&st7;  " d=" M   220.96,   304.21  L   215.99,   299.24  "/>
	<path style="stroke-width: 1.42 ;&st7;  " d=" M   203.97,   311.26  L   208.93,   316.23  "/>
	<path style="stroke-width: 1.42 ;&st7;  " d=" M   215.99,   316.23  L   220.96,   311.26  "/>
	<path style="stroke-width: 1.42 ;&st7;  " d=" M   208.93,   299.24  L   203.97,   304.21  "/>
	<text style="&st18;" transform="matrix(&st17;  251.26  336.47 )">SB</text>
	<text style="&st18;" transform="matrix(&st17;  262.59  339.49 )">(*43)</text>
	<text style="&st18;" transform="matrix(&st17;  220.1  407.48 )">(*41)</text>
	<text style="&st18;" transform="matrix(&st16;  182.65  389.02 )">GR</text>
	<text style="&st18;" transform="matrix(&st16;  180.21  400.35 )">(*42)</text>
	<text style="&st18;" transform="matrix(&st16;  182.65  414.52 )">GR</text>
	<text style="&st18;" transform="matrix(&st16;  180.21  425.85 )">(*42)</text>
	<path style="stroke-width: 1.42 ;&st7;  " d=" M   169.97,   389.19  L   165.00,   384.22  "/>
	<path style="stroke-width: 1.42 ;&st7;  " d=" M   152.97,   396.25  L   157.94,   401.22  "/>
	<path style="stroke-width: 1.42 ;&st7;  " d=" M   165.00,   401.22  L   169.97,   396.25  "/>
	<path style="stroke-width: 1.42 ;&st7;  " d=" M   157.94,   384.22  L   152.97,   389.19  "/>
	<a ewd:figtype="w2w" style="cursor:pointer;" ewd:pinNo="20" ewd:code="BF1" ewd:figID="9">
		<path style="&st2;" d=" M   203.97,   129.26  L   186.97,   129.26  L   186.97,   137.76  L   203.97,   137.76  L   203.97,   129.26 "/>
		<text style="&st8;" transform="matrix(&st16;  190.28  135.63 )"><tspan x="0" style="&st18;" y="0">BF1</tspan></text>
	</a>
	<a ewd:figtype="w2w" style="cursor:pointer;" ewd:pinNo="1" ewd:code="BF1" ewd:figID="10">
		<path style="&st2;" d=" M   220.96,   367.22  L   203.97,   367.22  L   203.97,   375.72  L   220.96,   375.72  L   220.96,   367.22 "/>
		<text style="&st8;" transform="matrix(&st16;  207.27  373.59 )"><tspan x="0" style="&st18;" y="0">BF1</tspan></text>
	</a>
	<a ewd:figtype="gp" style="cursor:pointer;" ewd:code="FI" ewd:figID="11">
		<path style="&st2;" d=" M   201.84,   681.67  L   223.09,   681.67  L   212.46,   697.25  L   201.84,   681.67 "/>
		<text style="&st8;" transform="matrix(&st16;  209.79  689.46 )"><tspan x="0" style="&st18;" y="0">FI</tspan></text>
	</a>
	<a ewd:figtype="sp" style="cursor:pointer;" ewd:code="SP71" ewd:figID="12">
		<path style="&st2;" d=" M   157.22,   384.22  L   165.72,   384.22  L   169.97,   388.47  L   169.97,   396.97  L   165.72,   401.22  L   157.22,   401.22  L   152.97,   396.97  L   152.97,   388.47  L   157.22,   384.22 "/>
	</a>
	<a ewd:figtype="sp" style="cursor:pointer;" ewd:code="SP42" ewd:figID="13">
		<path style="&st2;" d=" M   208.22,   299.24  L   216.71,   299.24  L   220.96,   303.48  L   220.96,   311.98  L   216.71,   316.23  L   208.22,   316.23  L   203.97,   311.98  L   203.97,   303.48  L   208.22,   299.24 "/>
	</a>
</g>
</svg>