﻿<?xml version="1.0" encoding="utf-8"?>
<!DOCTYPE svg PUBLIC "-//W3C//DTD SVG 1.0//EN" "http://www.w3.org/TR/2001/REC-SVG-20010904/DTD/svg10.dtd"[
	<!ENTITY ns_flows "http://ns.adobe.com/Flows/1.0/">
	<!ENTITY ns_svg "http://www.w3.org/2000/svg">
	<!ENTITY ns_xlink "http://www.w3.org/1999/xlink">
	<!ENTITY st0 "font-size:7px;font-family:'MS-PGothic';adobe-font-script:japanese;">
	<!ENTITY st1 "font-size:6px;font-family:'ArialMT';">
	<!-- White fill  -->
	<!ENTITY st2 "fill:#FFFFFF;stroke:#000000; stroke-width:1.41;stroke-linecap:round;stroke-linejoin:round;">
	<!-- Yellow fill  -->
	<!ENTITY st3 "fill:#FFFFCC;stroke:#FFFFCC; stroke-width:0.1;stroke-linecap:round;stroke-linejoin:round;">
	<!-- Gray fill  -->
	<!ENTITY st4 "fill:#CCCCCC;stroke:#CCCCCC; stroke-width:0.1;stroke-linecap:round;stroke-linejoin:round;">
	<!-- Light-blue fill -->
	<!ENTITY st5 "fill:#CCECF4;stroke:#000000; stroke-width:1.133;stroke-linecap:round;stroke-linejoin:round;">
	<!ENTITY st6 "fill:none;stroke-linecap:butt; stroke-linejoin:round;">
	<!ENTITY st7 "fill:none;stroke:#000000;stroke-linecap:round;stroke-linejoin:round;">
	<!ENTITY st8 "enable-background:new    ;">
	<!-- Black fill -->
	<!ENTITY st9 "fill:#000000;stroke:#000000; stroke-linecap:round;stroke-linejoin:round;">
	<!-- SRS note   -->
	<!ENTITY st10 "font-size:9px;font-family:'ArialMT';">
	<!ENTITY st11 "font-size:9px;font-family:'Svg Symbol';">
	<!ENTITY st12 "font-size:6px;font-family:'Svg Symbol';">
	<!ENTITY st13 "fill:none;stroke:#ff0000;stroke-linecap:round;stroke-linejoin:round;">
	<!-- Yellow fill  -->
	<!ENTITY st14 "fill:#FFFF00;stroke:#FFFF00; stroke-width:0.1;stroke-linecap:round;stroke-linejoin:round;">
	<!ENTITY st15 "font-size:6px;font-family:'MS-PGothic';adobe-font-script:japanese;">
	<!ENTITY st16 "1.00 0.00 0.00 1.00">
	<!ENTITY st17 "0.00 -1.00 1.00 0.00">
	<!ENTITY st18 "font-size:6px;font-family:'Arial';">
	<!ENTITY st19 "font-size:9px;font-family:'Arial';">
	<!ENTITY st20 "font-size:6px;font-family:'MS-PGothic','MS PGothic';adobe-font-script:japanese;">
	<!ENTITY st21 "font-size:7px;font-family:'MS-PGothic','MS PGothic';adobe-font-script:japanese;">
	<!ATTLIST svg
		xmlns:ewd CDATA #FIXED "http://shcl.co.jp/ewd"
		xmlns:a CDATA #FIXED "http://ns.adobe.com/AdobeSVGViewerExtensions/3.0/"
		ewd:ver CDATA #IMPLIED
	>
	<!ATTLIST a
		ewd:lineID CDATA #IMPLIED
		ewd:groupID CDATA #IMPLIED
		ewd:figtype CDATA #IMPLIED
		ewd:code CDATA #IMPLIED
		ewd:figID CDATA #IMPLIED
		ewd:pinNo CDATA #IMPLIED
		ewd:comment CDATA #IMPLIED >
	<!ATTLIST g
		ewd:lineID CDATA #IMPLIED
		ewd:groupID CDATA #IMPLIED
		ewd:figtype CDATA #IMPLIED
		ewd:code CDATA #IMPLIED
		ewd:figID CDATA #IMPLIED
		ewd:pinNo CDATA #IMPLIED
		ewd:comment CDATA #IMPLIED >
	<!ATTLIST text
		ewd:textID CDATA #IMPLIED >
	<!ATTLIST title
		ewd:textID CDATA #IMPLIED >
]>
<!-- Generator: Shintec Hozumi YS   -->
<svg onload="call_execInitLoadProc_svg('system')" style="overflow:visible;  enable-background:new 0 0 314.447 710.000" viewBox="0 0 314.447 710.000" height="710.000" width="314.447" xml:space="preserve" ewd:ver="2.2.0.10" xmlns="&ns_svg;" xmlns:a="http://ns.adobe.com/AdobeSVGViewerExtensions/3.0/" xmlns:ewd="http://shcl.co.jp/ewd" xmlns:xlink="&ns_xlink;">
<text style="&st18;" transform="matrix(&st17;  225.77  594.14 )">W-B</text><path style="stroke-width: 1.42 ;&st7;  " d=" M   225.93,   469.21  L   220.96,   474.18  " /><path style="stroke-width: 1.42 ;&st7;  " d=" M   232.99,   486.20  L   237.96,   481.24  " /><path style="stroke-width: 1.42 ;&st7;  " d=" M   220.96,   481.24  L   225.93,   486.20  " /><path style="stroke-width: 1.42 ;&st7;  " d=" M   237.96,   474.18  L   232.99,   469.21  " /><text style="&st18;" transform="matrix(&st17;  225.77  373.18 )">W-B</text><text style="&st18;" transform="matrix(&st17;  225.77  164.95 )">B</text><g ewd:figtype="conn" ewd:figID="1" ewd:code="F113"><path style="stroke-width: 1.42 ;&st7;  " d=" M   203.97,   265.24  L   203.97,   282.24  L   237.96,   282.24  L   237.96,   277.99  L   254.96,   282.24  L   254.96,   265.24  L   237.96,   269.49  L   237.96,   265.24  L   203.97,   265.24  " /><path style="stroke-width: 1.42 ;&st7;  " d=" M   237.96,   269.49  L   237.96,   277.99  " /><text style="&st18;" transform="matrix(&st16;  223.28  290.43 )">2</text><text style="&st18;" transform="matrix(&st16;  223.28  261.55 )">1</text><g ewd:figtype="title"><text style="&st18;" transform="matrix(&st17;  200.27  285.14 )" ewd:textID="1">Cigarette Lighter Assembly</text><text style="&st18;" transform="matrix(&st17;  193.45  285.14 )">F113</text></g></g><g ewd:figtype="jb" ewd:figID="2" ewd:code="2"><path style="stroke-width: 0.85 ;&st7;  " d=" M   229.46,    78.27  L   229.46,    95.27  " /><path style="stroke-width: 1.42 ;&st7;  " d=" M   231.59,   103.77  L   227.34,   103.77  " /><path style="stroke-width: 1.42 ;&st7;  " d=" M   231.59,    95.27  L   227.34,    95.27  " /><path style="stroke-width: 0.85 ;&st7;  " d=" M   229.46,    69.77  L   229.46,    78.27  " /><path style="stroke-width: 1.42 ;&st7;   " d=" M   231.59,   103.77  C   233.93    103.77    235.84    101.87    235.84     99.52  " /><path style="stroke-width: 1.42 ;&st7;   " d=" M   223.09,    99.52  C   223.09    101.87    224.99    103.77    227.34    103.77  " /><path style="stroke-width: 1.42 ;&st7;   " d=" M   227.34,    95.27  C   224.99     95.27    223.09     97.17    223.09     99.52  " /><path style="stroke-width: 0.85 ;&st7;   " d=" M   230.88,    68.36  C   230.88     67.57    230.24     66.94    229.46     66.94  " /><path style="stroke-width: 0.85 ;&st7;   " d=" M   229.46,    66.94  C   228.68     66.94    228.05     67.57    228.05     68.36  " /><path style="stroke-width: 0.85 ;&st7;   " d=" M   228.05,    68.36  C   228.05     69.14    228.68     69.77    229.46     69.77  " /><path style="stroke-width: 0.85 ;&st7;   " d=" M   229.46,    69.77  C   230.24     69.77    230.88     69.14    230.88     68.36  " /><path style="stroke-width: 0.85 ;&st7;   " d=" M   230.88,    45.69  C   230.88     44.91    230.24     44.28    229.46     44.28  " /><path style="stroke-width: 0.85 ;&st7;   " d=" M   229.46,    44.28  C   228.68     44.28    228.05     44.91    228.05     45.69  " /><path style="stroke-width: 0.85 ;&st7;   " d=" M   228.05,    45.69  C   228.05     46.48    228.68     47.11    229.46     47.11  " /><path style="stroke-width: 0.85 ;&st7;   " d=" M   229.46,    47.11  C   230.24     47.11    230.88     46.48    230.88     45.69  " /><path style="stroke-width: 1.42 ;&st7;   " d=" M   229.46,    66.94  C   232.20     65.33    233.11     61.80    231.50     59.06  " /><path style="stroke-width: 1.42 ;&st7;   " d=" M   231.50,    59.06  C   230.98     58.18    230.34     57.55    229.46     57.03  " /><path style="stroke-width: 1.42 ;&st7;   " d=" M   229.46,    47.11  C   226.72     48.72    225.81     52.25    227.42     54.99  " /><path style="stroke-width: 1.42 ;&st7;   " d=" M   227.42,    54.99  C   227.94     55.87    228.58     56.51    229.46     57.03  " /><path style="stroke-width: 1.42 ;&st7;  " d=" M   216.71,    35.78  L   216.71,    78.27  L   242.21,    78.27  L   242.21,    35.78  L   216.71,    35.78  " /><path style="stroke-width: 0.28 ;&st9;  " d=" M   229.46,    90.37  L   226.63,    87.54  L   226.63,    91.79  L   229.46,    94.62  L   232.29,    91.79  L   232.29,    87.54  L   229.46,    90.37  " /><path style="stroke-width: 1.42 ;&st7;   " d=" M   235.84,    99.52  C   235.84     97.17    233.93     95.27    231.59     95.27  " /><text style="&st18;" transform="matrix(&st16;  220.95  32.08 )">(ACC)</text><text style="&st18;" transform="matrix(&st16;  218.95  101.49 )">2</text><text style="&st18;" transform="matrix(&st16;  225.61  101.49 )">2K</text><text style="&st18;" transform="matrix(&st16;  245.89  56.17 )">15A <tspan x="0 " dy="6.0">P/OUTLET NO.1</tspan></text><text style="&st18;" transform="matrix(&st16;  223.28  86.47 )">2</text></g><g ewd:figtype="gp" ewd:figID="3" ewd:code="FA"><path style="stroke-width: 0.85 ;&st7;  " d=" M   228.05,   710.00  L   230.88,   710.00  " /><path style="stroke-width: 0.85 ;&st7;  " d=" M   226.63,   707.17  L   232.29,   707.17  " /><path style="stroke-width: 0.85 ;&st7;  " d=" M   225.21,   704.33  L   233.71,   704.33  " /><path style="stroke-width: 0.85 ;&st7;  " d=" M   220.96,   701.50  L   237.96,   701.50  " /><path style="stroke-width: 0.85 ;&st7;  " d=" M   229.46,   697.25  L   229.46,   701.50  " /></g></svg>