﻿<?xml version="1.0" encoding="utf-8"?>
<!DOCTYPE svg PUBLIC "-//W3C//DTD SVG 1.0//EN" "http://www.w3.org/TR/2001/REC-SVG-20010904/DTD/svg10.dtd"[
	<!ENTITY ns_flows "http://ns.adobe.com/Flows/1.0/">
	<!ENTITY ns_svg "http://www.w3.org/2000/svg">
	<!ENTITY ns_xlink "http://www.w3.org/1999/xlink">
	<!ENTITY st0 "font-size:7px;font-family:'MS-PGothic';adobe-font-script:japanese;">
	<!ENTITY st1 "font-size:6px;font-family:'ArialMT';">
	<!-- White fill  -->
	<!ENTITY st2 "fill:#FFFFFF;stroke:#000000; stroke-width:1.41;stroke-linecap:round;stroke-linejoin:round;">
	<!-- Yellow fill  -->
	<!ENTITY st3 "fill:#FFFFCC;stroke:#FFFFCC; stroke-width:0.1;stroke-linecap:round;stroke-linejoin:round;">
	<!-- Gray fill  -->
	<!ENTITY st4 "fill:#CCCCCC;stroke:#CCCCCC; stroke-width:0.1;stroke-linecap:round;stroke-linejoin:round;">
	<!-- Light-blue fill -->
	<!ENTITY st5 "fill:#CCECF4;stroke:#000000; stroke-width:1.133;stroke-linecap:round;stroke-linejoin:round;">
	<!ENTITY st6 "fill:none;stroke-linecap:butt; stroke-linejoin:round;">
	<!ENTITY st7 "fill:none;stroke:#000000;stroke-linecap:round;stroke-linejoin:round;">
	<!ENTITY st8 "enable-background:new    ;">
	<!-- Black fill -->
	<!ENTITY st9 "fill:#000000;stroke:#000000; stroke-linecap:round;stroke-linejoin:round;">
	<!-- SRS note   -->
	<!ENTITY st10 "font-size:9px;font-family:'ArialMT';">
	<!ENTITY st11 "font-size:9px;font-family:'Svg Symbol';">
	<!ENTITY st12 "font-size:6px;font-family:'Svg Symbol';">
	<!ENTITY st13 "fill:none;stroke:#ff0000;stroke-linecap:round;stroke-linejoin:round;">
	<!-- Yellow fill  -->
	<!ENTITY st14 "fill:#FFFF00;stroke:#FFFF00; stroke-width:0.1;stroke-linecap:round;stroke-linejoin:round;">
	<!ENTITY st15 "font-size:6px;font-family:'MS-PGothic';adobe-font-script:japanese;">
	<!ENTITY st16 "1.00 0.00 0.00 1.00">
	<!ENTITY st17 "0.00 -1.00 1.00 0.00">
	<!ENTITY st18 "font-size:6px;font-family:'Arial';">
	<!ENTITY st19 "font-size:9px;font-family:'Arial';">
	<!ENTITY st20 "font-size:6px;font-family:'MS-PGothic','MS PGothic';adobe-font-script:japanese;">
	<!ENTITY st21 "font-size:7px;font-family:'MS-PGothic','MS PGothic';adobe-font-script:japanese;">
	<!ATTLIST svg
		xmlns:ewd CDATA #FIXED "http://shcl.co.jp/ewd"
		xmlns:a CDATA #FIXED "http://ns.adobe.com/AdobeSVGViewerExtensions/3.0/"
		ewd:ver CDATA #IMPLIED
	>
	<!ATTLIST a
		ewd:lineID CDATA #IMPLIED
		ewd:groupID CDATA #IMPLIED
		ewd:figtype CDATA #IMPLIED
		ewd:code CDATA #IMPLIED
		ewd:figID CDATA #IMPLIED
		ewd:pinNo CDATA #IMPLIED
		ewd:comment CDATA #IMPLIED >
	<!ATTLIST g
		ewd:lineID CDATA #IMPLIED
		ewd:groupID CDATA #IMPLIED
		ewd:figtype CDATA #IMPLIED
		ewd:code CDATA #IMPLIED
		ewd:figID CDATA #IMPLIED
		ewd:pinNo CDATA #IMPLIED
		ewd:comment CDATA #IMPLIED >
	<!ATTLIST text
		ewd:textID CDATA #IMPLIED >
	<!ATTLIST title
		ewd:textID CDATA #IMPLIED >
]>
<!-- Generator: Shintec Hozumi YS   -->
<svg onload="call_execInitLoadProc_svg('system')" style="overflow:visible;  enable-background:new 0 0 9323.467 710.000" viewBox="0 0 9323.467 710.000" height="710.000" width="9323.467" xml:space="preserve" ewd:ver="2.2.0.10" xmlns="&ns_svg;" xmlns:a="http://ns.adobe.com/AdobeSVGViewerExtensions/3.0/" xmlns:ewd="http://shcl.co.jp/ewd" xmlns:xlink="&ns_xlink;">
<path style="stroke-width: 1.42 ;&st7;  " d=" M  2112.62,   554.19  L  2107.65,   559.16  " /><path style="stroke-width: 1.42 ;&st7;  " d=" M  2119.67,   571.19  L  2124.65,   566.22  " /><path style="stroke-width: 1.42 ;&st7;  " d=" M  2107.65,   566.22  L  2112.62,   571.19  " /><path style="stroke-width: 1.42 ;&st7;  " d=" M  2124.65,   559.16  L  2119.67,   554.19  " /><text style="&st18;" transform="matrix(&st16;  2096.96  558.99 )">B</text><text style="&st18;" transform="matrix(&st16;  2045.97  558.99 )">B</text><text style="&st18;" transform="matrix(&st17;  2112.45  394.21 )">P</text><text style="&st18;" transform="matrix(&st17;  2146.45  395.96 )">SB</text><text style="&st18;" transform="matrix(&st17;  2180.44  394.52 )">V</text><text style="&st18;" transform="matrix(&st17;  2290.92  394.21 )">P</text><text style="&st18;" transform="matrix(&st17;  2324.91  394.33 )">R</text><text style="&st18;" transform="matrix(&st17;  2358.91  396.54 )">GR</text><text style="&st18;" transform="matrix(&st17;  2137.95  216.05 )">V</text><text style="&st18;" transform="matrix(&st17;  2188.94  216.71 )">W</text><text style="&st18;" transform="matrix(&st17;  2239.93  215.94 )">Y</text><text style="&st18;" transform="matrix(&st17;  2290.92  218.07 )">GR</text><text style="&st18;" transform="matrix(&st17;  2341.91  216.21 )">G</text><text style="&st18;" transform="matrix(&st17;  2392.9  217.8 )">BR</text><text style="&st18;" transform="matrix(&st16;  2198.94  558.99 )">B</text><text style="&st18;" transform="matrix(&st17;  2112.45  513.39 )">B</text><text style="&st18;" transform="matrix(&st17;  2290.92  513.39 )">B</text><text style="&st18;" transform="matrix(&st16;  2274.21  301.18 )">B46(H),B47(I),B48(J),F130(K),F131(L)</text><text style="&st18;" transform="matrix(&st16;  2274.21  308.29 )">ECM</text><text style="&st18;" transform="matrix(&st17;  2214.43  396.27 )">BR</text><path style="stroke-width: 1.42 ;&st7;  " d=" M  2005.66,   559.16  L  2000.69,   554.19  " /><path style="stroke-width: 1.42 ;&st7;  " d=" M  2000.69,   571.19  L  2005.66,   566.22  " /><text style="&st18;" transform="matrix(&st16;  2090.14  618.48 )">BR(*1)</text><text style="&st18;" transform="matrix(&st16;  2039.15  618.48 )">BR(*1)</text><text style="&st18;" transform="matrix(&st16;  2091.73  635.48 )">G(*1)</text><text style="&st18;" transform="matrix(&st16;  2040.74  635.48 )">G(*1)</text><text style="&st18;" transform="matrix(&st17;  2426.9  394.33 )">R</text><text style="&st18;" transform="matrix(&st17;  2469.39  394.41 )">B</text><text style="&st18;" transform="matrix(&st17;  2426.9  513.39 )">B</text><path style="stroke-width: 1.42 ;&st7;  " d=" M  2303.12,   559.16  L  2298.14,   554.19  " /><path style="stroke-width: 1.42 ;&st7;  " d=" M  2286.12,   566.22  L  2291.09,   571.19  " /><path style="stroke-width: 1.42 ;&st7;  " d=" M  2298.14,   571.19  L  2303.12,   566.22  " /><path style="stroke-width: 1.42 ;&st7;  " d=" M  2291.09,   554.19  L  2286.12,   559.16  " /><text style="&st18;" transform="matrix(&st16;  2090.45  584.49 )">SB(*7)</text><text style="&st18;" transform="matrix(&st16;  2039.46  584.49 )">SB(*7)</text><text style="&st18;" transform="matrix(&st16;  2096.19  601.49 )">W</text><text style="&st18;" transform="matrix(&st16;  2045.19  601.49 )">W</text><g ewd:figtype="conn" ewd:figID="9" ewd:code="B17"><path style="stroke-width: 1.42 ;&st7;  " d=" M  2124.64,   103.77  L  2124.64,   154.76  L  2413.60,   154.76  L  2413.60,   103.77  L  2124.64,   103.77  " /><g ewd:lineID="61"><text style="&st18;" transform="matrix(&st16;  2135.46  162.95 )">3</text><text style="&st18;" transform="matrix(&st16;  2137.98  151.06 )">E2</text></g><g ewd:lineID="64"><text style="&st18;" transform="matrix(&st16;  2186.45  162.95 )">5</text><text style="&st18;" transform="matrix(&st16;  2188.16  151.06 )">VC</text></g><g ewd:lineID="66"><text style="&st18;" transform="matrix(&st16;  2237.44  162.95 )">6</text><text style="&st18;" transform="matrix(&st16;  2237.33  151.06 )">VTA</text></g><g ewd:lineID="69"><text style="&st18;" transform="matrix(&st16;  2288.43  162.95 )">4</text><text style="&st18;" transform="matrix(&st16;  2286.77  151.06 )">VTA2</text></g><g ewd:lineID="71"><text style="&st18;" transform="matrix(&st16;  2339.42  162.95 )">2</text><text style="&st18;" transform="matrix(&st16;  2341.33  151.06 )">M+</text></g><g ewd:lineID="73"><text style="&st18;" transform="matrix(&st16;  2390.42  162.95 )">1</text><text style="&st18;" transform="matrix(&st16;  2392.32  151.06 )">M-</text></g><g ewd:figtype="title"><text style="&st18;" transform="matrix(&st16;  2121.23  92.96 )">B17</text><text style="&st18;" transform="matrix(&st16;  2121.24  100.07 )" ewd:textID="81">Throttle Body with Motor Assembly</text></g></g><g ewd:figtype="conn" ewd:figID="13" ewd:code="B25"><path style="stroke-width: 1.42 ;&st7;  " d=" M  2099.15,   452.21  L  2099.15,   486.20  L  2235.13,   486.20  L  2235.13,   452.21  L  2099.15,   452.21  " /><g ewd:lineID="58"><text style="&st18;" transform="matrix(&st16;  2109.96  494.4 )">3</text><text style="&st18;" transform="matrix(&st16;  2112.41  482.51 )">+B</text></g><g ewd:lineID="59"><text style="&st18;" transform="matrix(&st16;  2109.96  448.52 )">1</text><text style="&st18;" transform="matrix(&st16;  2109.65  459.84 )">THA</text></g><g ewd:lineID="62"><text style="&st18;" transform="matrix(&st16;  2143.96  448.52 )">4</text><text style="&st18;" transform="matrix(&st16;  2144.27  459.84 )">E2G</text></g><g ewd:lineID="63"><text style="&st18;" transform="matrix(&st16;  2177.95  448.52 )">5</text><text style="&st18;" transform="matrix(&st16;  2179.62  459.84 )">VG</text></g><g ewd:lineID="65"><text style="&st18;" transform="matrix(&st16;  2211.94  448.52 )">2</text><text style="&st18;" transform="matrix(&st16;  2214.47  459.84 )">E2</text></g><g ewd:figtype="title"><text style="&st18;" transform="matrix(&st16;  2138.23  493.81 )">B25</text><text style="&st18;" transform="matrix(&st16;  2138.24  500.92 )" ewd:textID="57">Intake Mass Air <tspan x="0 " dy="6.0">Flow Meter Sub-Assembly</tspan></text></g></g><g ewd:figtype="conn" ewd:figID="36" ewd:code="B33"><path style="stroke-width: 1.42 ;&st7;  " d=" M  2413.60,   452.21  L  2413.60,   486.20  L  2524.08,   486.20  L  2524.08,   452.21  L  2413.60,   452.21  " /><g ewd:lineID="74"><text style="&st18;" transform="matrix(&st16;  2424.41  494.4 )">2</text><text style="&st18;" transform="matrix(&st16;  2426.85  482.51 )">+B</text></g><g ewd:lineID="75"><text style="&st18;" transform="matrix(&st16;  2424.41  448.52 )">1</text><text style="&st18;" transform="matrix(&st16;  2422.43  459.84 )">HA1A</text></g><g ewd:lineID="76"><text style="&st18;" transform="matrix(&st16;  2466.9  448.52 )">3</text><text style="&st18;" transform="matrix(&st16;  2465.63  459.84 )">A1A+</text></g><g ewd:lineID="77"><text style="&st18;" transform="matrix(&st16;  2499.62  459.84 )">A1A-</text></g><g ewd:figtype="title"><text style="&st18;" transform="matrix(&st16;  2452.68  500.92 )" ewd:textID="18">Air Fuel Ratio Sensor <tspan x="0 " dy="6.0">(Bank 1 Sensor 1)</tspan></text><text style="&st18;" transform="matrix(&st16;  2452.68  493.81 )">B33</text></g></g><g ewd:figtype="conn" ewd:figID="50" ewd:code="B46,B47,B48,F130,F131"><g ewd:lineID="277"><text style="&st18;" transform="matrix(&st16;  2435.8  279.67 )">17</text><path style="stroke-width: 1.42 ;&st7;   " d=" M  2452.12,   277.71  C  2452.12    275.20   2450.09    273.17   2447.59    273.17  " /><path style="stroke-width: 1.42 ;&st7;   " d=" M  2447.59,   273.17  C  2445.09    273.17   2443.06    275.20   2443.06    277.71  " /><path style="stroke-width: 1.42 ;&st7;   " d=" M  2443.06,   277.71  C  2443.06    280.21   2445.09    282.24   2447.59    282.24  " /><path style="stroke-width: 1.42 ;&st7;   " d=" M  2447.59,   282.24  C  2450.09    282.24   2452.12    280.21   2452.12    277.71  " /><text style="&st18;" transform="matrix(&st16;  2445.09  279.67 )">H</text><text style="&st18;" transform="matrix(&st16;  2440.17  289.87 )">GE01</text></g><g ewd:lineID="56"><path style="stroke-width: 1.42 ;&st7;   " d=" M  2001.70,   329.26  C  2001.70    326.76   1999.67    324.73   1997.17    324.73  " /></g><g ewd:lineID="59"><text style="&st18;" transform="matrix(&st16;  2104.35  331.23 )">23</text><path style="stroke-width: 1.42 ;&st7;   " d=" M  2120.68,   329.26  C  2120.68    326.76   2118.65    324.73   2116.15    324.73  " /><path style="stroke-width: 1.42 ;&st7;   " d=" M  2116.15,   324.73  C  2113.64    324.73   2111.61    326.76   2111.61    329.26  " /><path style="stroke-width: 1.42 ;&st7;   " d=" M  2111.61,   329.26  C  2111.61    331.77   2113.64    333.80   2116.15    333.80  " /><path style="stroke-width: 1.42 ;&st7;   " d=" M  2116.15,   333.80  C  2118.65    333.80   2120.68    331.77   2120.68    329.26  " /><text style="&st18;" transform="matrix(&st16;  2115.01  331.23 )">I</text><text style="&st18;" transform="matrix(&st16;  2109.65  321.03 )">THA</text></g><g ewd:lineID="61"><text style="&st18;" transform="matrix(&st16;  2129.85  279.67 )">28</text><path style="stroke-width: 1.42 ;&st7;   " d=" M  2146.17,   277.71  C  2146.17    275.20   2144.15    273.17   2141.64    273.17  " /><path style="stroke-width: 1.42 ;&st7;   " d=" M  2141.64,   273.17  C  2139.14    273.17   2137.11    275.20   2137.11    277.71  " /><path style="stroke-width: 1.42 ;&st7;   " d=" M  2137.11,   277.71  C  2137.11    280.21   2139.14    282.24   2141.64    282.24  " /><path style="stroke-width: 1.42 ;&st7;   " d=" M  2141.64,   282.24  C  2144.15    282.24   2146.17    280.21   2146.17    277.71  " /><text style="&st18;" transform="matrix(&st16;  2139.14  279.67 )">H</text><text style="&st18;" transform="matrix(&st16;  2135.54  289.87 )">ETA</text></g><g ewd:lineID="62"><text style="&st18;" transform="matrix(&st16;  2138.34  331.23 )">32</text><text style="&st18;" transform="matrix(&st16;  2149.0  331.23 )">I</text><path style="stroke-width: 1.42 ;&st7;   " d=" M  2154.67,   329.26  C  2154.67    326.76   2152.64    324.73   2150.14    324.73  " /><path style="stroke-width: 1.42 ;&st7;   " d=" M  2150.14,   324.73  C  2147.64    324.73   2145.61    326.76   2145.61    329.26  " /><path style="stroke-width: 1.42 ;&st7;   " d=" M  2145.61,   329.26  C  2145.61    331.77   2147.64    333.80   2150.14    333.80  " /><path style="stroke-width: 1.42 ;&st7;   " d=" M  2150.14,   333.80  C  2152.64    333.80   2154.67    331.77   2154.67    329.26  " /><text style="&st18;" transform="matrix(&st16;  2144.27  321.03 )">E2G</text></g><g ewd:lineID="63"><text style="&st18;" transform="matrix(&st16;  2172.34  331.23 )">24</text><path style="stroke-width: 1.42 ;&st7;   " d=" M  2188.67,   329.26  C  2188.67    326.76   2186.64    324.73   2184.14    324.73  " /><path style="stroke-width: 1.42 ;&st7;   " d=" M  2184.14,   324.73  C  2181.63    324.73   2179.60    326.76   2179.60    329.26  " /><path style="stroke-width: 1.42 ;&st7;   " d=" M  2179.60,   329.26  C  2179.60    331.77   2181.63    333.80   2184.14    333.80  " /><path style="stroke-width: 1.42 ;&st7;   " d=" M  2184.14,   333.80  C  2186.64    333.80   2188.67    331.77   2188.67    329.26  " /><text style="&st18;" transform="matrix(&st16;  2182.99  331.23 )">I</text><text style="&st18;" transform="matrix(&st16;  2179.62  321.03 )">VG</text></g><g ewd:lineID="64"><text style="&st18;" transform="matrix(&st16;  2180.84  279.67 )">29</text><path style="stroke-width: 1.42 ;&st7;   " d=" M  2197.17,   277.71  C  2197.17    275.20   2195.14    273.17   2192.63    273.17  " /><path style="stroke-width: 1.42 ;&st7;   " d=" M  2192.63,   273.17  C  2190.13    273.17   2188.10    275.20   2188.10    277.71  " /><path style="stroke-width: 1.42 ;&st7;   " d=" M  2188.10,   277.71  C  2188.10    280.21   2190.13    282.24   2192.63    282.24  " /><path style="stroke-width: 1.42 ;&st7;   " d=" M  2192.63,   282.24  C  2195.14    282.24   2197.17    280.21   2197.17    277.71  " /><text style="&st18;" transform="matrix(&st16;  2190.14  279.67 )">H</text><text style="&st18;" transform="matrix(&st16;  2184.16  289.87 )">VCTA</text></g><g ewd:lineID="65"><text style="&st18;" transform="matrix(&st16;  2206.33  331.23 )">31</text><path style="stroke-width: 1.42 ;&st7;   " d=" M  2222.66,   329.26  C  2222.66    326.76   2220.63    324.73   2218.13    324.73  " /><path style="stroke-width: 1.42 ;&st7;   " d=" M  2218.13,   324.73  C  2215.63    324.73   2213.60    326.76   2213.60    329.26  " /><path style="stroke-width: 1.42 ;&st7;   " d=" M  2213.60,   329.26  C  2213.60    331.77   2215.63    333.80   2218.13    333.80  " /><path style="stroke-width: 1.42 ;&st7;   " d=" M  2218.13,   333.80  C  2220.63    333.80   2222.66    331.77   2222.66    329.26  " /><text style="&st18;" transform="matrix(&st16;  2216.99  331.23 )">I</text><text style="&st18;" transform="matrix(&st16;  2209.78  321.03 )">ETHA</text></g><g ewd:lineID="66"><text style="&st18;" transform="matrix(&st16;  2231.83  279.67 )">30</text><text style="&st18;" transform="matrix(&st16;  2241.13  279.67 )">H</text><path style="stroke-width: 1.42 ;&st7;   " d=" M  2248.16,   277.71  C  2248.16    275.20   2246.13    273.17   2243.63    273.17  " /><path style="stroke-width: 1.42 ;&st7;   " d=" M  2243.63,   273.17  C  2241.12    273.17   2239.09    275.20   2239.09    277.71  " /><path style="stroke-width: 1.42 ;&st7;   " d=" M  2239.09,   277.71  C  2239.09    280.21   2241.12    282.24   2243.63    282.24  " /><path style="stroke-width: 1.42 ;&st7;   " d=" M  2243.63,   282.24  C  2246.13    282.24   2248.16    280.21   2248.16    277.71  " /><text style="&st18;" transform="matrix(&st16;  2235.78  289.87 )">VTA1</text></g><g ewd:lineID="68"><text style="&st18;" transform="matrix(&st16;  2285.92  331.23 )">7</text><text style="&st18;" transform="matrix(&st16;  2293.48  331.23 )">I</text><path style="stroke-width: 1.42 ;&st7;   " d=" M  2299.15,   329.26  C  2299.15    326.76   2297.12    324.73   2294.62    324.73  " /><path style="stroke-width: 1.42 ;&st7;   " d=" M  2294.62,   324.73  C  2292.11    324.73   2290.08    326.76   2290.08    329.26  " /><path style="stroke-width: 1.42 ;&st7;   " d=" M  2290.08,   329.26  C  2290.08    331.77   2292.11    333.80   2294.62    333.80  " /><path style="stroke-width: 1.42 ;&st7;   " d=" M  2294.62,   333.80  C  2297.12    333.80   2299.15    331.77   2299.15    329.26  " /><text style="&st18;" transform="matrix(&st16;  2286.69  321.03 )">HT1B</text></g><g ewd:lineID="69"><text style="&st18;" transform="matrix(&st16;  2282.82  279.67 )">18</text><text style="&st18;" transform="matrix(&st16;  2292.12  279.67 )">H</text><path style="stroke-width: 1.42 ;&st7;   " d=" M  2299.15,   277.71  C  2299.15    275.20   2297.12    273.17   2294.62    273.17  " /><path style="stroke-width: 1.42 ;&st7;   " d=" M  2294.62,   273.17  C  2292.11    273.17   2290.08    275.20   2290.08    277.71  " /><path style="stroke-width: 1.42 ;&st7;   " d=" M  2290.08,   277.71  C  2290.08    280.21   2292.11    282.24   2294.62    282.24  " /><path style="stroke-width: 1.42 ;&st7;   " d=" M  2294.62,   282.24  C  2297.12    282.24   2299.15    280.21   2299.15    277.71  " /><text style="&st18;" transform="matrix(&st16;  2286.77  289.87 )">VTA2</text></g><g ewd:lineID="70"><text style="&st18;" transform="matrix(&st16;  2316.82  331.23 )">35</text><path style="stroke-width: 1.42 ;&st7;   " d=" M  2333.14,   329.26  C  2333.14    326.76   2331.11    324.73   2328.61    324.73  " /><path style="stroke-width: 1.42 ;&st7;   " d=" M  2328.61,   324.73  C  2326.11    324.73   2324.08    326.76   2324.08    329.26  " /><path style="stroke-width: 1.42 ;&st7;   " d=" M  2324.08,   329.26  C  2324.08    331.77   2326.11    333.80   2328.61    333.80  " /><path style="stroke-width: 1.42 ;&st7;   " d=" M  2328.61,   333.80  C  2331.11    333.80   2333.14    331.77   2333.14    329.26  " /><text style="&st18;" transform="matrix(&st16;  2327.47  331.23 )">I</text><text style="&st18;" transform="matrix(&st16;  2320.96  321.03 )">EX1B</text></g><g ewd:lineID="71"><text style="&st18;" transform="matrix(&st16;  2336.91  279.67 )">7</text><text style="&st18;" transform="matrix(&st16;  2343.11  279.67 )">H</text><path style="stroke-width: 1.42 ;&st7;   " d=" M  2350.14,   277.71  C  2350.14    275.20   2348.11    273.17   2345.61    273.17  " /><path style="stroke-width: 1.42 ;&st7;   " d=" M  2345.61,   273.17  C  2343.10    273.17   2341.08    275.20   2341.08    277.71  " /><path style="stroke-width: 1.42 ;&st7;   " d=" M  2341.08,   277.71  C  2341.08    280.21   2343.10    282.24   2345.61    282.24  " /><path style="stroke-width: 1.42 ;&st7;   " d=" M  2345.61,   282.24  C  2348.11    282.24   2350.14    280.21   2350.14    277.71  " /><text style="&st18;" transform="matrix(&st16;  2341.33  289.87 )">M+</text></g><g ewd:lineID="72"><text style="&st18;" transform="matrix(&st16;  2350.81  331.23 )">27</text><path style="stroke-width: 1.42 ;&st7;   " d=" M  2367.14,   329.26  C  2367.14    326.76   2365.11    324.73   2362.61    324.73  " /><path style="stroke-width: 1.42 ;&st7;   " d=" M  2362.61,   324.73  C  2360.10    324.73   2358.07    326.76   2358.07    329.26  " /><path style="stroke-width: 1.42 ;&st7;   " d=" M  2358.07,   329.26  C  2358.07    331.77   2360.10    333.80   2362.61    333.80  " /><path style="stroke-width: 1.42 ;&st7;   " d=" M  2362.61,   333.80  C  2365.11    333.80   2367.14    331.77   2367.14    329.26  " /><text style="&st18;" transform="matrix(&st16;  2361.46  331.23 )">I</text><text style="&st18;" transform="matrix(&st16;  2354.45  321.03 )">OX1B</text></g><g ewd:lineID="73"><text style="&st18;" transform="matrix(&st16;  2387.91  279.67 )">6</text><path style="stroke-width: 1.42 ;&st7;   " d=" M  2401.13,   277.71  C  2401.13    275.20   2399.10    273.17   2396.60    273.17  " /><path style="stroke-width: 1.42 ;&st7;   " d=" M  2396.60,   273.17  C  2394.10    273.17   2392.07    275.20   2392.07    277.71  " /><path style="stroke-width: 1.42 ;&st7;   " d=" M  2392.07,   277.71  C  2392.07    280.21   2394.10    282.24   2396.60    282.24  " /><path style="stroke-width: 1.42 ;&st7;   " d=" M  2396.60,   282.24  C  2399.10    282.24   2401.13    280.21   2401.13    277.71  " /><text style="&st18;" transform="matrix(&st16;  2394.1  279.67 )">H</text><text style="&st18;" transform="matrix(&st16;  2392.32  289.87 )">M-</text></g><g ewd:lineID="75"><text style="&st18;" transform="matrix(&st16;  2421.9  331.23 )">6</text><text style="&st18;" transform="matrix(&st16;  2429.45  331.23 )">I</text><path style="stroke-width: 1.42 ;&st7;   " d=" M  2435.13,   329.26  C  2435.13    326.76   2433.10    324.73   2430.59    324.73  " /><path style="stroke-width: 1.42 ;&st7;   " d=" M  2430.59,   324.73  C  2428.09    324.73   2426.06    326.76   2426.06    329.26  " /><path style="stroke-width: 1.42 ;&st7;   " d=" M  2426.06,   329.26  C  2426.06    331.77   2428.09    333.80   2430.59    333.80  " /><path style="stroke-width: 1.42 ;&st7;   " d=" M  2430.59,   333.80  C  2433.10    333.80   2435.13    331.77   2435.13    329.26  " /><text style="&st18;" transform="matrix(&st16;  2422.43  321.03 )">HA1A</text></g><g ewd:lineID="76"><text style="&st18;" transform="matrix(&st16;  2461.29  331.23 )">26</text><text style="&st18;" transform="matrix(&st16;  2471.95  331.23 )">I</text><path style="stroke-width: 1.42 ;&st7;   " d=" M  2477.62,   329.26  C  2477.62    326.76   2475.59    324.73   2473.09    324.73  " /><path style="stroke-width: 1.42 ;&st7;   " d=" M  2473.09,   324.73  C  2470.58    324.73   2468.55    326.76   2468.55    329.26  " /><path style="stroke-width: 1.42 ;&st7;   " d=" M  2468.55,   329.26  C  2468.55    331.77   2470.58    333.80   2473.09    333.80  " /><path style="stroke-width: 1.42 ;&st7;   " d=" M  2473.09,   333.80  C  2475.59    333.80   2477.62    331.77   2477.62    329.26  " /><text style="&st18;" transform="matrix(&st16;  2465.63  321.03 )">A1A+</text></g><g ewd:lineID="77"><text style="&st18;" transform="matrix(&st16;  2495.29  331.23 )">34</text><text style="&st18;" transform="matrix(&st16;  2499.62  321.03 )">A1A-</text></g></g><g ewd:figtype="conn" ewd:figID="59" ewd:code="B42"><path style="stroke-width: 1.42 ;&st7;  " d=" M  2277.62,   452.21  L  2277.62,   486.20  L  2379.60,   486.20  L  2379.60,   452.21  L  2277.62,   452.21  " /><g ewd:lineID="67"><text style="&st18;" transform="matrix(&st16;  2288.43  494.4 )">2</text><text style="&st18;" transform="matrix(&st16;  2290.88  482.51 )">+B</text></g><g ewd:lineID="68"><text style="&st18;" transform="matrix(&st16;  2288.43  448.52 )">1</text><text style="&st18;" transform="matrix(&st16;  2286.69  459.84 )">HT1B</text></g><g ewd:lineID="70"><text style="&st18;" transform="matrix(&st16;  2322.43  448.52 )">4</text><text style="&st18;" transform="matrix(&st16;  2324.95  459.84 )">E2</text></g><g ewd:lineID="72"><text style="&st18;" transform="matrix(&st16;  2356.42  448.52 )">3</text><text style="&st18;" transform="matrix(&st16;  2354.45  459.84 )">OX1B</text></g><g ewd:figtype="title"><text style="&st18;" transform="matrix(&st16;  2316.7  493.81 )">B42</text><text style="&st18;" transform="matrix(&st16;  2316.71  500.92 )" ewd:textID="67">Oxygen Sensor <tspan x="0 " dy="6.0">(Bank 1 Sensor 2)</tspan></text></g></g><g ewd:code=" " ewd:figID="195" ewd:comment=" " ewd:figtype="sh"><path style="stroke-width: 0.85 ;&st7; stroke-dasharray:3, 1.5;" d=" M  2541.07,   409.72  L  2456.09,   409.72  L  2456.09,   375.72  L  2541.07,   375.72  L  2541.07,   409.72  " /><path style="stroke-width: 0.85 ;&st7;  " d=" M  2539.88,   408.71  L  2539.61,   409.18  L  2539.52,   409.72  L  2539.61,   410.25  L  2539.88,   410.72  L  2540.30,   411.07  L  2540.80,   411.25  L  2541.35,   411.25  L  2541.85,   411.07  L  2542.27,   410.72  L  2542.54,   410.25  L  2542.63,   409.72  L  2542.54,   409.18  L  2542.27,   408.71  L  2541.85,   408.37  L  2541.35,   408.18  L  2540.80,   408.18  L  2540.30,   408.37  L  2539.88,   408.71  L  2540.28,   409.43  L  2540.28,   410.01  L  2540.65,   410.45  L  2541.22,   410.55  L  2541.73,   410.26  L  2541.92,   409.72  L  2541.73,   409.17  L  2541.22,   408.88  L  2540.65,   408.98  L  2541.07,   409.72  " /><g ewd:code="" ewd:figID="196" ewd:comment=" " ewd:figtype="commref"><text style="&st18;" transform="matrix(&st17;  2452.4  404.96 )" ewd:textID="1">(Shielded)</text></g></g><g ewd:code=" " ewd:figID="176" ewd:comment=" " ewd:figtype="sh"><path style="stroke-width: 0.85 ;&st7; stroke-dasharray:3, 1.5;" d=" M  2447.59,   231.25  L  2320.11,   231.25  L  2320.11,   197.25  L  2447.59,   197.25  L  2447.59,   231.25  " /><path style="stroke-width: 0.85 ;&st7;  " d=" M  2446.40,   230.24  L  2446.13,   230.71  L  2446.03,   231.25  L  2446.13,   231.78  L  2446.40,   232.25  L  2446.81,   232.60  L  2447.32,   232.78  L  2447.86,   232.78  L  2448.37,   232.60  L  2448.78,   232.25  L  2449.05,   231.78  L  2449.15,   231.25  L  2449.05,   230.71  L  2448.78,   230.24  L  2448.37,   229.90  L  2447.86,   229.71  L  2447.32,   229.71  L  2446.81,   229.90  L  2446.40,   230.24  L  2446.79,   230.96  L  2446.79,   231.54  L  2447.17,   231.98  L  2447.74,   232.08  L  2448.24,   231.79  L  2448.44,   231.25  L  2448.24,   230.70  L  2447.74,   230.41  L  2447.17,   230.51  L  2447.59,   231.25  " /><g ewd:code="" ewd:figID="180" ewd:comment=" " ewd:figtype="commref"><text style="&st18;" transform="matrix(&st17;  2316.42  226.49 )" ewd:textID="1">(Shielded)</text></g></g></svg>