﻿<?xml version="1.0" encoding="UTF-8"?>
<!DOCTYPE svg PUBLIC "-//W3C//DTD SVG 1.0//EN" "http://www.w3.org/TR/2001/REC-SVG-20010904/DTD/svg10.dtd"[
	<!ENTITY ns_flows "http://ns.adobe.com/Flows/1.0/">
	<!ENTITY ns_svg "http://www.w3.org/2000/svg">
	<!ENTITY ns_xlink "http://www.w3.org/1999/xlink">
	<!ENTITY st0 "font-size:7px;font-family:'MS-PGothic';adobe-font-script:japanese;">
	<!ENTITY st1 "font-size:6px;font-family:'ArialMT';">
	<!-- White fill  -->
	<!ENTITY st2 "fill:#FFFFFF;stroke:#000000; stroke-width:1.41;stroke-linecap:round;stroke-linejoin:round;">
	<!-- Yellow fill  -->
	<!ENTITY st3 "fill:#FFFFCC;stroke:#FFFFCC; stroke-width:0.1;stroke-linecap:round;stroke-linejoin:round;">
	<!-- Gray fill  -->
	<!ENTITY st4 "fill:#CCCCCC;stroke:#CCCCCC; stroke-width:0.1;stroke-linecap:round;stroke-linejoin:round;">
	<!-- Light-blue fill -->
	<!ENTITY st5 "fill:#CCECF4;stroke:#000000; stroke-width:1.133;stroke-linecap:round;stroke-linejoin:round;">
	<!ENTITY st6 "fill:none;stroke-linecap:butt; stroke-linejoin:round;">
	<!ENTITY st7 "fill:none;stroke:#000000;stroke-linecap:round;stroke-linejoin:round;">
	<!ENTITY st8 "enable-background:new    ;">
	<!-- Black fill -->
	<!ENTITY st9 "fill:#000000;stroke:#000000; stroke-linecap:round;stroke-linejoin:round;">
	<!-- SRS note   -->
	<!ENTITY st10 "font-size:9px;font-family:'ArialMT';">
	<!ENTITY st11 "font-size:9px;font-family:'Svg Symbol';">
	<!ENTITY st12 "font-size:6px;font-family:'Svg Symbol';">
	<!ENTITY st13 "fill:none;stroke:#ff0000;stroke-linecap:round;stroke-linejoin:round;">
	<!-- Yellow fill  -->
	<!ENTITY st14 "fill:#FFFF00;stroke:#FFFF00; stroke-width:0.1;stroke-linecap:round;stroke-linejoin:round;">
	<!ENTITY st15 "font-size:6px;font-family:'MS-PGothic';adobe-font-script:japanese;">
	<!ENTITY st16 "1.00 0.00 0.00 1.00">
	<!ENTITY st17 "0.00 -1.00 1.00 0.00">
	<!ENTITY st18 "font-size:6px;font-family:'Arial';">
	<!ENTITY st19 "font-size:9px;font-family:'Arial';">
	<!ENTITY st20 "font-size:6px;font-family:'MS-PGothic','MS PGothic';adobe-font-script:japanese;">
	<!ENTITY st21 "font-size:7px;font-family:'MS-PGothic','MS PGothic';adobe-font-script:japanese;">
	<!ATTLIST svg
		xmlns:ewd CDATA #FIXED "http://shcl.co.jp/ewd"
		xmlns:a CDATA #FIXED "http://ns.adobe.com/AdobeSVGViewerExtensions/3.0/"
		ewd:ver CDATA #IMPLIED
	>
	<!ATTLIST a
		ewd:lineID CDATA #IMPLIED
		ewd:groupID CDATA #IMPLIED
		ewd:figtype CDATA #IMPLIED
		ewd:code CDATA #IMPLIED
		ewd:figID CDATA #IMPLIED
		ewd:pinNo CDATA #IMPLIED
		ewd:comment CDATA #IMPLIED >
	<!ATTLIST g
		ewd:lineID CDATA #IMPLIED
		ewd:groupID CDATA #IMPLIED
		ewd:figtype CDATA #IMPLIED
		ewd:code CDATA #IMPLIED
		ewd:figID CDATA #IMPLIED
		ewd:pinNo CDATA #IMPLIED
		ewd:comment CDATA #IMPLIED >
	<!ATTLIST text
		ewd:textID CDATA #IMPLIED >
	<!ATTLIST title
		ewd:textID CDATA #IMPLIED >
]>
<!-- Generator: Shintec Hozumi YS   -->
<svg onload="call_execInitLoadProc_svg('system')" style="overflow:visible;  enable-background:new 0 0 506.474 710.000" viewBox="0 0 506.474 710.000" height="710.000" width="506.474" xml:space="preserve" ewd:ver="2.2.0.10" xmlns="&ns_svg;" xmlns:a="http://ns.adobe.com/AdobeSVGViewerExtensions/3.0/" xmlns:ewd="http://shcl.co.jp/ewd" xmlns:xlink="&ns_xlink;">
	<script type="text/javascript" xlink:href="../../../../../system/js/ewd/fig/svgfig.js"/>
<g id="ewd_top">
	<a ewd:figtype="conn" style="cursor:pointer;" ewd:code="F51" ewd:figID="1">
		<path style="fill:#CCECF4;stroke:#000000; stroke-width:1.133; stroke-linecap:round;stroke-linejoin:round; " d=" M    25.50,   375.72  L    25.50,   426.71  L   331.44,   426.71  L   331.44,   375.72  L    25.50,   375.72 "/>
		<title ewd:textID="8">Transponder Key ECU Assembly</title>
	</a>
	<a ewd:figtype="conn" style="cursor:pointer;" ewd:code="F38" ewd:figID="2">
		<path style="fill:#CCECF4;stroke:#000000; stroke-width:1.133; stroke-linecap:round;stroke-linejoin:round; " d=" M   339.94,   350.23  L   339.94,   571.19  L   484.42,   571.19  L   484.42,   350.23  L   339.94,   350.23 "/>
		<title ewd:textID="3">Combination Meter Assembly</title>
	</a>
	<a ewd:figtype="conn" style="cursor:pointer;" ewd:code="F65" ewd:figID="3">
		<path style="fill:#CCECF4;stroke:#000000; stroke-width:1.133; stroke-linecap:round;stroke-linejoin:round; " d=" M    33.99,   205.75  L    76.49,   205.75  L    76.49,   222.75  L    33.99,   222.75  L    33.99,   205.75 "/>
		<title ewd:textID="5">No. 3 Junction Connector</title>
	</a>
	<a ewd:figtype="conn" style="cursor:pointer;" ewd:code="F64" ewd:figID="4">
		<path style="fill:#CCECF4;stroke:#000000; stroke-width:1.133; stroke-linecap:round;stroke-linejoin:round; " d=" M   263.46,   503.20  L   280.45,   503.20  L   280.45,   520.20  L   263.46,   520.20  L   263.46,   503.20 "/>
		<title ewd:textID="4">No. 2 Junction Connector</title>
	</a>
	<a ewd:figtype="conn" style="cursor:pointer;" ewd:code="F81,F82" ewd:figID="5">
		<path style="fill:#CCECF4;stroke:#000000; stroke-width:1.133; stroke-linecap:round;stroke-linejoin:round; " d=" M   152.97,   554.19  L   220.96,   554.19  L   220.96,   520.20  L   152.97,   520.20  L   152.97,   554.19 "/>
		<title>ECM</title>
	</a>
	<a ewd:figtype="conn" style="cursor:pointer;" ewd:code="F66" ewd:figID="6">
		<path style="fill:#CCECF4;stroke:#000000; stroke-width:1.133; stroke-linecap:round;stroke-linejoin:round; " d=" M    33.99,   520.20  L    50.99,   520.20  L    50.99,   537.20  L    33.99,   537.20  L    33.99,   520.20 "/>
		<title ewd:textID="6">No. 4 Junction Connector</title>
	</a>
	<a ewd:figtype="conn" style="cursor:pointer;" ewd:code="F16" ewd:figID="7">
		<path style="fill:#CCECF4;stroke:#000000; stroke-width:1.133; stroke-linecap:round;stroke-linejoin:round; " d=" M    25.50,   630.68  L    25.50,   664.67  L    59.49,   664.67  L    59.49,   630.68  L    25.50,   630.68 "/>
		<title>DLC3</title>
	</a>
	<a ewd:figtype="conn" style="cursor:pointer;" ewd:code="F130" ewd:figID="8">
		<path style="fill:#CCECF4;stroke:#000000; stroke-width:1.133; stroke-linecap:round;stroke-linejoin:round; " d=" M    76.49,   554.19  L   144.48,   554.19  L   144.48,   520.20  L    76.49,   520.20  L    76.49,   554.19 "/>
		<title>ECM</title>
	</a>
	<a ewd:figtype="jb" style="cursor:pointer;" ewd:code="2" ewd:figID="9">
		<path style="&st4; " d=" M    25.50,   103.77  L   220.96,   103.77  L   220.96,    35.78  L    25.50,    35.78  L    25.50,   103.77  "/>
	</a>
	<a ewd:figtype="jb" style="cursor:pointer;" ewd:code="2" ewd:figID="10">
		<path style="&st4; " d=" M   441.93,   103.77  L   501.42,   103.77  L   501.42,    35.78  L   441.93,    35.78  L   441.93,   103.77  "/>
	</a>
	<a ewd:figtype="fuse" style="cursor:pointer;" ewd:code="FUSE36,FUSE90" ewd:figID="14">
		<path style="&st7; stroke-width:0;" d=" M    29.75,    35.78  L    29.75,    78.27  L    55.24,    78.27  L    55.24,    35.78  L    29.75,    35.78 "/>
	</a>
	<a ewd:figtype="fuse" style="cursor:pointer;" ewd:code="FUSE33,FUSE87" ewd:figID="15">
		<path style="&st7; stroke-width:0;" d=" M   148.73,    35.78  L   148.73,    78.27  L   174.22,    78.27  L   174.22,    35.78  L   148.73,    35.78 "/>
	</a>
	<a ewd:figtype="fuse" style="cursor:pointer;" ewd:code="FUSE34,FUSE88" ewd:figID="16">
		<path style="&st7; stroke-width:0;" d=" M   446.18,    35.78  L   446.18,    78.27  L   471.67,    78.27  L   471.67,    35.78  L   446.18,    35.78 "/>
	</a>
	<a style="cursor:pointer;" ewd:lineID="1">
		<path style="stroke:#56077D;stroke-width: 5.10 ;&st6;" d=" M    42.49,   630.68  L    42.49,   555.33  "/>
	</a>
	<a style="cursor:pointer;" ewd:lineID="2">
		<path style="stroke:#008837;stroke-width: 5.10 ;&st6;" d=" M    42.49,   426.71  L    42.49,   502.07  "/>
	</a>
	<a style="cursor:pointer;" ewd:lineID="3">
		<path style="stroke:#99D9E8;stroke-width: 5.10 ;&st6;" d=" M    42.49,   222.75  L    42.49,   375.72  "/>
	</a>
	<a style="cursor:pointer;" ewd:lineID="4">
		<path style="stroke:#FF0000;stroke-width: 5.10 ;&st6;" d=" M    42.49,   103.77  L    42.49,   205.75  "/>
	</a>
	<a style="cursor:pointer;" ewd:lineID="5">
		<path style="stroke:#56077D;stroke-width: 5.10 ;&st6;" d=" M   161.47,   103.77  L   161.47,   375.72  "/>
	</a>
	<a ewd:comment="1" style="cursor:pointer;" ewd:lineID="6">
		<path style="stroke:#992903;stroke-width: 5.10 ;&st6;" d=" M   169.97,   502.07  L   169.97,   426.71  "/>
	</a>
	<a ewd:comment="2" style="cursor:pointer;" ewd:lineID="7">
		<path style="stroke:#992903;stroke-width: 5.10 ;&st6;" d=" M   169.97,   426.71  L   169.97,   435.21  L   161.47,   443.71  L    93.48,   443.71  L    93.48,   511.13  "/>
	</a>
	<a ewd:comment="1" style="cursor:pointer;" ewd:lineID="8">
		<path style="stroke:#008837;stroke-width: 5.10 ;&st6;" d=" M   203.97,   502.07  L   203.97,   426.71  "/>
	</a>
	<a ewd:comment="2" style="cursor:pointer;" ewd:lineID="9">
		<path style="stroke:#008837;stroke-width: 5.10 ;&st6;" d=" M   203.97,   426.71  L   203.97,   435.21  L   186.97,   452.21  L   186.97,   469.21  L   127.48,   469.21  L   127.48,   511.13  "/>
	</a>
	<a style="cursor:pointer;" ewd:lineID="10">
		<path style="stroke:#000000;stroke-width: 5.10 ;&st6;" d=" M   271.95,   681.67  L   271.95,   520.20  "/>
		<path style="stroke:#FFFFFF;stroke-width: 4.53 ;&st6;" d=" M   271.95,   681.67  L   271.95,   520.20  "/>
		<path style="stroke:#000000;stroke-width: 1.13 ;&st6;" d=" M   271.95,   681.67  L   271.95,   520.20  "/>
	</a>
	<a style="cursor:pointer;" ewd:lineID="11">
		<path style="stroke:#000000;stroke-width: 5.10 ;&st6;" d=" M   271.95,   503.20  L   271.95,   426.71  "/>
		<path style="stroke:#FFFFFF;stroke-width: 4.53 ;&st6;" d=" M   271.95,   503.20  L   271.95,   426.71  "/>
		<path style="stroke:#000000;stroke-width: 1.13 ;&st6;" d=" M   271.95,   503.20  L   271.95,   426.71  "/>
	</a>
	<a style="cursor:pointer;" ewd:lineID="12">
		<path style="stroke:#F668B2;stroke-width: 5.10 ;&st6;" d=" M   314.45,   426.71  L   314.45,   622.18  L   348.44,   622.18  "/>
	</a>
	<a style="cursor:pointer;" ewd:lineID="13">
		<path style="stroke:#F668B2;stroke-width: 5.10 ;&st6;" d=" M   356.94,   613.68  L   356.94,   580.26  "/>
	</a>
	<a style="cursor:pointer;" ewd:lineID="14">
		<path style="stroke:#000000;stroke-width: 5.10 ;&st6;" d=" M   390.93,   341.16  L   390.93,   248.24  L    67.99,   248.24  L    67.99,   222.75  "/>
	</a>
	<a style="cursor:pointer;" ewd:lineID="15">
		<path style="stroke:#000000;stroke-width: 5.10 ;&st6;" d=" M   458.92,   580.26  L   458.92,   681.67  "/>
		<path style="stroke:#FFFFFF;stroke-width: 4.53 ;&st6;" d=" M   458.92,   580.26  L   458.92,   681.67  "/>
		<path style="stroke:#000000;stroke-width: 1.13 ;&st6;" d=" M   458.92,   580.26  L   458.92,   681.67  "/>
	</a>
	<a style="cursor:pointer;" ewd:lineID="16">
		<path style="stroke:#99D9E8;stroke-width: 5.10 ;&st6;" d=" M   458.92,   103.77  L   458.92,   341.16  "/>
	</a>
	<g ewd:figtype="conn" ewd:figID="1" ewd:code="F51">
		<g ewd:lineID="11">
			<text style="&st18;" transform="matrix(&st16;  265.77  434.91 )">7</text>
			<text style="&st18;" transform="matrix(&st16;  265.31  423.02 )">GND</text>
		</g>
		<g ewd:lineID="12">
			<text style="&st18;" transform="matrix(&st16;  308.26  434.91 )">3</text>
			<text style="&st18;" transform="matrix(&st16;  309.12  423.02 )">IND</text>
		</g>
		<g ewd:lineID="2">
			<text style="&st18;" transform="matrix(&st16;  36.31  434.91 )">6</text>
			<text style="&st18;" transform="matrix(&st16;  40.11  423.02 )">D</text>
		</g>
		<g ewd:lineID="3">
			<text style="&st18;" transform="matrix(&st16;  36.31  372.03 )">1</text>
			<text style="&st18;" transform="matrix(&st16;  38.75  383.36 )">+B</text>
		</g>
		<g ewd:lineID="5">
			<text style="&st18;" transform="matrix(&st16;  155.29  372.03 )">2</text>
			<text style="&st18;" transform="matrix(&st16;  158.12  383.36 )">IG</text>
		</g>
		<g ewd:lineID="6,7">
			<text style="&st18;" transform="matrix(&st16;  163.79  434.91 )">5</text>
			<text style="&st18;" transform="matrix(&st16;  164.22  423.02 )">EFII</text>
		</g>
		<g ewd:lineID="8,9">
			<text style="&st18;" transform="matrix(&st16;  197.78  434.91 )">4</text>
			<text style="&st18;" transform="matrix(&st16;  196.74  423.02 )">EFIO</text>
		</g>
		<path style="stroke-width: 1.42 ;&st7;  " d=" M    25.50,   375.72  L    25.50,   426.71  L   331.44,   426.71  L   331.44,   375.72  L    25.50,   375.72  "/>
		<g ewd:figtype="title">
			<text style="&st18;" transform="matrix(&st16;  200.55  365.2 )">F51</text>
			<text style="&st18;" transform="matrix(&st16;  200.56  372.03 )" ewd:textID="8">Transponder Key ECU Assembly</text>
		</g>
	</g>
	<g ewd:figtype="conn" ewd:figID="2" ewd:code="F38">
		<path style="stroke-width: 1.42 ;&st7;  " d=" M   339.94,   350.23  L   339.94,   571.19  L   484.42,   571.19  L   484.42,   350.23  L   339.94,   350.23  "/>
		<path style="stroke-width: 0.85 ;&st7;  " d=" M   390.93,   477.71  L   382.44,   472.04  "/>
		<path style="stroke-width: 1.42 ;&st7;  " d=" M   382.44,   460.71  L   382.44,   477.71  "/>
		<path style="stroke-width: 0.85 ;&st7;  " d=" M   398.31,   441.76  L   405.67,   437.52  "/>
		<path style="stroke-width: 0.85 ;&st7;  " d=" M   403.67,   434.05  L   396.31,   438.30  "/>
		<path style="stroke-width: 0.85 ;&st7;  " d=" M   395.18,   443.71  L   386.69,   443.71  "/>
		<path style="stroke-width: 0.85 ;&st7;  " d=" M   395.18,   392.72  L   386.69,   392.72  "/>
		<path style="stroke-width: 0.85 ;&st7;  " d=" M   433.43,   405.47  L   433.43,   396.97  "/>
		<path style="stroke-width: 0.85 ;&st7;  " d=" M   463.17,   435.21  L   454.67,   435.21  "/>
		<path style="stroke-width: 0.85 ;&st7;  " d=" M   429.18,   435.21  L   420.68,   435.21  "/>
		<path style="stroke-width: 0.85 ;&st7;  " d=" M   458.92,   350.23  L   458.92,   401.22  L   390.93,   401.22  "/>
		<path style="stroke-width: 0.85 ;&st7;  " d=" M   390.93,   460.71  L   390.93,   426.71  L   388.10,   425.30  L   393.77,   422.46  L   388.10,   419.63  L   393.77,   416.80  L   388.10,   413.97  L   393.77,   411.13  L   390.93,   409.72  L   390.93,   401.22  "/>
		<path style="stroke-width: 0.85 ;&st7;  " d=" M   382.44,   469.21  L   356.94,   469.21  L   356.94,   571.19  "/>
		<path style="stroke-width: 0.85 ;&st7;  " d=" M   389.52,   494.70  L   392.35,   494.70  "/>
		<path style="stroke-width: 0.85 ;&st7;  " d=" M   388.10,   491.87  L   393.77,   491.87  "/>
		<path style="stroke-width: 0.85 ;&st7;  " d=" M   386.69,   489.04  L   395.18,   489.04  "/>
		<path style="stroke-width: 0.85 ;&st7;  " d=" M   382.44,   486.20  L   399.43,   486.20  "/>
		<path style="stroke-width: 0.85 ;&st7;  " d=" M   390.93,   477.71  L   390.93,   486.20  "/>
		<path style="stroke-width: 0.85 ;&st7;  " d=" M   390.93,   460.71  L   382.44,   466.37  "/>
		<path style="stroke-width: 0.85 ;&st7;  " d=" M   405.67,   437.52  L   403.34,   440.56  L   401.87,   438.02  L   405.67,   437.52  L   404.39,   438.26  L   403.40,   439.54  L   402.78,   438.47  L   404.39,   438.26  L   403.75,   438.63  L   403.44,   439.03  L   403.24,   438.69  L   403.75,   438.63  "/>
		<path style="stroke-width: 0.85 ;&st7;  " d=" M   403.67,   434.05  L   401.33,   437.09  L   399.87,   434.55  L   403.67,   434.05  L   402.38,   434.79  L   401.40,   436.07  L   400.78,   435.00  L   402.38,   434.79  L   401.74,   435.16  L   401.43,   435.56  L   401.24,   435.22  L   401.74,   435.16  "/>
		<path style="stroke-width: 0.28 ;&st9;  " d=" M   390.93,   443.71  L   385.27,   435.21  L   396.60,   435.21  L   390.93,   443.71  "/>
		<path style="stroke-width: 0.85 ;&st7;  " d=" M   389.74,   400.22  L   389.47,   400.69  L   389.38,   401.22  L   389.47,   401.75  L   389.74,   402.22  L   390.16,   402.57  L   390.66,   402.75  L   391.21,   402.75  L   391.71,   402.57  L   392.13,   402.22  L   392.40,   401.75  L   392.49,   401.22  L   392.40,   400.69  L   392.13,   400.22  L   391.71,   399.87  L   391.21,   399.68  L   390.66,   399.68  L   390.16,   399.87  L   389.74,   400.22  L   390.14,   400.93  L   390.14,   401.51  L   390.51,   401.95  L   391.08,   402.05  L   391.59,   401.77  L   391.78,   401.22  L   391.59,   400.67  L   391.08,   400.38  L   390.51,   400.48  L   390.93,   401.22  "/>
		<path style="stroke-width: 0.28 ;&st9;  " d=" M   390.93,   392.72  L   385.27,   384.22  L   396.60,   384.22  L   390.93,   392.72  "/>
		<path style="stroke-width: 0.85 ;&st7;  " d=" M   390.93,   350.23  L   390.93,   401.22  "/>
		<path style="stroke-width: 0.28 ;&st9;  " d=" M   433.43,   401.22  L   441.93,   395.55  L   441.93,   406.88  L   433.43,   401.22  "/>
		<path style="stroke-width: 0.85 ;&st7;  " d=" M   458.92,   528.70  L   458.92,   571.19  "/>
		<path style="stroke-width: 0.85 ;&st7;  " d=" M   389.74,   366.22  L   389.47,   366.69  L   389.38,   367.22  L   389.47,   367.76  L   389.74,   368.23  L   390.16,   368.57  L   390.66,   368.76  L   391.21,   368.76  L   391.71,   368.57  L   392.13,   368.23  L   392.40,   367.76  L   392.49,   367.22  L   392.40,   366.69  L   392.13,   366.22  L   391.71,   365.88  L   391.21,   365.69  L   390.66,   365.69  L   390.16,   365.88  L   389.74,   366.22  L   390.14,   366.93  L   390.14,   367.52  L   390.51,   367.96  L   391.08,   368.06  L   391.59,   367.77  L   391.78,   367.22  L   391.59,   366.68  L   391.08,   366.39  L   390.51,   366.49  L   390.93,   367.22  "/>
		<path style="stroke-width: 0.28 ;&st9;  " d=" M   458.92,   435.21  L   453.26,   426.71  L   464.59,   426.71  L   458.92,   435.21  "/>
		<path style="stroke-width: 0.28 ;&st9;  " d=" M   424.93,   435.21  L   419.26,   426.71  L   430.59,   426.71  L   424.93,   435.21  "/>
		<path style="stroke-width: 0.85 ;&st7;  " d=" M   390.93,   367.22  L   424.93,   367.22  L   424.93,   460.71  L   458.92,   460.71  "/>
		<path style="stroke-width: 0.85 ;&st7;  " d=" M   458.92,   401.22  L   458.92,   477.71  "/>
		<path style="stroke-width: 1.42 ;&st7;  " d=" M   441.93,   477.71  L   441.93,   494.70  L   475.92,   494.70  L   475.92,   477.71  L   441.93,   477.71  "/>
		<path style="stroke-width: 0.85 ;&st7;  " d=" M   457.73,   400.22  L   457.46,   400.69  L   457.37,   401.22  L   457.46,   401.75  L   457.73,   402.22  L   458.14,   402.57  L   458.65,   402.75  L   459.20,   402.75  L   459.70,   402.57  L   460.12,   402.22  L   460.39,   401.75  L   460.48,   401.22  L   460.39,   400.69  L   460.12,   400.22  L   459.70,   399.87  L   459.20,   399.68  L   458.65,   399.68  L   458.14,   399.87  L   457.73,   400.22  L   458.12,   400.93  L   458.12,   401.51  L   458.50,   401.95  L   459.07,   402.05  L   459.57,   401.77  L   459.77,   401.22  L   459.57,   400.67  L   459.07,   400.38  L   458.50,   400.48  L   458.92,   401.22  "/>
		<path style="stroke-width: 1.42 ;&st7;  " d=" M   441.93,   511.70  L   441.93,   528.70  L   475.92,   528.70  L   475.92,   511.70  L   441.93,   511.70  "/>
		<path style="stroke-width: 0.85 ;&st7;  " d=" M   458.92,   494.70  L   458.92,   511.70  "/>
		<path style="stroke-width: 0.85 ;&st7;  " d=" M   424.93,   486.20  L   424.93,   494.70  "/>
		<path style="stroke-width: 0.85 ;&st7;  " d=" M   416.43,   494.70  L   433.43,   494.70  "/>
		<path style="stroke-width: 0.85 ;&st7;  " d=" M   420.68,   497.54  L   429.18,   497.54  "/>
		<path style="stroke-width: 0.85 ;&st7;  " d=" M   422.10,   500.37  L   427.76,   500.37  "/>
		<path style="stroke-width: 0.85 ;&st7;  " d=" M   423.51,   503.20  L   426.35,   503.20  "/>
		<path style="stroke-width: 0.85 ;&st7;  " d=" M   441.93,   486.20  L   424.93,   486.20  "/>
		<path style="stroke-width: 0.85 ;&st7;  " d=" M   457.73,   459.71  L   457.46,   460.18  L   457.37,   460.71  L   457.46,   461.24  L   457.73,   461.71  L   458.14,   462.06  L   458.65,   462.24  L   459.20,   462.24  L   459.70,   462.06  L   460.12,   461.71  L   460.39,   461.24  L   460.48,   460.71  L   460.39,   460.18  L   460.12,   459.71  L   459.70,   459.36  L   459.20,   459.17  L   458.65,   459.17  L   458.14,   459.36  L   457.73,   459.71  L   458.12,   460.42  L   458.12,   461.00  L   458.50,   461.44  L   459.07,   461.54  L   459.57,   461.26  L   459.77,   460.71  L   459.57,   460.16  L   459.07,   459.87  L   458.50,   459.97  L   458.92,   460.71  "/>
		<text style="&st18;" transform="matrix(&st16;  359.52  567.5 )">LP</text>
		<text style="&st18;" transform="matrix(&st16;  363.07  441.43 )" ewd:textID="7">Security</text>
		<text style="&st18;" transform="matrix(&st16;  461.51  358.42 )">IG+</text>
		<text style="&st18;" transform="matrix(&st16;  393.52  358.42 )">B</text>
		<text style="&st18;" transform="matrix(&st16;  451.07  488.17 )">5V IC</text>
		<text style="&st18;" transform="matrix(&st16;  452.63  522.17 )">CPU</text>
		<text style="&st18;" transform="matrix(&st16;  461.51  567.5 )">ED</text>
		<text style="&st18;" transform="matrix(&st16;  441.65  502.9 )">5V+B</text>
		<text style="&st18;" transform="matrix(&st16;  345.14  577.69 )">13</text>
		<path style="stroke-width: 1.42 ;&st7;   " d=" M   361.47,   575.72  C   361.47    573.22    359.44    571.19    356.94    571.19  "/>
		<path style="stroke-width: 1.42 ;&st7;   " d=" M   356.94,   571.19  C   354.44    571.19    352.41    573.22    352.41    575.72  "/>
		<path style="stroke-width: 1.42 ;&st7;   " d=" M   352.41,   575.72  C   352.41    578.23    354.44    580.26    356.94    580.26  "/>
		<path style="stroke-width: 1.42 ;&st7;   " d=" M   356.94,   580.26  C   359.44    580.26    361.47    578.23    361.47    575.72  "/>
		<text style="&st18;" transform="matrix(&st16;  354.64  577.69 )">A</text>
		<text style="&st18;" transform="matrix(&st16;  379.14  347.66 )">40</text>
		<text style="&st18;" transform="matrix(&st16;  388.63  347.66 )">A</text>
		<path style="stroke-width: 1.42 ;&st7;   " d=" M   395.47,   345.69  C   395.47    343.19    393.44    341.16    390.93    341.16  "/>
		<path style="stroke-width: 1.42 ;&st7;   " d=" M   390.93,   341.16  C   388.43    341.16    386.40    343.19    386.40    345.69  "/>
		<path style="stroke-width: 1.42 ;&st7;   " d=" M   386.40,   345.69  C   386.40    348.20    388.43    350.23    390.93    350.23  "/>
		<path style="stroke-width: 1.42 ;&st7;   " d=" M   390.93,   350.23  C   393.44    350.23    395.47    348.20    395.47    345.69  "/>
		<text style="&st18;" transform="matrix(&st16;  447.13  577.69 )">21</text>
		<text style="&st18;" transform="matrix(&st16;  456.62  577.69 )">A</text>
		<path style="stroke-width: 1.42 ;&st7;   " d=" M   463.46,   575.72  C   463.46    573.22    461.43    571.19    458.92    571.19  "/>
		<path style="stroke-width: 1.42 ;&st7;   " d=" M   458.92,   571.19  C   456.42    571.19    454.39    573.22    454.39    575.72  "/>
		<path style="stroke-width: 1.42 ;&st7;   " d=" M   454.39,   575.72  C   454.39    578.23    456.42    580.26    458.92    580.26  "/>
		<path style="stroke-width: 1.42 ;&st7;   " d=" M   458.92,   580.26  C   461.43    580.26    463.46    578.23    463.46    575.72  "/>
		<text style="&st18;" transform="matrix(&st16;  447.13  347.66 )">39</text>
		<text style="&st18;" transform="matrix(&st16;  456.62  347.66 )">A</text>
		<path style="stroke-width: 1.42 ;&st7;   " d=" M   463.46,   345.69  C   463.46    343.19    461.43    341.16    458.92    341.16  "/>
		<path style="stroke-width: 1.42 ;&st7;   " d=" M   458.92,   341.16  C   456.42    341.16    454.39    343.19    454.39    345.69  "/>
		<path style="stroke-width: 1.42 ;&st7;   " d=" M   454.39,   345.69  C   454.39    348.20    456.42    350.23    458.92    350.23  "/>
		<path style="stroke-width: 1.42 ;&st7;   " d=" M   458.92,   350.23  C   461.43    350.23    463.46    348.20    463.46    345.69  "/>
		<g ewd:figtype="title">
			<text style="&st18;" transform="matrix(&st17;  492.03  574.09 )">F38(A)</text>
			<text style="&st18;" transform="matrix(&st17;  499.14  574.1 )" ewd:textID="3">Combination Meter Assembly</text>
		</g>
	</g>
	<g ewd:figtype="conn" ewd:figID="3" ewd:code="F65">
		<path style="stroke-width: 0.85 ;&st7;  " d=" M    42.49,   205.75  L    42.49,   222.75  "/>
		<path style="stroke-width: 1.42 ;&st7;  " d=" M    33.99,   205.75  L    76.49,   205.75  L    76.49,   222.75  L    33.99,   222.75  L    33.99,   205.75  "/>
		<path style="stroke-width: 0.85 ;&st7;  " d=" M    41.30,   213.25  L    41.03,   213.72  L    40.93,   214.25  L    41.03,   214.78  L    41.30,   215.25  L    41.71,   215.60  L    42.22,   215.79  L    42.76,   215.79  L    43.27,   215.60  L    43.69,   215.25  L    43.96,   214.78  L    44.05,   214.25  L    43.96,   213.72  L    43.69,   213.25  L    43.27,   212.90  L    42.76,   212.71  L    42.22,   212.71  L    41.71,   212.90  L    41.30,   213.25  L    41.69,   213.96  L    41.69,   214.54  L    42.07,   214.99  L    42.64,   215.09  L    43.14,   214.80  L    43.34,   214.25  L    43.14,   213.70  L    42.64,   213.41  L    42.07,   213.51  L    42.49,   214.25  "/>
		<path style="stroke-width: 0.85 ;&st7;  " d=" M    67.99,   222.75  L    67.99,   214.25  L    42.49,   214.25  "/>
		<text style="&st18;" transform="matrix(&st16;  58.7  230.94 )">14</text>
		<text style="&st18;" transform="matrix(&st16;  33.21  230.94 )">12</text>
		<text style="&st18;" transform="matrix(&st16;  33.21  202.06 )">15</text>
		<g ewd:figtype="title">
			<text style="&st18;" transform="matrix(&st17;  91.21  225.65 )" ewd:textID="5">No. 3 Junction Connector</text>
			<text style="&st18;" transform="matrix(&st17;  84.38  225.65 )">F65</text>
		</g>
	</g>
	<g ewd:figtype="conn" ewd:figID="4" ewd:code="F64">
		<path style="stroke-width: 1.42 ;&st7;  " d=" M   263.46,   503.20  L   280.45,   503.20  L   280.45,   520.20  L   263.46,   520.20  L   263.46,   503.20  "/>
		<path style="stroke-width: 0.85 ;&st7;  " d=" M   271.95,   503.20  L   271.95,   520.20  "/>
		<text style="&st18;" transform="matrix(&st16;  265.77  528.39 )">2</text>
		<text style="&st18;" transform="matrix(&st16;  265.77  499.51 )">7</text>
		<g ewd:figtype="title">
			<text style="&st18;" transform="matrix(&st17;  295.17  523.1 )" ewd:textID="4">No. 2 Junction Connector</text>
			<text style="&st18;" transform="matrix(&st17;  288.06  523.1 )">F64</text>
		</g>
	</g>
	<g ewd:figtype="conn" ewd:figID="5" ewd:code="F81,F82">
		<g ewd:lineID="6">
			<text style="&st18;" transform="matrix(&st16;  158.18  517.64 )">18</text>
			<text style="&st18;" transform="matrix(&st16;  158.18  508.57 )">15</text>
			<text style="&st18;" transform="matrix(&st16;  167.86  508.57 )">F</text>
			<path style="stroke-width: 1.42 ;&st7;   " d=" M   174.50,   506.60  C   174.50    504.10    172.47    502.07    169.97    502.07  "/>
			<path style="stroke-width: 1.42 ;&st7;   " d=" M   169.97,   502.07  C   167.47    502.07    165.44    504.10    165.44    506.60  "/>
			<path style="stroke-width: 1.42 ;&st7;   " d=" M   165.44,   506.60  C   165.44    509.10    167.47    511.13    169.97    511.13  "/>
			<path style="stroke-width: 1.42 ;&st7;   " d=" M   169.97,   511.13  C   172.47    511.13    174.50    509.10    174.50    506.60  "/>
			<path style="stroke-width: 1.42 ;&st7;   " d=" M   174.50,   515.67  C   174.50    513.16    172.47    511.13    169.97    511.13  "/>
			<path style="stroke-width: 1.42 ;&st7;   " d=" M   169.97,   511.13  C   167.47    511.13    165.44    513.16    165.44    515.67  "/>
			<path style="stroke-width: 1.42 ;&st7;   " d=" M   165.44,   515.67  C   165.44    518.17    167.47    520.20    169.97    520.20  "/>
			<path style="stroke-width: 1.42 ;&st7;   " d=" M   169.97,   520.20  C   172.47    520.20    174.50    518.17    174.50    515.67  "/>
			<text style="&st18;" transform="matrix(&st16;  167.86  517.64 )">E</text>
			<text style="&st18;" transform="matrix(&st16;  163.98  527.83 )">IMO</text>
		</g>
		<g ewd:lineID="8">
			<text style="&st18;" transform="matrix(&st16;  192.17  508.57 )">16</text>
			<text style="&st18;" transform="matrix(&st16;  192.17  517.64 )">19</text>
			<text style="&st18;" transform="matrix(&st16;  201.86  517.64 )">E</text>
			<text style="&st18;" transform="matrix(&st16;  201.86  508.57 )">F</text>
			<path style="stroke-width: 1.42 ;&st7;   " d=" M   208.50,   506.60  C   208.50    504.10    206.47    502.07    203.97    502.07  "/>
			<path style="stroke-width: 1.42 ;&st7;   " d=" M   203.97,   502.07  C   201.46    502.07    199.43    504.10    199.43    506.60  "/>
			<path style="stroke-width: 1.42 ;&st7;   " d=" M   199.43,   506.60  C   199.43    509.10    201.46    511.13    203.97    511.13  "/>
			<path style="stroke-width: 1.42 ;&st7;   " d=" M   203.97,   511.13  C   206.47    511.13    208.50    509.10    208.50    506.60  "/>
			<path style="stroke-width: 1.42 ;&st7;   " d=" M   208.50,   515.67  C   208.50    513.16    206.47    511.13    203.97    511.13  "/>
			<path style="stroke-width: 1.42 ;&st7;   " d=" M   203.97,   511.13  C   201.46    511.13    199.43    513.16    199.43    515.67  "/>
			<path style="stroke-width: 1.42 ;&st7;   " d=" M   199.43,   515.67  C   199.43    518.17    201.46    520.20    203.97    520.20  "/>
			<path style="stroke-width: 1.42 ;&st7;   " d=" M   203.97,   520.20  C   206.47    520.20    208.50    518.17    208.50    515.67  "/>
			<text style="&st18;" transform="matrix(&st16;  199.45  527.83 )">IMI</text>
		</g>
		<path style="stroke-width: 0.85 ;&st7; stroke-dasharray:3, 1.5;" d=" M   186.97,   506.60  L   178.47,   506.60  "/>
		<path style="stroke-width: 0.85 ;&st7; stroke-dasharray:3, 1.5;" d=" M   178.47,   515.67  L   186.97,   515.67  "/>
		<path style="stroke-width: 1.42 ;&st7;  " d=" M   152.97,   554.19  L   220.96,   554.19  L   220.96,   520.20  L   152.97,   520.20  L   152.97,   554.19  "/>
		<g ewd:figtype="title">
			<text style="&st18;" transform="matrix(&st16;  149.57  568.91 )">ECM</text>
			<text style="&st18;" transform="matrix(&st16;  149.56  562.09 )">F81(E),F82(F)</text>
		</g>
	</g>
	<g ewd:code="F66" ewd:figID="6" ewd:comment="1,2" ewd:figtype="conn">
		<path style="stroke-width: 1.42 ;&st7;  " d=" M    33.99,   520.20  L    50.99,   520.20  L    50.99,   537.20  L    33.99,   537.20  L    33.99,   520.20  "/>
		<path style="stroke-width: 0.85 ;&st7;  " d=" M    42.49,   520.20  L    42.49,   537.20  "/>
		<text style="&st18;" transform="matrix(&st16;  30.7  552.76 )">13</text>
		<text style="&st18;" transform="matrix(&st16;  33.8  543.7 )">5</text>
		<path style="stroke-width: 1.42 ;&st7;   " d=" M    47.03,   550.79  C    47.03    548.29     45.00    546.26     42.49    546.26  "/>
		<path style="stroke-width: 1.42 ;&st7;   " d=" M    42.49,   546.26  C    39.99    546.26     37.96    548.29     37.96    550.79  "/>
		<path style="stroke-width: 1.42 ;&st7;   " d=" M    37.96,   550.79  C    37.96    553.30     39.99    555.33     42.49    555.33  "/>
		<path style="stroke-width: 1.42 ;&st7;   " d=" M    42.49,   555.33  C    45.00    555.33     47.03    553.30     47.03    550.79  "/>
		<path style="stroke-width: 1.42 ;&st7;   " d=" M    47.03,   541.73  C    47.03    539.22     45.00    537.20     42.49    537.20  "/>
		<path style="stroke-width: 1.42 ;&st7;   " d=" M    42.49,   537.20  C    39.99    537.20     37.96    539.22     37.96    541.73  "/>
		<path style="stroke-width: 1.42 ;&st7;   " d=" M    37.96,   541.73  C    37.96    544.23     39.99    546.26     42.49    546.26  "/>
		<path style="stroke-width: 1.42 ;&st7;   " d=" M    42.49,   546.26  C    45.00    546.26     47.03    544.23     47.03    541.73  "/>
		<text style="&st18;" transform="matrix(&st16;  40.3  552.76 )">B</text>
		<text style="&st18;" transform="matrix(&st16;  40.19  543.7 )">A</text>
		<text style="&st18;" transform="matrix(&st16;  33.8  508.57 )">4</text>
		<text style="&st18;" transform="matrix(&st16;  30.7  517.64 )">12</text>
		<path style="stroke-width: 1.42 ;&st7;   " d=" M    47.03,   506.60  C    47.03    504.10     45.00    502.07     42.49    502.07  "/>
		<path style="stroke-width: 1.42 ;&st7;   " d=" M    42.49,   502.07  C    39.99    502.07     37.96    504.10     37.96    506.60  "/>
		<path style="stroke-width: 1.42 ;&st7;   " d=" M    37.96,   506.60  C    37.96    509.10     39.99    511.13     42.49    511.13  "/>
		<path style="stroke-width: 1.42 ;&st7;   " d=" M    42.49,   511.13  C    45.00    511.13     47.03    509.10     47.03    506.60  "/>
		<path style="stroke-width: 1.42 ;&st7;   " d=" M    47.03,   515.67  C    47.03    513.16     45.00    511.13     42.49    511.13  "/>
		<path style="stroke-width: 1.42 ;&st7;   " d=" M    42.49,   511.13  C    39.99    511.13     37.96    513.16     37.96    515.67  "/>
		<path style="stroke-width: 1.42 ;&st7;   " d=" M    37.96,   515.67  C    37.96    518.17     39.99    520.20     42.49    520.20  "/>
		<path style="stroke-width: 1.42 ;&st7;   " d=" M    42.49,   520.20  C    45.00    520.20     47.03    518.17     47.03    515.67  "/>
		<text style="&st18;" transform="matrix(&st16;  40.3  517.64 )">B</text>
		<text style="&st18;" transform="matrix(&st16;  40.19  508.57 )">A</text>
		<g ewd:figtype="title">
			<text style="&st18;" transform="matrix(&st17;  20.08  540.09 )">F66(A),(B)</text>
			<text style="&st18;" transform="matrix(&st17;  27.18  540.1 )" ewd:textID="6">No. 4 Junction Connector</text>
		</g>
		<g ewd:code="" ewd:figID="23" ewd:comment="2" ewd:figtype="commref">
			<text style="&st18;" transform="matrix(&st16;  47.59  517.64 )">(*2)</text>
		</g>
		<g ewd:code="" ewd:figID="24" ewd:comment="1" ewd:figtype="commref">
			<text style="&st18;" transform="matrix(&st16;  47.59  508.57 )">(*1)</text>
		</g>
		<g ewd:code="" ewd:figID="25" ewd:comment="2" ewd:figtype="commref">
			<text style="&st18;" transform="matrix(&st16;  47.59  552.76 )">(*2)</text>
		</g>
		<g ewd:code="" ewd:figID="26" ewd:comment="1" ewd:figtype="commref">
			<text style="&st18;" transform="matrix(&st16;  47.59  543.7 )">(*1)</text>
		</g>
	</g>
	<g ewd:figtype="conn" ewd:figID="7" ewd:code="F16">
		<path style="stroke-width: 1.42 ;&st7;  " d=" M    25.50,   630.68  L    25.50,   664.67  L    59.49,   664.67  L    59.49,   630.68  L    25.50,   630.68  "/>
		<text style="&st18;" transform="matrix(&st16;  36.31  626.99 )">7</text>
		<text style="&st18;" transform="matrix(&st16;  37.98  638.31 )">SIL</text>
		<g ewd:figtype="title">
			<text style="&st18;" transform="matrix(&st17;  74.21  667.58 )">DLC3</text>
			<text style="&st18;" transform="matrix(&st17;  67.38  667.57 )">F16</text>
		</g>
	</g>
	<g ewd:figtype="conn" ewd:figID="8" ewd:code="F130">
		<g ewd:lineID="7">
			<text style="&st18;" transform="matrix(&st16;  84.79  517.64 )">9</text>
			<text style="&st18;" transform="matrix(&st16;  91.18  517.64 )">K</text>
			<path style="stroke-width: 1.42 ;&st7;   " d=" M    98.02,   515.67  C    98.02    513.16     95.99    511.13     93.48    511.13  "/>
			<path style="stroke-width: 1.42 ;&st7;   " d=" M    93.48,   511.13  C    90.98    511.13     88.95    513.16     88.95    515.67  "/>
			<path style="stroke-width: 1.42 ;&st7;   " d=" M    88.95,   515.67  C    88.95    518.17     90.98    520.20     93.48    520.20  "/>
			<path style="stroke-width: 1.42 ;&st7;   " d=" M    93.48,   520.20  C    95.99    520.20     98.02    518.17     98.02    515.67  "/>
			<text style="&st18;" transform="matrix(&st16;  87.5  527.83 )">IMO</text>
		</g>
		<g ewd:lineID="9">
			<text style="&st18;" transform="matrix(&st16;  115.68  517.64 )">10</text>
			<text style="&st18;" transform="matrix(&st16;  125.17  517.64 )">K</text>
			<path style="stroke-width: 1.42 ;&st7;   " d=" M   132.01,   515.67  C   132.01    513.16    129.98    511.13    127.48    511.13  "/>
			<path style="stroke-width: 1.42 ;&st7;   " d=" M   127.48,   511.13  C   124.98    511.13    122.95    513.16    122.95    515.67  "/>
			<path style="stroke-width: 1.42 ;&st7;   " d=" M   122.95,   515.67  C   122.95    518.17    124.98    520.20    127.48    520.20  "/>
			<path style="stroke-width: 1.42 ;&st7;   " d=" M   127.48,   520.20  C   129.98    520.20    132.01    518.17    132.01    515.67  "/>
			<text style="&st18;" transform="matrix(&st16;  122.96  527.83 )">IMI</text>
		</g>
		<path style="stroke-width: 1.42 ;&st7;  " d=" M    76.49,   554.19  L   144.48,   554.19  L   144.48,   520.20  L    76.49,   520.20  L    76.49,   554.19  "/>
		<g ewd:figtype="title">
			<text style="&st18;" transform="matrix(&st16;  73.08  568.91 )">ECM</text>
			<text style="&st18;" transform="matrix(&st16;  73.07  562.09 )">F130(K)</text>
		</g>
	</g>
	<g ewd:figtype="jb" ewd:figID="9" ewd:code="2">
		<path style="stroke-width: 1.42 ;&st7;   " d=" M   163.60,   103.77  C   165.94    103.77    167.85    101.87    167.85     99.52  "/>
		<text style="&st18;" transform="matrix(&st16;  155.29  86.47 )">2</text>
		<text style="&st18;" transform="matrix(&st16;  156.26  32.08 )">(IG)</text>
		<text style="&st18;" transform="matrix(&st16;  150.97  101.49 )">4</text>
		<text style="&st18;" transform="matrix(&st16;  157.85  101.49 )">2L</text>
		<text style="&st18;" transform="matrix(&st16;  177.9  56.17 )">7.5A <tspan x="0 " dy="6.0">IG2 NO.2</tspan></text>
		<text style="&st18;" transform="matrix(&st16;  34.45  32.08 )">(BAT)</text>
		<text style="&st18;" transform="matrix(&st16;  36.31  86.47 )">2</text>
		<text style="&st18;" transform="matrix(&st16;  31.99  101.49 )">6</text>
		<text style="&st18;" transform="matrix(&st16;  38.44  101.49 )">2H</text>
		<text style="&st18;" transform="matrix(&st16;  58.92  56.17 )">7.5A <tspan x="0 " dy="6.0">SECURITY</tspan></text>
		<path style="stroke-width: 1.42 ;&st7;  " d=" M   148.73,    35.78  L   148.73,    78.27  L   174.22,    78.27  L   174.22,    35.78  L   148.73,    35.78  "/>
		<path style="stroke-width: 0.28 ;&st9;  " d=" M   161.47,    90.37  L   158.64,    87.54  L   158.64,    91.79  L   161.47,    94.62  L   164.31,    91.79  L   164.31,    87.54  L   161.47,    90.37  "/>
		<path style="stroke-width: 1.42 ;&st7;  " d=" M    29.75,    35.78  L    29.75,    78.27  L    55.24,    78.27  L    55.24,    35.78  L    29.75,    35.78  "/>
		<path style="stroke-width: 0.28 ;&st9;  " d=" M    42.49,    90.37  L    39.66,    87.54  L    39.66,    91.79  L    42.49,    94.62  L    45.33,    91.79  L    45.33,    87.54  L    42.49,    90.37  "/>
		<path style="stroke-width: 1.42 ;&st7;   " d=" M   167.85,    99.52  C   167.85     97.17    165.94     95.27    163.60     95.27  "/>
		<path style="stroke-width: 1.42 ;&st7;   " d=" M   155.10,    99.52  C   155.10    101.87    157.00    103.77    159.35    103.77  "/>
		<path style="stroke-width: 1.42 ;&st7;   " d=" M   159.35,    95.27  C   157.00     95.27    155.10     97.17    155.10     99.52  "/>
		<path style="stroke-width: 0.85 ;&st7;   " d=" M   162.89,    68.36  C   162.89     67.57    162.26     66.94    161.47     66.94  "/>
		<path style="stroke-width: 0.85 ;&st7;   " d=" M   161.47,    66.94  C   160.69     66.94    160.06     67.57    160.06     68.36  "/>
		<path style="stroke-width: 0.85 ;&st7;   " d=" M   160.06,    68.36  C   160.06     69.14    160.69     69.77    161.47     69.77  "/>
		<path style="stroke-width: 0.85 ;&st7;   " d=" M   161.47,    69.77  C   162.26     69.77    162.89     69.14    162.89     68.36  "/>
		<path style="stroke-width: 0.85 ;&st7;   " d=" M   162.89,    45.69  C   162.89     44.91    162.26     44.28    161.47     44.28  "/>
		<path style="stroke-width: 0.85 ;&st7;   " d=" M   161.47,    44.28  C   160.69     44.28    160.06     44.91    160.06     45.69  "/>
		<path style="stroke-width: 0.85 ;&st7;   " d=" M   160.06,    45.69  C   160.06     46.48    160.69     47.11    161.47     47.11  "/>
		<path style="stroke-width: 0.85 ;&st7;   " d=" M   161.47,    47.11  C   162.26     47.11    162.89     46.48    162.89     45.69  "/>
		<path style="stroke-width: 1.42 ;&st7;   " d=" M   161.47,    66.94  C   164.21     65.33    165.12     61.80    163.51     59.06  "/>
		<path style="stroke-width: 1.42 ;&st7;   " d=" M   163.51,    59.06  C   162.99     58.18    162.35     57.55    161.47     57.03  "/>
		<path style="stroke-width: 1.42 ;&st7;   " d=" M   161.47,    47.11  C   158.74     48.72    157.82     52.25    159.44     54.99  "/>
		<path style="stroke-width: 1.42 ;&st7;   " d=" M   159.44,    54.99  C   159.96     55.87    160.59     56.51    161.47     57.03  "/>
		<path style="stroke-width: 1.42 ;&st7;   " d=" M    48.87,    99.52  C    48.87     97.17     46.96     95.27     44.62     95.27  "/>
		<path style="stroke-width: 1.42 ;&st7;   " d=" M    44.62,   103.77  C    46.96    103.77     48.87    101.87     48.87     99.52  "/>
		<path style="stroke-width: 1.42 ;&st7;   " d=" M    36.12,    99.52  C    36.12    101.87     38.02    103.77     40.37    103.77  "/>
		<path style="stroke-width: 1.42 ;&st7;   " d=" M    40.37,    95.27  C    38.02     95.27     36.12     97.17     36.12     99.52  "/>
		<path style="stroke-width: 0.85 ;&st7;   " d=" M    43.91,    68.36  C    43.91     67.57     43.28     66.94     42.49     66.94  "/>
		<path style="stroke-width: 0.85 ;&st7;   " d=" M    42.49,    66.94  C    41.71     66.94     41.08     67.57     41.08     68.36  "/>
		<path style="stroke-width: 0.85 ;&st7;   " d=" M    41.08,    68.36  C    41.08     69.14     41.71     69.77     42.49     69.77  "/>
		<path style="stroke-width: 0.85 ;&st7;   " d=" M    42.49,    69.77  C    43.28     69.77     43.91     69.14     43.91     68.36  "/>
		<path style="stroke-width: 0.85 ;&st7;   " d=" M    43.91,    45.69  C    43.91     44.91     43.28     44.28     42.49     44.28  "/>
		<path style="stroke-width: 0.85 ;&st7;   " d=" M    42.49,    44.28  C    41.71     44.28     41.08     44.91     41.08     45.69  "/>
		<path style="stroke-width: 0.85 ;&st7;   " d=" M    41.08,    45.69  C    41.08     46.48     41.71     47.11     42.49     47.11  "/>
		<path style="stroke-width: 0.85 ;&st7;   " d=" M    42.49,    47.11  C    43.28     47.11     43.91     46.48     43.91     45.69  "/>
		<path style="stroke-width: 1.42 ;&st7;   " d=" M    42.49,    66.94  C    45.23     65.33     46.14     61.80     44.53     59.06  "/>
		<path style="stroke-width: 1.42 ;&st7;   " d=" M    44.53,    59.06  C    44.01     58.18     43.37     57.55     42.49     57.03  "/>
		<path style="stroke-width: 1.42 ;&st7;   " d=" M    42.49,    47.11  C    39.75     48.72     38.84     52.25     40.46     54.99  "/>
		<path style="stroke-width: 1.42 ;&st7;   " d=" M    40.46,    54.99  C    40.98     55.87     41.61     56.51     42.49     57.03  "/>
		<path style="stroke-width: 0.85 ;&st7;  " d=" M   161.47,    78.27  L   161.47,    95.27  "/>
		<path style="stroke-width: 1.42 ;&st7;  " d=" M   163.60,   103.77  L   159.35,   103.77  "/>
		<path style="stroke-width: 1.42 ;&st7;  " d=" M   163.60,    95.27  L   159.35,    95.27  "/>
		<path style="stroke-width: 0.85 ;&st7;  " d=" M   161.47,    69.77  L   161.47,    78.27  "/>
		<path style="stroke-width: 0.85 ;&st7;  " d=" M    42.49,    78.27  L    42.49,    95.27  "/>
		<path style="stroke-width: 1.42 ;&st7;  " d=" M    44.62,   103.77  L    40.37,   103.77  "/>
		<path style="stroke-width: 1.42 ;&st7;  " d=" M    44.62,    95.27  L    40.37,    95.27  "/>
		<path style="stroke-width: 0.85 ;&st7;  " d=" M    42.49,    69.77  L    42.49,    78.27  "/>
	</g>
	<g ewd:figtype="jb" ewd:figID="10" ewd:code="2">
		<path style="stroke-width: 0.28 ;&st9;  " d=" M   458.92,    90.37  L   456.09,    87.54  L   456.09,    91.79  L   458.92,    94.62  L   461.76,    91.79  L   461.76,    87.54  L   458.92,    90.37  "/>
		<path style="stroke-width: 1.42 ;&st7;  " d=" M   446.18,    35.78  L   446.18,    78.27  L   471.67,    78.27  L   471.67,    35.78  L   446.18,    35.78  "/>
		<text style="&st18;" transform="matrix(&st16;  453.71  32.08 )">(IG)</text>
		<text style="&st18;" transform="matrix(&st16;  452.74  86.47 )">2</text>
		<text style="&st18;" transform="matrix(&st16;  448.42  101.49 )">5</text>
		<text style="&st18;" transform="matrix(&st16;  455.3  101.49 )">2L</text>
		<text style="&st18;" transform="matrix(&st16;  475.35  56.17 )">7.5A <tspan x="0 " dy="6.0">METER</tspan></text>
		<path style="stroke-width: 1.42 ;&st7;   " d=" M   458.92,    66.94  C   461.66     65.33    462.57     61.80    460.96     59.06  "/>
		<path style="stroke-width: 1.42 ;&st7;   " d=" M   460.96,    59.06  C   460.44     58.18    459.81     57.55    458.92     57.03  "/>
		<path style="stroke-width: 0.85 ;&st7;   " d=" M   460.34,    45.69  C   460.34     44.91    459.71     44.28    458.92     44.28  "/>
		<path style="stroke-width: 0.85 ;&st7;   " d=" M   458.92,    44.28  C   458.14     44.28    457.51     44.91    457.51     45.69  "/>
		<path style="stroke-width: 0.85 ;&st7;   " d=" M   457.51,    45.69  C   457.51     46.48    458.14     47.11    458.92     47.11  "/>
		<path style="stroke-width: 0.85 ;&st7;   " d=" M   458.92,    47.11  C   459.71     47.11    460.34     46.48    460.34     45.69  "/>
		<path style="stroke-width: 0.85 ;&st7;   " d=" M   460.34,    68.36  C   460.34     67.57    459.71     66.94    458.92     66.94  "/>
		<path style="stroke-width: 0.85 ;&st7;   " d=" M   458.92,    66.94  C   458.14     66.94    457.51     67.57    457.51     68.36  "/>
		<path style="stroke-width: 0.85 ;&st7;   " d=" M   457.51,    68.36  C   457.51     69.14    458.14     69.77    458.92     69.77  "/>
		<path style="stroke-width: 0.85 ;&st7;   " d=" M   458.92,    69.77  C   459.71     69.77    460.34     69.14    460.34     68.36  "/>
		<path style="stroke-width: 1.42 ;&st7;   " d=" M   458.92,    47.11  C   456.19     48.72    455.27     52.25    456.89     54.99  "/>
		<path style="stroke-width: 1.42 ;&st7;   " d=" M   456.89,    54.99  C   457.41     55.87    458.04     56.51    458.92     57.03  "/>
		<path style="stroke-width: 1.42 ;&st7;   " d=" M   456.80,    95.27  C   454.45     95.27    452.55     97.17    452.55     99.52  "/>
		<path style="stroke-width: 1.42 ;&st7;   " d=" M   452.55,    99.52  C   452.55    101.87    454.45    103.77    456.80    103.77  "/>
		<path style="stroke-width: 1.42 ;&st7;   " d=" M   461.05,   103.77  C   463.39    103.77    465.30    101.87    465.30     99.52  "/>
		<path style="stroke-width: 1.42 ;&st7;   " d=" M   465.30,    99.52  C   465.30     97.17    463.39     95.27    461.05     95.27  "/>
		<path style="stroke-width: 0.85 ;&st7;  " d=" M   458.92,    69.77  L   458.92,    78.27  "/>
		<path style="stroke-width: 1.42 ;&st7;  " d=" M   461.05,    95.27  L   456.80,    95.27  "/>
		<path style="stroke-width: 1.42 ;&st7;  " d=" M   461.05,   103.77  L   456.80,   103.77  "/>
		<path style="stroke-width: 0.85 ;&st7;  " d=" M   458.92,    78.27  L   458.92,    95.27  "/>
	</g>
	<g ewd:figtype="gp" ewd:figID="11" ewd:code="FB">
		<path style="stroke-width: 0.85 ;&st7;  " d=" M   270.54,   710.00  L   273.37,   710.00  "/>
		<path style="stroke-width: 0.85 ;&st7;  " d=" M   269.12,   707.17  L   274.79,   707.17  "/>
		<path style="stroke-width: 0.85 ;&st7;  " d=" M   267.71,   704.33  L   276.20,   704.33  "/>
		<path style="stroke-width: 0.85 ;&st7;  " d=" M   263.46,   701.50  L   280.45,   701.50  "/>
		<path style="stroke-width: 0.85 ;&st7;  " d=" M   271.95,   697.25  L   271.95,   701.50  "/>
	</g>
	<g ewd:figtype="gp" ewd:figID="12" ewd:code="FC">
		<path style="stroke-width: 0.85 ;&st7;  " d=" M   458.92,   697.25  L   458.92,   701.50  "/>
		<path style="stroke-width: 0.85 ;&st7;  " d=" M   450.42,   701.50  L   467.42,   701.50  "/>
		<path style="stroke-width: 0.85 ;&st7;  " d=" M   454.67,   704.33  L   463.17,   704.33  "/>
		<path style="stroke-width: 0.85 ;&st7;  " d=" M   456.09,   707.17  L   461.76,   707.17  "/>
		<path style="stroke-width: 0.85 ;&st7;  " d=" M   457.51,   710.00  L   460.34,   710.00  "/>
	</g>
	<g ewd:code="" ewd:figID="17" ewd:comment="17,43" ewd:figtype="commref">
		<text style="&st18;" transform="matrix(&st16;  209.06  517.64 )">(*17 *43)</text>
	</g>
	<g ewd:code="" ewd:figID="18" ewd:comment="16,43,42" ewd:figtype="commref">
		<text style="&st18;" transform="matrix(&st16;  209.06  508.57 )">(*16 *43,*42)</text>
	</g>
	<g ewd:code="1" ewd:figID="28" ewd:comment="" ewd:figtype="comment">
		<text style="&st18;" transform="matrix(&st16;  243.05  148.23 )">* 1 :1NZ-FE, 2NZ-FE</text>
	</g>
	<g ewd:code="16" ewd:figID="19" ewd:comment="" ewd:figtype="comment">
		<text style="&st18;" transform="matrix(&st16;  243.05  165.23 )">*16 :A/T</text>
	</g>
	<g ewd:code="43" ewd:figID="22" ewd:comment="" ewd:figtype="comment">
		<text style="&st18;" transform="matrix(&st16;  243.05  190.72 )" ewd:textID="2">*43 :w/o Air Fuel Ratio Sensor</text>
	</g>
	<g ewd:code="17" ewd:figID="20" ewd:comment="" ewd:figtype="comment">
		<text style="&st18;" transform="matrix(&st16;  243.05  173.73 )">*17 :M/T</text>
	</g>
	<g ewd:code="42" ewd:figID="21" ewd:comment="" ewd:figtype="comment">
		<text style="&st18;" transform="matrix(&st16;  243.05  182.22 )" ewd:textID="1">*42 :w/ Air Fuel Ratio Sensor</text>
	</g>
	<g ewd:code="2" ewd:figID="27" ewd:comment="" ewd:figtype="comment">
		<text style="&st18;" transform="matrix(&st16;  243.05  156.73 )">* 2 :1NR-FE, 2NR-FE</text>
	</g>
	<text style="&st18;" transform="matrix(&st17;  200.27  488.16 )">G</text>
	<text style="&st18;" transform="matrix(&st17;  166.28  489.75 )">BR</text>
	<text style="&st18;" transform="matrix(&st17;  38.8  471.17 )">G</text>
	<text style="&st18;" transform="matrix(&st17;  387.24  292.43 )">B</text>
	<text style="&st18;" transform="matrix(&st17;  38.8  147.87 )">R</text>
	<text style="&st18;" transform="matrix(&st17;  38.8  293.98 )">SB</text>
	<text style="&st18;" transform="matrix(&st17;  157.78  292.54 )">V</text>
	<text style="&st18;" transform="matrix(&st17;  268.26  475.16 )">W-B</text>
	<text style="&st18;" transform="matrix(&st17;  268.26  585.64 )">W-B</text>
	<text style="&st18;" transform="matrix(&st17;  38.8  585.74 )">V</text>
	<text style="&st18;" transform="matrix(&st17;  135.11  490.92 )">(*2)</text>
	<text style="&st18;" transform="matrix(&st17;  455.23  653.63 )">W-B</text>
	<text style="&st18;" transform="matrix(&st17;  310.75  470.7 )">P</text>
	<path style="stroke-width: 1.42 ;&st7;  " d=" M   365.44,   618.65  L   360.47,   613.68  "/>
	<path style="stroke-width: 1.42 ;&st7;  " d=" M   348.44,   625.71  L   353.41,   630.68  "/>
	<path style="stroke-width: 1.42 ;&st7;  " d=" M   360.47,   630.68  L   365.44,   625.71  "/>
	<path style="stroke-width: 1.42 ;&st7;  " d=" M   353.41,   613.68  L   348.44,   618.65  "/>
	<text style="&st18;" transform="matrix(&st17;  353.24  598.18 )">P</text>
	<text style="&st18;" transform="matrix(&st17;  123.78  488.16 )">G</text>
	<text style="&st18;" transform="matrix(&st17;  89.79  489.75 )">BR</text>
	<text style="&st18;" transform="matrix(&st17;  211.6  490.92 )">(*1)</text>
	<text style="&st18;" transform="matrix(&st17;  101.12  490.92 )">(*2)</text>
	<text style="&st18;" transform="matrix(&st17;  177.61  490.92 )">(*1)</text>
	<text style="&st18;" transform="matrix(&st17;  455.23  293.98 )">SB</text>
	<a ewd:figtype="gp" style="cursor:pointer;" ewd:code="FB" ewd:figID="11">
		<path style="&st2;" d=" M   261.33,   681.67  L   282.58,   681.67  L   271.95,   697.25  L   261.33,   681.67 "/>
		<text style="&st8;" transform="matrix(&st16;  268.27  689.46 )"><tspan x="0" style="&st18;" y="0">FB</tspan></text>
	</a>
	<a ewd:figtype="gp" style="cursor:pointer;" ewd:code="FC" ewd:figID="12">
		<path style="&st2;" d=" M   448.30,   681.67  L   469.55,   681.67  L   458.92,   697.25  L   448.30,   681.67 "/>
		<text style="&st8;" transform="matrix(&st16;  455.01  689.46 )"><tspan x="0" style="&st18;" y="0">FC</tspan></text>
	</a>
	<a ewd:figtype="sp" style="cursor:pointer;" ewd:code="SP18" ewd:figID="13">
		<path style="&st2;" d=" M   352.69,   613.68  L   361.19,   613.68  L   365.44,   617.93  L   365.44,   626.43  L   361.19,   630.68  L   352.69,   630.68  L   348.44,   626.43  L   348.44,   617.93  L   352.69,   613.68 "/>
	</a>
</g>
</svg>