﻿<?xml version="1.0" encoding="utf-8"?>
<!DOCTYPE svg PUBLIC "-//W3C//DTD SVG 1.0//EN" "http://www.w3.org/TR/2001/REC-SVG-20010904/DTD/svg10.dtd"[
	<!ENTITY ns_flows "http://ns.adobe.com/Flows/1.0/">
	<!ENTITY ns_svg "http://www.w3.org/2000/svg">
	<!ENTITY ns_xlink "http://www.w3.org/1999/xlink">
	<!ENTITY st0 "font-size:7px;font-family:'MS-PGothic';adobe-font-script:japanese;">
	<!ENTITY st1 "font-size:6px;font-family:'ArialMT';">
	<!-- White fill  -->
	<!ENTITY st2 "fill:#FFFFFF;stroke:#000000; stroke-width:1.41;stroke-linecap:round;stroke-linejoin:round;">
	<!-- Yellow fill  -->
	<!ENTITY st3 "fill:#FFFFCC;stroke:#FFFFCC; stroke-width:0.1;stroke-linecap:round;stroke-linejoin:round;">
	<!-- Gray fill  -->
	<!ENTITY st4 "fill:#CCCCCC;stroke:#CCCCCC; stroke-width:0.1;stroke-linecap:round;stroke-linejoin:round;">
	<!-- Light-blue fill -->
	<!ENTITY st5 "fill:#CCECF4;stroke:#000000; stroke-width:1.133;stroke-linecap:round;stroke-linejoin:round;">
	<!ENTITY st6 "fill:none;stroke-linecap:butt; stroke-linejoin:round;">
	<!ENTITY st7 "fill:none;stroke:#000000;stroke-linecap:round;stroke-linejoin:round;">
	<!ENTITY st8 "enable-background:new    ;">
	<!-- Black fill -->
	<!ENTITY st9 "fill:#000000;stroke:#000000; stroke-linecap:round;stroke-linejoin:round;">
	<!-- SRS note   -->
	<!ENTITY st10 "font-size:9px;font-family:'ArialMT';">
	<!ENTITY st11 "font-size:9px;font-family:'Svg Symbol';">
	<!ENTITY st12 "font-size:6px;font-family:'Svg Symbol';">
	<!ENTITY st13 "fill:none;stroke:#ff0000;stroke-linecap:round;stroke-linejoin:round;">
	<!-- Yellow fill  -->
	<!ENTITY st14 "fill:#FFFF00;stroke:#FFFF00; stroke-width:0.1;stroke-linecap:round;stroke-linejoin:round;">
	<!ENTITY st15 "font-size:6px;font-family:'MS-PGothic';adobe-font-script:japanese;">
	<!ENTITY st16 "1.00 0.00 0.00 1.00">
	<!ENTITY st17 "0.00 -1.00 1.00 0.00">
	<!ENTITY st18 "font-size:6px;font-family:'Arial';">
	<!ENTITY st19 "font-size:9px;font-family:'Arial';">
	<!ENTITY st20 "font-size:6px;font-family:'MS-PGothic','MS PGothic';adobe-font-script:japanese;">
	<!ENTITY st21 "font-size:7px;font-family:'MS-PGothic','MS PGothic';adobe-font-script:japanese;">
	<!ATTLIST svg
		xmlns:ewd CDATA #FIXED "http://shcl.co.jp/ewd"
		xmlns:a CDATA #FIXED "http://ns.adobe.com/AdobeSVGViewerExtensions/3.0/"
		ewd:ver CDATA #IMPLIED
	>
	<!ATTLIST a
		ewd:lineID CDATA #IMPLIED
		ewd:groupID CDATA #IMPLIED
		ewd:figtype CDATA #IMPLIED
		ewd:code CDATA #IMPLIED
		ewd:figID CDATA #IMPLIED
		ewd:pinNo CDATA #IMPLIED
		ewd:comment CDATA #IMPLIED >
	<!ATTLIST g
		ewd:lineID CDATA #IMPLIED
		ewd:groupID CDATA #IMPLIED
		ewd:figtype CDATA #IMPLIED
		ewd:code CDATA #IMPLIED
		ewd:figID CDATA #IMPLIED
		ewd:pinNo CDATA #IMPLIED
		ewd:comment CDATA #IMPLIED >
	<!ATTLIST text
		ewd:textID CDATA #IMPLIED >
	<!ATTLIST title
		ewd:textID CDATA #IMPLIED >
]>
<!-- Generator: Shintec Hozumi YS   -->
<svg onload="call_execInitLoadProc_svg('system')" style="overflow:visible;  enable-background:new 0 0 1561.714 710.000" viewBox="0 0 1561.714 710.000" height="710.000" width="1561.714" xml:space="preserve" ewd:ver="2.2.0.10" xmlns="&ns_svg;" xmlns:a="http://ns.adobe.com/AdobeSVGViewerExtensions/3.0/" xmlns:ewd="http://shcl.co.jp/ewd" xmlns:xlink="&ns_xlink;">
<text style="&st18;" transform="matrix(&st17;  914.15  429.18 )">W</text><text style="&st18;" transform="matrix(&st17;  735.68  217.8 )">BE</text><text style="&st18;" transform="matrix(&st17;  778.17  216.71 )">W</text><text style="&st18;" transform="matrix(&st17;  820.67  215.94 )">B</text><text style="&st18;" transform="matrix(&st17;  854.66  216.71 )">W</text><text style="&st18;" transform="matrix(&st17;  956.64  215.82 )">L</text><text style="&st18;" transform="matrix(&st17;  990.64  216.71 )">W</text><text style="&st18;" transform="matrix(&st17;  880.16  428.29 )">L</text><text style="&st18;" transform="matrix(&st16;  540.95  626.98 )">W</text><text style="&st18;" transform="matrix(&st16;  541.84  609.99 )">L</text><text style="&st18;" transform="matrix(&st17;  990.64  429.18 )">W</text><text style="&st18;" transform="matrix(&st17;  956.64  428.67 )">G</text><text style="&st18;" transform="matrix(&st17;  778.17  402.91 )">B</text><text style="&st18;" transform="matrix(&st17;  701.69  402.91 )">Y</text><text style="&st18;" transform="matrix(&st17;  735.68  402.71 )">P</text><text style="&st18;" transform="matrix(&st16;  541.72  457.01 )">B</text><text style="&st18;" transform="matrix(&st16;  541.72  575.99 )">B</text><text style="&st18;" transform="matrix(&st17;  667.69  404.77 )">BR</text><text style="&st18;" transform="matrix(&st17;  633.7  403.68 )">W</text><text style="&st18;" transform="matrix(&st17;  599.7  402.79 )">L</text><text style="&st18;" transform="matrix(&st16;  540.95  592.99 )">W</text><g ewd:figtype="conn" ewd:figID="5" ewd:code="F62"><path style="stroke-width: 1.42 ;&st7;  " d=" M  1002.83,   180.26  L  1002.83,   154.76  L   730.88,   154.76  L   730.88,   180.26  L  1002.83,   180.26  " /><path style="stroke-width: 0.85 ;&st7;  " d=" M   739.38,   180.26  L   739.38,   171.76  L   960.34,   171.76  L   960.34,   180.26  " /><path style="stroke-width: 0.85 ;&st7;  " d=" M   857.16,   162.26  L   856.89,   162.73  L   856.80,   163.26  L   856.89,   163.79  L   857.16,   164.26  L   857.58,   164.61  L   858.08,   164.79  L   858.63,   164.79  L   859.14,   164.61  L   859.55,   164.26  L   859.82,   163.79  L   859.91,   163.26  L   859.82,   162.73  L   859.55,   162.26  L   859.14,   161.91  L   858.63,   161.72  L   858.08,   161.72  L   857.58,   161.91  L   857.16,   162.26  L   857.56,   162.97  L   857.56,   163.55  L   857.93,   163.99  L   858.50,   164.09  L   859.01,   163.80  L   859.21,   163.26  L   859.01,   162.71  L   858.50,   162.42  L   857.93,   162.52  L   858.36,   163.26  " /><path style="stroke-width: 0.85 ;&st7;  " d=" M   823.17,   170.75  L   822.90,   171.22  L   822.80,   171.76  L   822.90,   172.29  L   823.17,   172.76  L   823.58,   173.11  L   824.09,   173.29  L   824.63,   173.29  L   825.14,   173.11  L   825.55,   172.76  L   825.83,   172.29  L   825.92,   171.76  L   825.83,   171.22  L   825.55,   170.75  L   825.14,   170.41  L   824.63,   170.22  L   824.09,   170.22  L   823.58,   170.41  L   823.17,   170.75  L   823.56,   171.47  L   823.56,   172.05  L   823.94,   172.49  L   824.51,   172.59  L   825.01,   172.30  L   825.21,   171.76  L   825.01,   171.21  L   824.51,   170.92  L   823.94,   171.02  L   824.36,   171.76  " /><path style="stroke-width: 0.85 ;&st7;  " d=" M   994.33,   180.26  L   994.33,   163.26  L   781.87,   163.26  L   781.87,   180.26  " /><path style="stroke-width: 0.85 ;&st7;  " d=" M   858.36,   163.26  L   858.36,   180.26  " /><path style="stroke-width: 0.85 ;&st7;  " d=" M   824.36,   171.76  L   824.36,   180.26  " /><text style="&st18;" transform="matrix(&st16;  733.19  188.45 )">3</text><text style="&st18;" transform="matrix(&st16;  772.58  188.45 )">14</text><text style="&st18;" transform="matrix(&st16;  815.08  188.45 )">10</text><text style="&st18;" transform="matrix(&st16;  849.07  188.45 )">21</text><text style="&st18;" transform="matrix(&st16;  954.16  188.45 )">2</text><text style="&st18;" transform="matrix(&st16;  985.05  188.45 )">13</text><g ewd:figtype="title"><text style="&st18;" transform="matrix(&st16;  727.47  151.06 )" ewd:textID="9">No. 1 CAN Junction Connector</text><text style="&st18;" transform="matrix(&st16;  727.47  143.96 )">F62</text></g></g><g ewd:figtype="conn" ewd:figID="8" ewd:code="A60,F174"><path style="stroke-width: 0.85 ;&st7;  " d=" M   994.33,   341.73  L   917.85,   341.73  L   917.85,   350.23  " /><path style="stroke-width: 1.42 ;&st7;  " d=" M   875.35,   324.73  L  1002.83,   324.73  L  1002.83,   350.23  L   875.35,   350.23  L   875.35,   324.73  " /><path style="stroke-width: 0.85 ;&st7;  " d=" M   883.85,   350.23  L   883.85,   333.23  L   960.34,   333.23  " /><path style="stroke-width: 0.85 ;&st7;  " d=" M   993.14,   340.73  L   992.87,   341.20  L   992.78,   341.73  L   992.87,   342.26  L   993.14,   342.73  L   993.55,   343.08  L   994.06,   343.26  L   994.61,   343.26  L   995.11,   343.08  L   995.53,   342.73  L   995.80,   342.26  L   995.89,   341.73  L   995.80,   341.20  L   995.53,   340.73  L   995.11,   340.38  L   994.61,   340.19  L   994.06,   340.19  L   993.55,   340.38  L   993.14,   340.73  L   993.53,   341.44  L   993.53,   342.02  L   993.91,   342.46  L   994.48,   342.56  L   994.98,   342.28  L   995.18,   341.73  L   994.98,   341.18  L   994.48,   340.89  L   993.91,   340.99  L   994.33,   341.73  " /><path style="stroke-width: 0.85 ;&st7;  " d=" M   960.34,   324.73  L   960.34,   350.23  " /><path style="stroke-width: 0.85 ;&st7;  " d=" M   959.15,   332.23  L   958.87,   332.70  L   958.78,   333.23  L   958.87,   333.76  L   959.15,   334.23  L   959.56,   334.58  L   960.07,   334.77  L   960.61,   334.77  L   961.12,   334.58  L   961.53,   334.23  L   961.80,   333.76  L   961.90,   333.23  L   961.80,   332.70  L   961.53,   332.23  L   961.12,   331.88  L   960.61,   331.69  L   960.07,   331.69  L   959.56,   331.88  L   959.15,   332.23  L   959.54,   332.94  L   959.54,   333.52  L   959.91,   333.97  L   960.49,   334.07  L   960.99,   333.78  L   961.19,   333.23  L   960.99,   332.68  L   960.49,   332.39  L   959.91,   332.49  L   960.34,   333.23  " /><path style="stroke-width: 0.85 ;&st7;  " d=" M   994.33,   324.73  L   994.33,   350.23  " /><text style="&st18;" transform="matrix(&st16;  875.16  356.73 )">5</text><path style="stroke-width: 1.42 ;&st7;   " d=" M   888.38,   354.76  C   888.38    352.26    886.36    350.23    883.85    350.23  " /><path style="stroke-width: 1.42 ;&st7;   " d=" M   883.85,   350.23  C   881.35    350.23    879.32    352.26    879.32    354.76  " /><path style="stroke-width: 1.42 ;&st7;   " d=" M   879.32,   354.76  C   879.32    357.26    881.35    359.29    883.85    359.29  " /><path style="stroke-width: 1.42 ;&st7;   " d=" M   883.85,   359.29  C   886.36    359.29    888.38    357.26    888.38    354.76  " /><text style="&st18;" transform="matrix(&st16;  881.55  356.73 )">A</text><text style="&st18;" transform="matrix(&st16;  906.05  356.73 )">16</text><path style="stroke-width: 1.42 ;&st7;   " d=" M   922.38,   354.76  C   922.38    352.26    920.35    350.23    917.85    350.23  " /><path style="stroke-width: 1.42 ;&st7;   " d=" M   917.85,   350.23  C   915.34    350.23    913.31    352.26    913.31    354.76  " /><path style="stroke-width: 1.42 ;&st7;   " d=" M   913.31,   354.76  C   913.31    357.26    915.34    359.29    917.85    359.29  " /><path style="stroke-width: 1.42 ;&st7;   " d=" M   917.85,   359.29  C   920.35    359.29    922.38    357.26    922.38    354.76  " /><text style="&st18;" transform="matrix(&st16;  915.54  356.73 )">A</text><text style="&st18;" transform="matrix(&st16;  951.65  356.73 )">5</text><path style="stroke-width: 1.42 ;&st7;   " d=" M   964.87,   354.76  C   964.87    352.26    962.84    350.23    960.34    350.23  " /><path style="stroke-width: 1.42 ;&st7;   " d=" M   960.34,   350.23  C   957.84    350.23    955.81    352.26    955.81    354.76  " /><path style="stroke-width: 1.42 ;&st7;   " d=" M   955.81,   354.76  C   955.81    357.26    957.84    359.29    960.34    359.29  " /><path style="stroke-width: 1.42 ;&st7;   " d=" M   960.34,   359.29  C   962.84    359.29    964.87    357.26    964.87    354.76  " /><text style="&st18;" transform="matrix(&st16;  958.15  356.73 )">B</text><text style="&st18;" transform="matrix(&st16;  951.65  322.17 )">6</text><path style="stroke-width: 1.42 ;&st7;   " d=" M   964.87,   320.20  C   964.87    317.70    962.84    315.67    960.34    315.67  " /><path style="stroke-width: 1.42 ;&st7;   " d=" M   960.34,   315.67  C   957.84    315.67    955.81    317.70    955.81    320.20  " /><path style="stroke-width: 1.42 ;&st7;   " d=" M   955.81,   320.20  C   955.81    322.70    957.84    324.73    960.34    324.73  " /><path style="stroke-width: 1.42 ;&st7;   " d=" M   960.34,   324.73  C   962.84    324.73    964.87    322.70    964.87    320.20  " /><text style="&st18;" transform="matrix(&st16;  958.15  322.17 )">B</text><text style="&st18;" transform="matrix(&st16;  982.54  356.73 )">16</text><text style="&st18;" transform="matrix(&st16;  992.15  356.73 )">B</text><path style="stroke-width: 1.42 ;&st7;   " d=" M   998.87,   354.76  C   998.87    352.26    996.84    350.23    994.33    350.23  " /><path style="stroke-width: 1.42 ;&st7;   " d=" M   994.33,   350.23  C   991.83    350.23    989.80    352.26    989.80    354.76  " /><path style="stroke-width: 1.42 ;&st7;   " d=" M   989.80,   354.76  C   989.80    357.26    991.83    359.29    994.33    359.29  " /><path style="stroke-width: 1.42 ;&st7;   " d=" M   994.33,   359.29  C   996.84    359.29    998.87    357.26    998.87    354.76  " /><text style="&st18;" transform="matrix(&st16;  982.54  322.17 )">17</text><path style="stroke-width: 1.42 ;&st7;   " d=" M   998.87,   320.20  C   998.87    317.70    996.84    315.67    994.33    315.67  " /><path style="stroke-width: 1.42 ;&st7;   " d=" M   994.33,   315.67  C   991.83    315.67    989.80    317.70    989.80    320.20  " /><path style="stroke-width: 1.42 ;&st7;   " d=" M   989.80,   320.20  C   989.80    322.70    991.83    324.73    994.33    324.73  " /><path style="stroke-width: 1.42 ;&st7;   " d=" M   994.33,   324.73  C   996.84    324.73    998.87    322.70    998.87    320.20  " /><text style="&st18;" transform="matrix(&st16;  992.15  322.17 )">B</text><g ewd:figtype="title"><text style="&st18;" transform="matrix(&st16;  871.95  315.09 )" ewd:textID="13">No. 23 <tspan x="0 " dy="6.0">Junction Connector</tspan></text><text style="&st18;" transform="matrix(&st16;  871.94  308.26 )">A60(A),F174(B)</text></g></g><g ewd:figtype="conn" ewd:figID="13" ewd:code="B46,B47,F130,F131"><path style="stroke-width: 1.42 ;&st7;  " d=" M   543.91,   307.73  L   543.91,   350.23  L   798.87,   350.23  L   798.87,   307.73  L   543.91,   307.73  " /><g ewd:lineID="11"><text style="&st18;" transform="matrix(&st16;  693.59  356.73 )">33</text><text style="&st18;" transform="matrix(&st16;  702.88  356.73 )">H</text><path style="stroke-width: 1.42 ;&st7;   " d=" M   709.91,   354.76  C   709.91    352.26    707.89    350.23    705.38    350.23  " /><path style="stroke-width: 1.42 ;&st7;   " d=" M   705.38,   350.23  C   702.88    350.23    700.85    352.26    700.85    354.76  " /><path style="stroke-width: 1.42 ;&st7;   " d=" M   700.85,   354.76  C   700.85    357.26    702.88    359.29    705.38    359.29  " /><path style="stroke-width: 1.42 ;&st7;   " d=" M   705.38,   359.29  C   707.89    359.29    709.91    357.26    709.91    354.76  " /><text style="&st18;" transform="matrix(&st16;  696.99  346.53 )">VCNE</text></g><g ewd:lineID="12"><text style="&st18;" transform="matrix(&st16;  770.07  356.73 )">34</text><text style="&st18;" transform="matrix(&st16;  779.37  356.73 )">H</text><path style="stroke-width: 1.42 ;&st7;   " d=" M   786.40,   354.76  C   786.40    352.26    784.37    350.23    781.87    350.23  " /><path style="stroke-width: 1.42 ;&st7;   " d=" M   781.87,   350.23  C   779.37    350.23    777.34    352.26    777.34    354.76  " /><path style="stroke-width: 1.42 ;&st7;   " d=" M   777.34,   354.76  C   777.34    357.26    779.37    359.29    781.87    359.29  " /><path style="stroke-width: 1.42 ;&st7;   " d=" M   781.87,   359.29  C   784.37    359.29    786.40    357.26    786.40    354.76  " /><text style="&st18;" transform="matrix(&st16;  776.15  346.53 )">NE-</text></g><g ewd:lineID="13"><text style="&st18;" transform="matrix(&st16;  727.58  356.73 )">27</text><path style="stroke-width: 1.42 ;&st7;   " d=" M   743.91,   354.76  C   743.91    352.26    741.88    350.23    739.38    350.23  " /><path style="stroke-width: 1.42 ;&st7;   " d=" M   739.38,   350.23  C   736.87    350.23    734.84    352.26    734.84    354.76  " /><path style="stroke-width: 1.42 ;&st7;   " d=" M   734.84,   354.76  C   734.84    357.26    736.87    359.29    739.38    359.29  " /><path style="stroke-width: 1.42 ;&st7;   " d=" M   739.38,   359.29  C   741.88    359.29    743.91    357.26    743.91    354.76  " /><text style="&st18;" transform="matrix(&st16;  736.88  356.73 )">H</text><text style="&st18;" transform="matrix(&st16;  733.66  346.53 )">NE+</text></g><g ewd:lineID="14"><text style="&st18;" transform="matrix(&st16;  727.58  305.17 )">13</text><text style="&st18;" transform="matrix(&st16;  737.07  305.17 )">K</text><path style="stroke-width: 1.42 ;&st7;   " d=" M   743.91,   303.20  C   743.91    300.70    741.88    298.67    739.38    298.67  " /><path style="stroke-width: 1.42 ;&st7;   " d=" M   739.38,   298.67  C   736.87    298.67    734.84    300.70    734.84    303.20  " /><path style="stroke-width: 1.42 ;&st7;   " d=" M   734.84,   303.20  C   734.84    305.70    736.87    307.73    739.38    307.73  " /><path style="stroke-width: 1.42 ;&st7;   " d=" M   739.38,   307.73  C   741.88    307.73    743.91    305.70    743.91    303.20  " /><text style="&st18;" transform="matrix(&st16;  730.6  315.37 )">CANH</text></g><g ewd:lineID="15"><text style="&st18;" transform="matrix(&st16;  770.07  305.17 )">14</text><path style="stroke-width: 1.42 ;&st7;   " d=" M   786.40,   303.20  C   786.40    300.70    784.37    298.67    781.87    298.67  " /><path style="stroke-width: 1.42 ;&st7;   " d=" M   781.87,   298.67  C   779.37    298.67    777.34    300.70    777.34    303.20  " /><path style="stroke-width: 1.42 ;&st7;   " d=" M   777.34,   303.20  C   777.34    305.70    779.37    307.73    781.87    307.73  " /><path style="stroke-width: 1.42 ;&st7;   " d=" M   781.87,   307.73  C   784.37    307.73    786.40    305.70    786.40    303.20  " /><text style="&st18;" transform="matrix(&st16;  779.56  305.17 )">K</text><text style="&st18;" transform="matrix(&st16;  773.52  315.37 )">CANL</text></g><g ewd:lineID="29"><text style="&st18;" transform="matrix(&st16;  659.59  356.73 )">23</text><path style="stroke-width: 1.42 ;&st7;   " d=" M   675.92,   354.76  C   675.92    352.26    673.89    350.23    671.39    350.23  " /><path style="stroke-width: 1.42 ;&st7;   " d=" M   671.39,   350.23  C   668.88    350.23    666.86    352.26    666.86    354.76  " /><path style="stroke-width: 1.42 ;&st7;   " d=" M   666.86,   354.76  C   666.86    357.26    668.88    359.29    671.39    359.29  " /><path style="stroke-width: 1.42 ;&st7;   " d=" M   671.39,   359.29  C   673.89    359.29    675.92    357.26    675.92    354.76  " /><text style="&st18;" transform="matrix(&st16;  669.08  356.73 )">K</text><text style="&st18;" transform="matrix(&st16;  665.71  346.53 )">SPD</text></g><g ewd:lineID="5"><text style="&st18;" transform="matrix(&st16;  625.6  356.73 )">11</text><text style="&st18;" transform="matrix(&st16;  635.09  356.73 )">K</text><path style="stroke-width: 1.42 ;&st7;   " d=" M   641.93,   354.76  C   641.93    352.26    639.90    350.23    637.39    350.23  " /><path style="stroke-width: 1.42 ;&st7;   " d=" M   637.39,   350.23  C   634.89    350.23    632.86    352.26    632.86    354.76  " /><path style="stroke-width: 1.42 ;&st7;   " d=" M   632.86,   354.76  C   632.86    357.26    634.89    359.29    637.39    359.29  " /><path style="stroke-width: 1.42 ;&st7;   " d=" M   637.39,   359.29  C   639.90    359.29    641.93    357.26    641.93    354.76  " /><text style="&st18;" transform="matrix(&st16;  628.73  346.53 )">TACH</text></g><g ewd:lineID="8"><text style="&st18;" transform="matrix(&st16;  591.6  356.73 )">19</text><text style="&st18;" transform="matrix(&st16;  601.33  356.73 )">L</text><path style="stroke-width: 1.42 ;&st7;   " d=" M   607.93,   354.76  C   607.93    352.26    605.90    350.23    603.40    350.23  " /><path style="stroke-width: 1.42 ;&st7;   " d=" M   603.40,   350.23  C   600.90    350.23    598.87    352.26    598.87    354.76  " /><path style="stroke-width: 1.42 ;&st7;   " d=" M   598.87,   354.76  C   598.87    357.26    600.90    359.29    603.40    359.29  " /><path style="stroke-width: 1.42 ;&st7;   " d=" M   603.40,   359.29  C   605.90    359.29    607.93    357.26    607.93    354.76  " /><text style="&st18;" transform="matrix(&st16;  599.04  346.53 )">TC</text></g><g ewd:lineID="9"><text style="&st18;" transform="matrix(&st16;  552.21  356.73 )">8</text><path style="stroke-width: 1.42 ;&st7;   " d=" M   565.44,   354.76  C   565.44    352.26    563.41    350.23    560.91    350.23  " /><path style="stroke-width: 1.42 ;&st7;   " d=" M   560.91,   350.23  C   558.40    350.23    556.37    352.26    556.37    354.76  " /><path style="stroke-width: 1.42 ;&st7;   " d=" M   556.37,   354.76  C   556.37    357.26    558.40    359.29    560.91    359.29  " /><path style="stroke-width: 1.42 ;&st7;   " d=" M   560.91,   359.29  C   563.41    359.29    565.44    357.26    565.44    354.76  " /><text style="&st18;" transform="matrix(&st16;  559.77  356.73 )">I</text><text style="&st18;" transform="matrix(&st16;  553.02  346.53 )">EMPS</text></g><g ewd:figtype="title"><text style="&st18;" transform="matrix(&st16;  540.5  304.04 )">ECM</text><text style="&st18;" transform="matrix(&st16;  540.5  297.21 )">B46(H),B47(I),F130(K),F131(L)</text></g></g><g ewd:figtype="conn" ewd:figID="14" ewd:code="B35"><path style="stroke-width: 1.42 ;&st7;  " d=" M   688.38,   503.20  L   756.37,   503.20  L   756.37,   469.21  L   688.38,   469.21  L   688.38,   503.20  " /><g ewd:lineID="11"><text style="&st18;" transform="matrix(&st16;  699.2  465.52 )">3</text><text style="&st18;" transform="matrix(&st16;  700.91  476.84 )">VC</text></g><g ewd:lineID="12"><text style="&st18;" transform="matrix(&st16;  733.19  511.39 )">2</text><text style="&st18;" transform="matrix(&st16;  733.66  499.5 )">NE-</text></g><g ewd:lineID="13"><text style="&st18;" transform="matrix(&st16;  733.19  465.52 )">1</text><text style="&st18;" transform="matrix(&st16;  733.66  476.84 )">NE+</text></g><g ewd:figtype="title"><text style="&st18;" transform="matrix(&st17;  764.27  506.1 )">B35</text><text style="&st18;" transform="matrix(&st17;  771.09  506.11 )" ewd:textID="7">Crank Position Sensor</text></g></g></svg>