﻿<?xml version="1.0" encoding="utf-8"?>
<!DOCTYPE svg PUBLIC "-//W3C//DTD SVG 1.0//EN" "http://www.w3.org/TR/2001/REC-SVG-20010904/DTD/svg10.dtd"[
	<!ENTITY ns_flows "http://ns.adobe.com/Flows/1.0/">
	<!ENTITY ns_svg "http://www.w3.org/2000/svg">
	<!ENTITY ns_xlink "http://www.w3.org/1999/xlink">
	<!ENTITY st0 "font-size:7px;font-family:'MS-PGothic';adobe-font-script:japanese;">
	<!ENTITY st1 "font-size:6px;font-family:'ArialMT';">
	<!-- White fill  -->
	<!ENTITY st2 "fill:#FFFFFF;stroke:#000000; stroke-width:1.41;stroke-linecap:round;stroke-linejoin:round;">
	<!-- Yellow fill  -->
	<!ENTITY st3 "fill:#FFFFCC;stroke:#FFFFCC; stroke-width:0.1;stroke-linecap:round;stroke-linejoin:round;">
	<!-- Gray fill  -->
	<!ENTITY st4 "fill:#CCCCCC;stroke:#CCCCCC; stroke-width:0.1;stroke-linecap:round;stroke-linejoin:round;">
	<!-- Light-blue fill -->
	<!ENTITY st5 "fill:#CCECF4;stroke:#000000; stroke-width:1.133;stroke-linecap:round;stroke-linejoin:round;">
	<!ENTITY st6 "fill:none;stroke-linecap:butt; stroke-linejoin:round;">
	<!ENTITY st7 "fill:none;stroke:#000000;stroke-linecap:round;stroke-linejoin:round;">
	<!ENTITY st8 "enable-background:new    ;">
	<!-- Black fill -->
	<!ENTITY st9 "fill:#000000;stroke:#000000; stroke-linecap:round;stroke-linejoin:round;">
	<!-- SRS note   -->
	<!ENTITY st10 "font-size:9px;font-family:'ArialMT';">
	<!ENTITY st11 "font-size:9px;font-family:'Svg Symbol';">
	<!ENTITY st12 "font-size:6px;font-family:'Svg Symbol';">
	<!ENTITY st13 "fill:none;stroke:#ff0000;stroke-linecap:round;stroke-linejoin:round;">
	<!-- Yellow fill  -->
	<!ENTITY st14 "fill:#FFFF00;stroke:#FFFF00; stroke-width:0.1;stroke-linecap:round;stroke-linejoin:round;">
	<!ENTITY st15 "font-size:6px;font-family:'MS-PGothic';adobe-font-script:japanese;">
	<!ENTITY st16 "1.00 0.00 0.00 1.00">
	<!ENTITY st17 "0.00 -1.00 1.00 0.00">
	<!ENTITY st18 "font-size:6px;font-family:'Arial';">
	<!ENTITY st19 "font-size:9px;font-family:'Arial';">
	<!ENTITY st20 "font-size:6px;font-family:'MS-PGothic','MS PGothic';adobe-font-script:japanese;">
	<!ENTITY st21 "font-size:7px;font-family:'MS-PGothic','MS PGothic';adobe-font-script:japanese;">
	<!ATTLIST svg
		xmlns:ewd CDATA #FIXED "http://shcl.co.jp/ewd"
		xmlns:a CDATA #FIXED "http://ns.adobe.com/AdobeSVGViewerExtensions/3.0/"
		ewd:ver CDATA #IMPLIED
	>
	<!ATTLIST a
		ewd:lineID CDATA #IMPLIED
		ewd:groupID CDATA #IMPLIED
		ewd:figtype CDATA #IMPLIED
		ewd:code CDATA #IMPLIED
		ewd:figID CDATA #IMPLIED
		ewd:pinNo CDATA #IMPLIED
		ewd:comment CDATA #IMPLIED >
	<!ATTLIST g
		ewd:lineID CDATA #IMPLIED
		ewd:groupID CDATA #IMPLIED
		ewd:figtype CDATA #IMPLIED
		ewd:code CDATA #IMPLIED
		ewd:figID CDATA #IMPLIED
		ewd:pinNo CDATA #IMPLIED
		ewd:comment CDATA #IMPLIED >
	<!ATTLIST text
		ewd:textID CDATA #IMPLIED >
	<!ATTLIST title
		ewd:textID CDATA #IMPLIED >
]>
<!-- Generator: Shintec Hozumi YS   -->
<svg onload="call_execInitLoadProc_svg('system')" style="overflow:visible;  enable-background:new 0 0 2056.119 710.000" viewBox="0 0 2056.119 710.000" height="710.000" width="2056.119" xml:space="preserve" ewd:ver="2.2.0.10" xmlns="&ns_svg;" xmlns:a="http://ns.adobe.com/AdobeSVGViewerExtensions/3.0/" xmlns:ewd="http://shcl.co.jp/ewd" xmlns:xlink="&ns_xlink;">
<path style="stroke-width: 1.42 ;&st7;  " d=" M   909.35,   618.65  L   904.38,   613.68  " /><path style="stroke-width: 1.42 ;&st7;  " d=" M   892.35,   625.71  L   897.32,   630.68  " /><path style="stroke-width: 1.42 ;&st7;  " d=" M   904.38,   630.68  L   909.35,   625.71  " /><path style="stroke-width: 1.42 ;&st7;  " d=" M   897.32,   613.68  L   892.35,   618.65  " /><text style="&st18;" transform="matrix(&st17;  973.64  130.95 )">B</text><text style="&st18;" transform="matrix(&st17;  897.15  662.13 )">W-B</text><text style="&st18;" transform="matrix(&st17;  897.15  594.14 )">W-B</text><text style="&st18;" transform="matrix(&st17;  897.15  458.16 )">W-B</text><text style="&st18;" transform="matrix(&st17;  718.68  458.16 )">W-B</text><text style="&st18;" transform="matrix(&st17;  863.16  224.36 )">R</text><text style="&st18;" transform="matrix(&st17;  616.7  190.44 )">B</text><text style="&st18;" transform="matrix(&st16;  727.47  32.08 )" ewd:textID="5">Body ECU</text><text style="&st18;" transform="matrix(&st17;  874.49  227.46 )">(*6)</text><text style="&st18;" transform="matrix(&st17;  628.03  193.47 )">(*6)</text><text style="&st18;" transform="matrix(&st17;  730.02  456.92 )">(*6)</text><text style="&st18;" transform="matrix(&st17;  908.49  456.92 )">(*6)</text><text style="&st18;" transform="matrix(&st17;  908.49  592.9 )">(*6)</text><text style="&st18;" transform="matrix(&st17;  908.49  660.89 )">(*6)</text><text style="&st18;" transform="matrix(&st16;  727.47  25.26 )">F52(A),F125(B)</text><text style="&st18;" transform="matrix(&st17;  984.97  133.98 )">(*6)</text><g ewd:figtype="conn" ewd:figID="10" ewd:code="F66"><path style="stroke-width: 0.85 ;&st7;  " d=" M   899.66,   544.69  L   899.38,   545.16  L   899.29,   545.69  L   899.38,   546.23  L   899.66,   546.70  L   900.07,   547.04  L   900.58,   547.23  L   901.12,   547.23  L   901.63,   547.04  L   902.04,   546.70  L   902.31,   546.23  L   902.41,   545.69  L   902.31,   545.16  L   902.04,   544.69  L   901.63,   544.35  L   901.12,   544.16  L   900.58,   544.16  L   900.07,   544.35  L   899.66,   544.69  L   900.05,   545.40  L   900.05,   545.99  L   900.42,   546.43  L   901.00,   546.53  L   901.50,   546.24  L   901.70,   545.69  L   901.50,   545.15  L   901.00,   544.86  L   900.42,   544.96  L   900.85,   545.69  " /><path style="stroke-width: 0.85 ;&st7;  " d=" M   892.35,   545.69  L   900.85,   545.69  " /><path style="stroke-width: 0.85 ;&st7;  " d=" M   900.85,   537.20  L   900.85,   554.19  " /><path style="stroke-width: 1.42 ;&st7;  " d=" M   892.35,   537.20  L   909.35,   537.20  L   909.35,   554.19  L   892.35,   554.19  L   892.35,   537.20  " /><text style="&st18;" transform="matrix(&st16;  886.17  542.0 )">8</text><text style="&st18;" transform="matrix(&st16;  894.67  562.39 )">7</text><text style="&st18;" transform="matrix(&st16;  894.67  533.51 )">9</text><g ewd:figtype="title"><text style="&st18;" transform="matrix(&st17;  917.24  557.09 )">F66</text><text style="&st18;" transform="matrix(&st17;  924.07  557.1 )" ewd:textID="16">No. 4 <tspan x="0 " dy="6.0">Junction </tspan><tspan x="0 " dy="6.0">Connector</tspan></text></g></g><g ewd:figtype="conn" ewd:figID="11" ewd:code="F52,F125"><g ewd:lineID="2"><text style="&st18;" transform="matrix(&st16;  611.7  84.77 )">7</text><path style="stroke-width: 1.42 ;&st7;   " d=" M   624.93,    82.80  C   624.93     80.30    622.90     78.27    620.40     78.27  " /><path style="stroke-width: 1.42 ;&st7;   " d=" M   620.40,    78.27  C   617.89     78.27    615.86     80.30    615.86     82.80  " /><path style="stroke-width: 1.42 ;&st7;   " d=" M   615.86,    82.80  C   615.86     85.31    617.89     87.34    620.40     87.34  " /><path style="stroke-width: 1.42 ;&st7;   " d=" M   620.40,    87.34  C   622.90     87.34    624.93     85.31    624.93     82.80  " /><text style="&st18;" transform="matrix(&st16;  618.21  84.77 )">B</text><text style="&st18;" transform="matrix(&st16;  613.44  74.58 )">TAIL</text></g><g ewd:lineID="8"><text style="&st18;" transform="matrix(&st16;  968.64  84.77 )">1</text><path style="stroke-width: 1.42 ;&st7;   " d=" M   981.87,    82.80  C   981.87     80.30    979.84     78.27    977.34     78.27  " /><path style="stroke-width: 1.42 ;&st7;   " d=" M   977.34,    78.27  C   974.83     78.27    972.80     80.30    972.80     82.80  " /><path style="stroke-width: 1.42 ;&st7;   " d=" M   972.80,    82.80  C   972.80     85.31    974.83     87.34    977.34     87.34  " /><path style="stroke-width: 1.42 ;&st7;   " d=" M   977.34,    87.34  C   979.84     87.34    981.87     85.31    981.87     82.80  " /><text style="&st18;" transform="matrix(&st16;  975.03  84.77 )">A</text><text style="&st18;" transform="matrix(&st16;  969.53  74.58 )">TRLY</text></g></g><g ewd:figtype="conn" ewd:figID="12" ewd:code="F17"><path style="stroke-width: 0.85 ;&st7;   " d=" M   834.28,   358.73  C   834.28    357.94    833.64    357.31    832.86    357.31  " /><path style="stroke-width: 0.85 ;&st7;   " d=" M   832.86,   357.31  C   832.08    357.31    831.44    357.94    831.44    358.73  " /><path style="stroke-width: 0.85 ;&st7;   " d=" M   831.44,   358.73  C   831.44    359.51    832.08    360.14    832.86    360.14  " /><path style="stroke-width: 0.85 ;&st7;   " d=" M   832.86,   360.14  C   833.64    360.14    834.28    359.51    834.28    358.73  " /><path style="stroke-width: 0.85 ;&st7;   " d=" M   902.27,   358.73  C   902.27    357.94    901.63    357.31    900.85    357.31  " /><path style="stroke-width: 0.85 ;&st7;   " d=" M   900.85,   357.31  C   900.07    357.31    899.43    357.94    899.43    358.73  " /><path style="stroke-width: 0.85 ;&st7;   " d=" M   899.43,   358.73  C   899.43    359.51    900.07    360.14    900.85    360.14  " /><path style="stroke-width: 0.85 ;&st7;   " d=" M   900.85,   360.14  C   901.63    360.14    902.27    359.51    902.27    358.73  " /><path style="stroke-width: 0.85 ;&st7;   " d=" M   868.27,   358.73  C   868.27    357.94    867.64    357.31    866.86    357.31  " /><path style="stroke-width: 0.85 ;&st7;   " d=" M   866.86,   357.31  C   866.07    357.31    865.44    357.94    865.44    358.73  " /><path style="stroke-width: 0.85 ;&st7;   " d=" M   865.44,   358.73  C   865.44    359.51    866.07    360.14    866.86    360.14  " /><path style="stroke-width: 0.85 ;&st7;   " d=" M   866.86,   360.14  C   867.64    360.14    868.27    359.51    868.27    358.73  " /><path style="stroke-width: 0.85 ;&st7;   " d=" M   723.80,   358.73  C   723.80    357.94    723.16    357.31    722.38    357.31  " /><path style="stroke-width: 0.85 ;&st7;   " d=" M   722.38,   357.31  C   721.60    357.31    720.96    357.94    720.96    358.73  " /><path style="stroke-width: 0.85 ;&st7;   " d=" M   720.96,   358.73  C   720.96    359.51    721.60    360.14    722.38    360.14  " /><path style="stroke-width: 0.85 ;&st7;   " d=" M   722.38,   360.14  C   723.16    360.14    723.80    359.51    723.80    358.73  " /><path style="stroke-width: 0.85 ;&st7;   " d=" M   689.80,   358.73  C   689.80    357.94    689.17    357.31    688.38    357.31  " /><path style="stroke-width: 0.85 ;&st7;   " d=" M   688.38,   357.31  C   687.60    357.31    686.97    357.94    686.97    358.73  " /><path style="stroke-width: 0.85 ;&st7;   " d=" M   686.97,   358.73  C   686.97    359.51    687.60    360.14    688.38    360.14  " /><path style="stroke-width: 0.85 ;&st7;   " d=" M   688.38,   360.14  C   689.17    360.14    689.80    359.51    689.80    358.73  " /><path style="stroke-width: 0.85 ;&st7;   " d=" M   902.27,   341.73  C   902.27    340.95    901.63    340.31    900.85    340.31  " /><path style="stroke-width: 0.85 ;&st7;   " d=" M   900.85,   340.31  C   900.07    340.31    899.43    340.95    899.43    341.73  " /><path style="stroke-width: 0.85 ;&st7;   " d=" M   899.43,   341.73  C   899.43    342.51    900.07    343.14    900.85    343.14  " /><path style="stroke-width: 0.85 ;&st7;   " d=" M   900.85,   343.14  C   901.63    343.14    902.27    342.51    902.27    341.73  " /><path style="stroke-width: 0.85 ;&st7;   " d=" M   868.27,   341.73  C   868.27    340.95    867.64    340.31    866.86    340.31  " /><path style="stroke-width: 0.85 ;&st7;   " d=" M   866.86,   340.31  C   866.07    340.31    865.44    340.95    865.44    341.73  " /><path style="stroke-width: 0.85 ;&st7;   " d=" M   865.44,   341.73  C   865.44    342.51    866.07    343.14    866.86    343.14  " /><path style="stroke-width: 0.85 ;&st7;   " d=" M   866.86,   343.14  C   867.64    343.14    868.27    342.51    868.27    341.73  " /><path style="stroke-width: 0.85 ;&st7;   " d=" M   621.81,   341.73  C   621.81    340.95    621.18    340.31    620.40    340.31  " /><path style="stroke-width: 0.85 ;&st7;   " d=" M   620.40,   340.31  C   619.61    340.31    618.98    340.95    618.98    341.73  " /><path style="stroke-width: 0.85 ;&st7;   " d=" M   618.98,   341.73  C   618.98    342.51    619.61    343.14    620.40    343.14  " /><path style="stroke-width: 0.85 ;&st7;   " d=" M   620.40,   343.14  C   621.18    343.14    621.81    342.51    621.81    341.73  " /><path style="stroke-width: 0.85 ;&st7;   " d=" M   723.80,   324.73  C   723.80    323.95    723.16    323.31    722.38    323.31  " /><path style="stroke-width: 0.85 ;&st7;   " d=" M   722.38,   323.31  C   721.60    323.31    720.96    323.95    720.96    324.73  " /><path style="stroke-width: 0.85 ;&st7;   " d=" M   720.96,   324.73  C   720.96    325.51    721.60    326.15    722.38    326.15  " /><path style="stroke-width: 0.85 ;&st7;   " d=" M   722.38,   326.15  C   723.16    326.15    723.80    325.51    723.80    324.73  " /><path style="stroke-width: 0.85 ;&st7;   " d=" M   621.81,   324.73  C   621.81    323.95    621.18    323.31    620.40    323.31  " /><path style="stroke-width: 0.85 ;&st7;   " d=" M   620.40,   323.31  C   619.61    323.31    618.98    323.95    618.98    324.73  " /><path style="stroke-width: 0.85 ;&st7;   " d=" M   618.98,   324.73  C   618.98    325.51    619.61    326.15    620.40    326.15  " /><path style="stroke-width: 0.85 ;&st7;   " d=" M   620.40,   326.15  C   621.18    326.15    621.81    325.51    621.81    324.73  " /><path style="stroke-width: 0.85 ;&st7;   " d=" M   655.81,   341.73  C   655.81    340.95    655.17    340.31    654.39    340.31  " /><path style="stroke-width: 0.85 ;&st7;   " d=" M   654.39,   340.31  C   653.61    340.31    652.97    340.95    652.97    341.73  " /><path style="stroke-width: 0.85 ;&st7;   " d=" M   652.97,   341.73  C   652.97    342.51    653.61    343.14    654.39    343.14  " /><path style="stroke-width: 0.85 ;&st7;   " d=" M   654.39,   343.14  C   655.17    343.14    655.81    342.51    655.81    341.73  " /><path style="stroke-width: 0.85 ;&st7;   " d=" M   723.80,   341.73  C   723.80    340.95    723.16    340.31    722.38    340.31  " /><path style="stroke-width: 0.85 ;&st7;   " d=" M   722.38,   340.31  C   721.60    340.31    720.96    340.95    720.96    341.73  " /><path style="stroke-width: 0.85 ;&st7;   " d=" M   720.96,   341.73  C   720.96    342.51    721.60    343.14    722.38    343.14  " /><path style="stroke-width: 0.85 ;&st7;   " d=" M   722.38,   343.14  C   723.16    343.14    723.80    342.51    723.80    341.73  " /><path style="stroke-width: 0.85 ;&st7;  " d=" M   866.85,   256.74  L   866.85,   299.24  " /><path style="stroke-width: 0.85 ;&st7;  " d=" M   722.38,   367.22  L   722.38,   392.72  " /><path style="stroke-width: 0.85 ;&st7;  " d=" M   834.28,   358.73  L   865.44,   358.73  " /><path style="stroke-width: 0.85 ;&st7;  " d=" M   868.27,   358.73  L   899.43,   358.73  " /><path style="stroke-width: 0.85 ;&st7;  " d=" M   569.40,   350.23  L   739.38,   350.23  " /><path style="stroke-width: 0.85 ;&st7;  " d=" M   705.38,   282.24  L   705.38,   367.22  " /><path style="stroke-width: 0.85 ;&st7;  " d=" M   883.85,   299.24  L   883.85,   367.22  " /><path style="stroke-width: 0.85 ;&st7;  " d=" M   671.39,   282.24  L   671.39,   367.22  " /><path style="stroke-width: 0.85 ;&st7;  " d=" M   569.40,   333.23  L   739.38,   333.23  " /><path style="stroke-width: 0.85 ;&st7;  " d=" M   569.40,   316.23  L   739.38,   316.23  " /><path style="stroke-width: 0.85 ;&st7;  " d=" M   900.85,   392.72  L   900.85,   367.22  " /><path style="stroke-width: 0.85 ;&st7;  " d=" M   868.27,   341.73  L   899.43,   341.73  " /><path style="stroke-width: 1.42 ;&st7;  " d=" M   756.37,   299.24  L   756.37,   367.22  L   917.85,   367.22  L   917.85,   299.24  L   756.37,   299.24  " /><path style="stroke-width: 0.85 ;&st7;  " d=" M   917.85,   316.23  L   781.87,   316.23  " /><path style="stroke-width: 0.85 ;&st7;  " d=" M   815.86,   299.24  L   815.86,   367.22  " /><path style="stroke-width: 0.85 ;&st7;  " d=" M   781.87,   299.24  L   781.87,   367.22  " /><path style="stroke-width: 0.85 ;&st7;  " d=" M   849.86,   299.24  L   849.86,   367.22  " /><path style="stroke-width: 0.85 ;&st7;  " d=" M   781.87,   333.23  L   917.85,   333.23  " /><path style="stroke-width: 0.85 ;&st7;  " d=" M   689.80,   358.73  L   720.96,   358.73  " /><path style="stroke-width: 0.85 ;&st7;  " d=" M   620.40,   256.74  L   620.40,   282.24  " /><path style="stroke-width: 0.85 ;&st7;  " d=" M   621.81,   341.73  L   652.97,   341.73  " /><path style="stroke-width: 0.85 ;&st7;  " d=" M   637.39,   282.24  L   637.39,   367.22  " /><path style="stroke-width: 0.85 ;&st7;  " d=" M   621.81,   324.73  L   720.96,   324.73  " /><path style="stroke-width: 0.85 ;&st7;  " d=" M   781.87,   350.23  L   917.85,   350.23  " /><path style="stroke-width: 0.85 ;&st7;  " d=" M   655.81,   341.73  L   720.96,   341.73  " /><path style="stroke-width: 0.85 ;&st7;  " d=" M   569.40,   299.24  L   739.38,   299.24  " /><path style="stroke-width: 0.85 ;&st7;  " d=" M   603.40,   282.24  L   603.40,   367.22  " /><path style="stroke-width: 1.42 ;&st7;  " d=" M   543.91,   282.24  L   543.91,   367.22  L   739.38,   367.22  L   739.38,   282.24  L   543.91,   282.24  " /><path style="stroke-width: 1.42 ;&st7;  " d=" M   526.91,   256.74  L   526.91,   392.72  L   934.84,   392.72  L   934.84,   256.74  L   526.91,   256.74  " /><path style="stroke-width: 0.85 ;&st7;  " d=" M   569.40,   282.24  L   569.40,   367.22  " /><text style="&st18;" transform="matrix(&st16;  622.98  264.94 )">T</text><text style="&st18;" transform="matrix(&st16;  903.43  389.03 )">LFG</text><text style="&st18;" transform="matrix(&st16;  724.96  389.03 )">EL</text><text style="&st18;" transform="matrix(&st16;  894.71  309.7 )">LFG</text><text style="&st18;" transform="matrix(&st16;  860.6  309.7 )">BFG</text><text style="&st18;" transform="matrix(&st16;  830.67  309.7 )">B</text><text style="&st18;" transform="matrix(&st16;  792.53  326.7 )">OFF</text><text style="&st18;" transform="matrix(&st17;  768.27  345.47 )" ewd:textID="10">Fog Light <tspan x="0 " dy="6.0">Switch</tspan></text><text style="&st18;" transform="matrix(&st16;  791.44  343.7 )" ewd:textID="11">Front</text><text style="&st18;" transform="matrix(&st16;  581.34  326.7 )" ewd:textID="20">Tail</text><text style="&st18;" transform="matrix(&st16;  618.21  292.71 )">T</text><text style="&st18;" transform="matrix(&st17;  555.8  341.85 )" ewd:textID="15">Light Control <tspan x="0 " dy="6.0">Switch</tspan></text><text style="&st18;" transform="matrix(&st16;  679.64  292.71 )">AUTO</text><text style="&st18;" transform="matrix(&st16;  579.48  343.7 )" ewd:textID="13">Head</text><text style="&st18;" transform="matrix(&st16;  651.89  292.71 )">H</text><text style="&st18;" transform="matrix(&st16;  582.24  309.7 )" ewd:textID="18">Off</text><text style="&st18;" transform="matrix(&st16;  792.76  360.69 )" ewd:textID="19">Rear</text><text style="&st18;" transform="matrix(&st16;  577.66  360.69 )">AUTO</text><text style="&st18;" transform="matrix(&st16;  718.45  292.71 )">EL</text><text style="&st18;" transform="matrix(&st16;  869.44  264.94 )">BFG</text><text style="&st18;" transform="matrix(&st16;  608.6  254.18 )">18</text><text style="&st18;" transform="matrix(&st16;  618.09  254.18 )">A</text><path style="stroke-width: 1.42 ;&st7;   " d=" M   624.93,   252.21  C   624.93    249.71    622.90    247.68    620.40    247.68  " /><path style="stroke-width: 1.42 ;&st7;   " d=" M   620.40,   247.68  C   617.89    247.68    615.86    249.71    615.86    252.21  " /><path style="stroke-width: 1.42 ;&st7;   " d=" M   615.86,   252.21  C   615.86    254.71    617.89    256.74    620.40    256.74  " /><path style="stroke-width: 1.42 ;&st7;   " d=" M   620.40,   256.74  C   622.90    256.74    624.93    254.71    624.93    252.21  " /><text style="&st18;" transform="matrix(&st16;  710.58  399.22 )">12</text><text style="&st18;" transform="matrix(&st16;  720.07  399.22 )">A</text><path style="stroke-width: 1.42 ;&st7;   " d=" M   726.91,   397.25  C   726.91    394.75    724.88    392.72    722.38    392.72  " /><path style="stroke-width: 1.42 ;&st7;   " d=" M   722.38,   392.72  C   719.88    392.72    717.85    394.75    717.85    397.25  " /><path style="stroke-width: 1.42 ;&st7;   " d=" M   717.85,   397.25  C   717.85    399.76    719.88    401.78    722.38    401.78  " /><path style="stroke-width: 1.42 ;&st7;   " d=" M   722.38,   401.78  C   724.88    401.78    726.91    399.76    726.91    397.25  " /><text style="&st18;" transform="matrix(&st16;  858.16  254.18 )">4</text><text style="&st18;" transform="matrix(&st16;  864.55  254.18 )">A</text><path style="stroke-width: 1.42 ;&st7;   " d=" M   871.39,   252.21  C   871.39    249.71    869.36    247.68    866.86    247.68  " /><path style="stroke-width: 1.42 ;&st7;   " d=" M   866.86,   247.68  C   864.35    247.68    862.32    249.71    862.32    252.21  " /><path style="stroke-width: 1.42 ;&st7;   " d=" M   862.32,   252.21  C   862.32    254.71    864.35    256.74    866.86    256.74  " /><path style="stroke-width: 1.42 ;&st7;   " d=" M   866.86,   256.74  C   869.36    256.74    871.39    254.71    871.39    252.21  " /><text style="&st18;" transform="matrix(&st16;  892.16  399.22 )">3</text><path style="stroke-width: 1.42 ;&st7;   " d=" M   905.38,   397.25  C   905.38    394.75    903.35    392.72    900.85    392.72  " /><path style="stroke-width: 1.42 ;&st7;   " d=" M   900.85,   392.72  C   898.35    392.72    896.32    394.75    896.32    397.25  " /><path style="stroke-width: 1.42 ;&st7;   " d=" M   896.32,   397.25  C   896.32    399.76    898.35    401.78    900.85    401.78  " /><path style="stroke-width: 1.42 ;&st7;   " d=" M   900.85,   401.78  C   903.35    401.78    905.38    399.76    905.38    397.25  " /><text style="&st18;" transform="matrix(&st16;  898.54  399.22 )">A</text><g ewd:figtype="title"><text style="&st18;" transform="matrix(&st17;  949.56  395.63 )" ewd:textID="14">Headlight Dimmer Switch Assembly</text><text style="&st18;" transform="matrix(&st17;  942.46  395.62 )">F17(A)</text></g></g><g ewd:figtype="gp" ewd:figID="21" ewd:code="FB"><path style="stroke-width: 0.85 ;&st7;  " d=" M   899.43,   710.00  L   902.27,   710.00  " /><path style="stroke-width: 0.85 ;&st7;  " d=" M   898.02,   707.17  L   903.68,   707.17  " /><path style="stroke-width: 0.85 ;&st7;  " d=" M   896.60,   704.33  L   905.10,   704.33  " /><path style="stroke-width: 0.85 ;&st7;  " d=" M   892.35,   701.50  L   909.35,   701.50  " /><path style="stroke-width: 0.85 ;&st7;  " d=" M   900.85,   697.25  L   900.85,   701.50  " /></g></svg>