﻿<?xml version="1.0" encoding="utf-8"?>
<!DOCTYPE svg PUBLIC "-//W3C//DTD SVG 1.0//EN" "http://www.w3.org/TR/2001/REC-SVG-20010904/DTD/svg10.dtd"[
	<!ENTITY ns_flows "http://ns.adobe.com/Flows/1.0/">
	<!ENTITY ns_svg "http://www.w3.org/2000/svg">
	<!ENTITY ns_xlink "http://www.w3.org/1999/xlink">
	<!ENTITY st0 "font-size:7px;font-family:'MS-PGothic';adobe-font-script:japanese;">
	<!ENTITY st1 "font-size:6px;font-family:'ArialMT';">
	<!-- White fill  -->
	<!ENTITY st2 "fill:#FFFFFF;stroke:#000000; stroke-width:1.41;stroke-linecap:round;stroke-linejoin:round;">
	<!-- Yellow fill  -->
	<!ENTITY st3 "fill:#FFFFCC;stroke:#FFFFCC; stroke-width:0.1;stroke-linecap:round;stroke-linejoin:round;">
	<!-- Gray fill  -->
	<!ENTITY st4 "fill:#CCCCCC;stroke:#CCCCCC; stroke-width:0.1;stroke-linecap:round;stroke-linejoin:round;">
	<!-- Light-blue fill -->
	<!ENTITY st5 "fill:#CCECF4;stroke:#000000; stroke-width:1.133;stroke-linecap:round;stroke-linejoin:round;">
	<!ENTITY st6 "fill:none;stroke-linecap:butt; stroke-linejoin:round;">
	<!ENTITY st7 "fill:none;stroke:#000000;stroke-linecap:round;stroke-linejoin:round;">
	<!ENTITY st8 "enable-background:new    ;">
	<!-- Black fill -->
	<!ENTITY st9 "fill:#000000;stroke:#000000; stroke-linecap:round;stroke-linejoin:round;">
	<!-- SRS note   -->
	<!ENTITY st10 "font-size:9px;font-family:'ArialMT';">
	<!ENTITY st11 "font-size:9px;font-family:'Svg Symbol';">
	<!ENTITY st12 "font-size:6px;font-family:'Svg Symbol';">
	<!ENTITY st13 "fill:none;stroke:#ff0000;stroke-linecap:round;stroke-linejoin:round;">
	<!-- Yellow fill  -->
	<!ENTITY st14 "fill:#FFFF00;stroke:#FFFF00; stroke-width:0.1;stroke-linecap:round;stroke-linejoin:round;">
	<!ENTITY st15 "font-size:6px;font-family:'MS-PGothic';adobe-font-script:japanese;">
	<!ENTITY st16 "1.00 0.00 0.00 1.00">
	<!ENTITY st17 "0.00 -1.00 1.00 0.00">
	<!ENTITY st18 "font-size:6px;font-family:'Arial';">
	<!ENTITY st19 "font-size:9px;font-family:'Arial';">
	<!ENTITY st20 "font-size:6px;font-family:'MS-PGothic','MS PGothic';adobe-font-script:japanese;">
	<!ENTITY st21 "font-size:7px;font-family:'MS-PGothic','MS PGothic';adobe-font-script:japanese;">
	<!ATTLIST svg
		xmlns:ewd CDATA #FIXED "http://shcl.co.jp/ewd"
		xmlns:a CDATA #FIXED "http://ns.adobe.com/AdobeSVGViewerExtensions/3.0/"
		ewd:ver CDATA #IMPLIED
	>
	<!ATTLIST a
		ewd:lineID CDATA #IMPLIED
		ewd:groupID CDATA #IMPLIED
		ewd:figtype CDATA #IMPLIED
		ewd:code CDATA #IMPLIED
		ewd:figID CDATA #IMPLIED
		ewd:pinNo CDATA #IMPLIED
		ewd:comment CDATA #IMPLIED >
	<!ATTLIST g
		ewd:lineID CDATA #IMPLIED
		ewd:groupID CDATA #IMPLIED
		ewd:figtype CDATA #IMPLIED
		ewd:code CDATA #IMPLIED
		ewd:figID CDATA #IMPLIED
		ewd:pinNo CDATA #IMPLIED
		ewd:comment CDATA #IMPLIED >
	<!ATTLIST text
		ewd:textID CDATA #IMPLIED >
	<!ATTLIST title
		ewd:textID CDATA #IMPLIED >
]>
<!-- Generator: Shintec Hozumi YS   -->
<svg onload="call_execInitLoadProc_svg('system')" style="overflow:visible;  enable-background:new 0 0 4668.158 710.000" viewBox="0 0 4668.158 710.000" height="710.000" width="4668.158" xml:space="preserve" ewd:ver="2.2.0.10" xmlns="&ns_svg;" xmlns:a="http://ns.adobe.com/AdobeSVGViewerExtensions/3.0/" xmlns:ewd="http://shcl.co.jp/ewd" xmlns:xlink="&ns_xlink;">
<text style="&st18;" transform="matrix(&st16;  3513.2  519.33 )">(*5)</text><text style="&st18;" transform="matrix(&st16;  3513.2  587.32 )">(*8)</text><text style="&st18;" transform="matrix(&st16;  3638.23  61.8 )">L8</text><text style="&st18;" transform="matrix(&st16;  3561.74  325.26 )">F21</text><text style="&st18;" transform="matrix(&st16;  3561.75  485.34 )" ewd:textID="27">A/C Amplifier <tspan x="0 " dy="6.0">Assembly</tspan></text><text style="&st18;" transform="matrix(&st16;  3561.74  478.23 )">F3</text><text style="&st18;" transform="matrix(&st16;  3638.24  519.33 )" ewd:textID="48">Door Control <tspan x="0 " dy="6.0">Receiver</tspan></text><text style="&st18;" transform="matrix(&st16;  3638.23  512.23 )">F47</text><text style="&st18;" transform="matrix(&st16;  3638.23  478.23 )">F46</text><text style="&st18;" transform="matrix(&st16;  3638.24  451.35 )" ewd:textID="91">Rear Door Lock <tspan x="0 " dy="6.0">Assembly LH</tspan></text><text style="&st18;" transform="matrix(&st16;  3638.23  444.24 )">J3</text><path style="stroke-width: 1.42 ;&st7;  " d=" M  3798.87,   439.46  L  3798.87,   443.71  " /><text style="&st18;" transform="matrix(&st16;  3638.24  213.39 )" ewd:textID="40">Center Stop <tspan x="0 " dy="6.0">Light Assembly</tspan></text><text style="&st18;" transform="matrix(&st16;  3638.23  206.28 )">F30</text><text style="&st18;" transform="matrix(&st16;  3638.24  315.37 )" ewd:textID="89">Rear Combination <tspan x="0 " dy="6.0">Light Assembly LH</tspan></text><text style="&st18;" transform="matrix(&st16;  3638.23  308.26 )">F25</text><text style="&st18;" transform="matrix(&st16;  3638.24  383.36 )" ewd:textID="90">Rear Combination <tspan x="0 " dy="6.0">Light Assembly RH</tspan></text><text style="&st18;" transform="matrix(&st16;  3638.23  376.25 )">F26</text><path style="stroke-width: 1.42 ;&st7;  " d=" M  3943.34,    57.75  L  3938.37,    52.78  " /><path style="stroke-width: 1.42 ;&st7;  " d=" M  3926.34,    64.80  L  3931.32,    69.77  " /><path style="stroke-width: 1.42 ;&st7;  " d=" M  3938.37,    69.77  L  3943.34,    64.80  " /><path style="stroke-width: 1.42 ;&st7;  " d=" M  3931.32,    52.78  L  3926.34,    57.75  " /><text style="&st18;" transform="matrix(&st16;  3638.24  102.9 )" ewd:textID="74">Luggage Compartment <tspan x="0 " dy="6.0">Door Lock Assembly</tspan></text><text style="&st18;" transform="matrix(&st16;  3638.23  95.8 )">L5</text><path style="stroke-width: 1.42 ;&st7;  " d=" M  3943.34,   129.26  L  3934.84,   129.26  " /><text style="&st18;" transform="matrix(&st16;  3743.44  247.38 )">(S/D *29)</text><text style="&st18;" transform="matrix(&st16;  3754.18  236.05 )">B</text><text style="&st18;" transform="matrix(&st16;  3638.24  417.35 )" ewd:textID="59">Front Seat Inner <tspan x="0 " dy="6.0">Belt Assembly RH</tspan></text><text style="&st18;" transform="matrix(&st16;  3638.23  410.25 )">F114</text><text style="&st18;" transform="matrix(&st17;  3931.15  466.66 )">W-B</text><text style="&st18;" transform="matrix(&st16;  3638.24  68.91 )" ewd:textID="75">Luggage Electrical <tspan x="0 " dy="6.0">Key Switch</tspan></text><text style="&st18;" transform="matrix(&st16;  3561.74  614.21 )">F29</text><text style="&st18;" transform="matrix(&st16;  3514.36  609.99 )">BR</text><text style="&st18;" transform="matrix(&st16;  3511.96  575.99 )">W-B</text><text style="&st18;" transform="matrix(&st16;  3754.18  202.05 )">B</text><text style="&st18;" transform="matrix(&st16;  3749.92  304.04 )">W-B</text><text style="&st18;" transform="matrix(&st16;  3749.92  372.03 )">W-B</text><text style="&st18;" transform="matrix(&st16;  3752.05  91.57 )">GR</text><text style="&st18;" transform="matrix(&st16;  3752.32  406.02 )">BR</text><text style="&st18;" transform="matrix(&st16;  3751.16  451.35 )">(*8)</text><text style="&st18;" transform="matrix(&st16;  3749.92  440.01 )">W-B</text><text style="&st18;" transform="matrix(&st16;  3749.92  474.01 )">W-B</text><text style="&st18;" transform="matrix(&st16;  3749.92  508.0 )">W-B</text><text style="&st18;" transform="matrix(&st16;  3749.92  57.58 )">W-B</text><text style="&st18;" transform="matrix(&st16;  3834.9  440.01 )">W-B</text><text style="&st18;" transform="matrix(&st16;  3829.98  451.35 )">(S/D *8)</text><text style="&st18;" transform="matrix(&st16;  3751.16  485.34 )">(*8)</text><text style="&st18;" transform="matrix(&st16;  3751.16  519.33 )">(*9)</text><text style="&st18;" transform="matrix(&st16;  3638.23  240.27 )">F153</text><text style="&st18;" transform="matrix(&st16;  3744.99  68.91 )">(S/D *8)</text><text style="&st18;" transform="matrix(&st16;  3638.24  485.34 )" ewd:textID="48">Door Control <tspan x="0 " dy="6.0">Receiver</tspan></text><text style="&st18;" transform="matrix(&st16;  3561.74  580.22 )">I3</text><text style="&st18;" transform="matrix(&st16;  3561.75  519.33 )" ewd:textID="27">A/C Amplifier <tspan x="0 " dy="6.0">Assembly</tspan></text><text style="&st18;" transform="matrix(&st16;  3561.74  512.23 )">F124</text><text style="&st18;" transform="matrix(&st16;  3911.39  660.98 )">W-B</text><text style="&st18;" transform="matrix(&st16;  3749.03  315.37 )">(S/D)</text><text style="&st18;" transform="matrix(&st17;  3931.15  99.09 )">GR</text><text style="&st18;" transform="matrix(&st16;  3561.75  332.37 )" ewd:textID="39">Center Airbag <tspan x="0 " dy="6.0">Sensor Assembly </tspan><tspan x="0 " dy="6.0">(Airbag ECU </tspan><tspan x="0 " dy="6.0"> Assembly)</tspan></text><text style="&st18;" transform="matrix(&st17;  3931.15  160.71 )">W-B</text><text style="&st18;" transform="matrix(&st16;  3743.44  213.39 )">(S/D *30)</text><text style="&st18;" transform="matrix(&st16;  3511.96  474.01 )">W-B</text><text style="&st18;" transform="matrix(&st16;  3513.2  485.34 )">(*4)</text><text style="&st18;" transform="matrix(&st16;  3511.96  508.0 )">W-B</text><text style="&st18;" transform="matrix(&st16;  3638.24  247.38 )" ewd:textID="40">Center Stop Light <tspan x="0 " dy="6.0">Assembly</tspan></text><text style="&st18;" transform="matrix(&st16;  3561.75  621.32 )" ewd:textID="58">Front Seat Inner <tspan x="0 " dy="6.0">Belt Assembly LH</tspan></text><text style="&st18;" transform="matrix(&st16;  3561.75  587.32 )" ewd:textID="92">Rear Door Lock <tspan x="0 " dy="6.0">Assembly RH</tspan></text><text style="&st18;" transform="matrix(&st16;  3638.23  27.81 )">L6</text><text style="&st18;" transform="matrix(&st16;  3638.24  34.92 )" ewd:textID="96">Rear Light <tspan x="0 " dy="6.0">Assembly RH</tspan></text><text style="&st18;" transform="matrix(&st16;  3749.92  23.58 )">W-B</text><text style="&st18;" transform="matrix(&st16;  3636.3  542.0 )">W-B(H/B *8)</text><text style="&st18;" transform="matrix(&st16;  3585.31  542.0 )">W-B(H/B *8)</text><text style="&st18;" transform="matrix(&st16;  3511.96  542.0 )">W-B</text><text style="&st18;" transform="matrix(&st16;  3506.53  553.33 )">(H/B *8)</text><text style="&st18;" transform="matrix(&st16;  3749.92  542.0 )">W-B</text><text style="&st18;" transform="matrix(&st16;  3744.49  553.33 )">(H/B *8)</text><text style="&st18;" transform="matrix(&st16;  3636.3  652.48 )">W-B(H/B *8)</text><text style="&st18;" transform="matrix(&st16;  3585.31  652.48 )">W-B(H/B *8)</text><text style="&st18;" transform="matrix(&st16;  3511.96  652.48 )">W-B</text><text style="&st18;" transform="matrix(&st16;  3506.53  663.81 )">(H/B *8)</text><text style="&st18;" transform="matrix(&st16;  3749.92  652.48 )">W-B</text><text style="&st18;" transform="matrix(&st16;  3744.49  663.81 )">(H/B *8)</text><text style="&st18;" transform="matrix(&st16;  3748.52  349.36 )">(H/B)</text><text style="&st18;" transform="matrix(&st16;  3638.24  281.37 )" ewd:textID="89">Rear Combination <tspan x="0 " dy="6.0">Light Assembly LH</tspan></text><text style="&st18;" transform="matrix(&st16;  3638.23  274.27 )">F179</text><text style="&st18;" transform="matrix(&st16;  3638.24  349.36 )" ewd:textID="90">Rear Combination <tspan x="0 " dy="6.0">Light Assembly RH</tspan></text><text style="&st18;" transform="matrix(&st16;  3638.23  342.26 )">F180</text><text style="&st18;" transform="matrix(&st16;  3749.92  270.04 )">W-B</text><text style="&st18;" transform="matrix(&st16;  3749.92  338.03 )">W-B</text><text style="&st18;" transform="matrix(&st16;  3748.52  281.37 )">(H/B)</text><text style="&st18;" transform="matrix(&st16;  3749.03  383.36 )">(S/D)</text><text style="&st18;" transform="matrix(&st16;  3749.03  102.9 )">(S/D)</text><text style="&st18;" transform="matrix(&st16;  3749.03  34.92 )">(S/D)</text><text style="&st18;" transform="matrix(&st17;  3942.48  161.61 )">(S/D)</text><text style="&st18;" transform="matrix(&st17;  3942.48  102.12 )">(S/D)</text><text style="&st18;" transform="matrix(&st16;  3712.7  63.24 )">(E)</text><path style="stroke-width: 1.42 ;&st7;  " d=" M  3637.39,    52.78  L  3637.39,    78.27  L  3722.38,    78.27  L  3722.38,    52.78  L  3637.39,    52.78  " /><path style="stroke-width: 1.42 ;&st7;  " d=" M  3535.41,   316.23  L  3535.41,   375.72  L  3620.39,   375.72  L  3620.39,   316.23  L  3535.41,   316.23  " /><text style="&st18;" transform="matrix(&st16;  3537.14  326.7 )">(E1)</text><path style="stroke-width: 1.42 ;&st7;  " d=" M  3535.41,   469.21  L  3535.41,   494.70  L  3620.39,   494.70  L  3620.39,   469.21  L  3535.41,   469.21  " /><path style="stroke-width: 1.42 ;&st7;  " d=" M  3637.39,   503.20  L  3637.39,   528.70  L  3722.38,   528.70  L  3722.38,   503.20  L  3637.39,   503.20  " /><text style="&st18;" transform="matrix(&st16;  3703.63  513.67 )">(GND)</text><path style="stroke-width: 1.42 ;&st7;  " d=" M  3637.39,   469.21  L  3637.39,   494.70  L  3722.38,   494.70  L  3722.38,   469.21  L  3637.39,   469.21  " /><text style="&st18;" transform="matrix(&st16;  3703.63  479.67 )">(GND)</text><path style="stroke-width: 1.42 ;&st7;  " d=" M  3637.39,   435.21  L  3637.39,   460.71  L  3722.38,   460.71  L  3722.38,   435.21  L  3637.39,   435.21  " /><text style="&st18;" transform="matrix(&st16;  3712.7  445.68 )">(E)</text><path style="stroke-width: 1.42 ;&st7;  " d=" M  3637.39,   197.25  L  3637.39,   222.75  L  3722.38,   222.75  L  3722.38,   197.25  L  3637.39,   197.25  " /><path style="stroke-width: 1.42 ;&st7;  " d=" M  3637.39,   299.24  L  3637.39,   324.73  L  3722.38,   324.73  L  3722.38,   299.24  L  3637.39,   299.24  " /><path style="stroke-width: 1.42 ;&st7;  " d=" M  3637.39,   367.22  L  3637.39,   392.72  L  3722.38,   392.72  L  3722.38,   367.22  L  3637.39,   367.22  " /><text style="&st18;" transform="matrix(&st16;  3712.7  207.72 )">(E)</text><text style="&st18;" transform="matrix(&st16;  3712.7  309.7 )">(E)</text><text style="&st18;" transform="matrix(&st16;  3712.7  377.69 )">(E)</text><path style="stroke-width: 1.42 ;&st7;  " d=" M  3637.39,    86.77  L  3637.39,   112.27  L  3722.38,   112.27  L  3722.38,    86.77  L  3637.39,    86.77  " /><text style="&st18;" transform="matrix(&st16;  3700.99  97.24 )">(ACT-)</text><path style="stroke-width: 1.42 ;&st7;  " d=" M  3637.39,   401.22  L  3637.39,   426.71  L  3722.38,   426.71  L  3722.38,   401.22  L  3637.39,   401.22  " /><text style="&st18;" transform="matrix(&st16;  3712.7  411.69 )">(E)</text><text style="&st18;" transform="matrix(&st16;  3712.7  241.71 )">(E)</text><path style="stroke-width: 1.42 ;&st7;  " d=" M  3535.41,   605.18  L  3535.41,   630.68  L  3620.39,   630.68  L  3620.39,   605.18  L  3535.41,   605.18  " /><text style="&st18;" transform="matrix(&st16;  3537.14  615.65 )">(E)</text><text style="&st18;" transform="matrix(&st16;  3537.14  360.69 )">(E2)</text><path style="stroke-width: 1.42 ;&st7;  " d=" M  3535.41,   571.19  L  3535.41,   596.69  L  3620.39,   596.69  L  3620.39,   571.19  L  3535.41,   571.19  " /><path style="stroke-width: 1.42 ;&st7;  " d=" M  3535.41,   503.20  L  3535.41,   528.70  L  3620.39,   528.70  L  3620.39,   503.20  L  3535.41,   503.20  " /><path style="stroke-width: 1.42 ;&st7;  " d=" M  3637.39,   231.25  L  3637.39,   256.74  L  3722.38,   256.74  L  3722.38,   231.25  L  3637.39,   231.25  " /><text style="&st18;" transform="matrix(&st16;  3537.14  513.67 )">(GND)</text><text style="&st18;" transform="matrix(&st16;  3537.14  479.67 )">(GND)</text><text style="&st18;" transform="matrix(&st16;  3537.14  581.66 )">(E)</text><text style="&st18;" transform="matrix(&st16;  3712.7  29.25 )">(E)</text><path style="stroke-width: 1.42 ;&st7;  " d=" M  3637.39,    18.78  L  3637.39,    44.28  L  3722.38,    44.28  L  3722.38,    18.78  L  3637.39,    18.78  " /><path style="stroke-width: 1.42 ;&st7;  " d=" M  3637.39,   265.24  L  3637.39,   290.74  L  3722.38,   290.74  L  3722.38,   265.24  L  3637.39,   265.24  " /><path style="stroke-width: 1.42 ;&st7;  " d=" M  3637.39,   333.23  L  3637.39,   358.73  L  3722.38,   358.73  L  3722.38,   333.23  L  3637.39,   333.23  " /><text style="&st18;" transform="matrix(&st16;  3712.7  275.71 )">(E)</text><text style="&st18;" transform="matrix(&st16;  3712.7  343.7 )">(E)</text><g ewd:figtype="conn" ewd:figID="3" ewd:code="F168"><path style="stroke-width: 1.42 ;&st7;  " d=" M  3926.34,   418.22  L  3943.34,   418.22  L  3943.34,   197.25  L  3926.34,   197.25  L  3926.34,   418.22  " /><path style="stroke-width: 0.85 ;&st7;  " d=" M  3926.34,   341.73  L  3943.34,   341.73  " /><path style="stroke-width: 0.85 ;&st7;  " d=" M  3934.84,   418.22  L  3934.84,   205.75  " /><path style="stroke-width: 0.85 ;&st7;  " d=" M  3933.65,   340.73  L  3933.38,   341.20  L  3933.28,   341.73  L  3933.38,   342.26  L  3933.65,   342.73  L  3934.06,   343.08  L  3934.57,   343.26  L  3935.11,   343.26  L  3935.62,   343.08  L  3936.03,   342.73  L  3936.31,   342.26  L  3936.40,   341.73  L  3936.31,   341.20  L  3936.03,   340.73  L  3935.62,   340.38  L  3935.11,   340.19  L  3934.57,   340.19  L  3934.06,   340.38  L  3933.65,   340.73  L  3934.04,   341.44  L  3934.04,   342.02  L  3934.42,   342.46  L  3934.99,   342.56  L  3935.49,   342.28  L  3935.69,   341.73  L  3935.49,   341.18  L  3934.99,   340.89  L  3934.42,   340.99  L  3934.84,   341.73  " /><path style="stroke-width: 0.85 ;&st7;  " d=" M  3926.34,   273.74  L  3943.34,   273.74  " /><path style="stroke-width: 0.85 ;&st7;  " d=" M  3926.34,   205.75  L  3943.34,   205.75  " /><path style="stroke-width: 0.85 ;&st7;  " d=" M  3933.65,   272.74  L  3933.38,   273.21  L  3933.28,   273.74  L  3933.38,   274.27  L  3933.65,   274.74  L  3934.06,   275.09  L  3934.57,   275.28  L  3935.11,   275.28  L  3935.62,   275.09  L  3936.03,   274.74  L  3936.31,   274.27  L  3936.40,   273.74  L  3936.31,   273.21  L  3936.03,   272.74  L  3935.62,   272.39  L  3935.11,   272.20  L  3934.57,   272.20  L  3934.06,   272.39  L  3933.65,   272.74  L  3934.04,   273.45  L  3934.04,   274.03  L  3934.42,   274.48  L  3934.99,   274.58  L  3935.49,   274.29  L  3935.69,   273.74  L  3935.49,   273.19  L  3934.99,   272.90  L  3934.42,   273.00  L  3934.84,   273.74  " /><path style="stroke-width: 0.85 ;&st7;  " d=" M  3934.84,   205.75  L  3934.84,   197.25  " /><path style="stroke-width: 0.85 ;&st7;  " d=" M  3933.65,   204.75  L  3933.38,   205.22  L  3933.28,   205.75  L  3933.38,   206.28  L  3933.65,   206.75  L  3934.06,   207.10  L  3934.57,   207.29  L  3935.11,   207.29  L  3935.62,   207.10  L  3936.03,   206.75  L  3936.31,   206.28  L  3936.40,   205.75  L  3936.31,   205.22  L  3936.03,   204.75  L  3935.62,   204.40  L  3935.11,   204.22  L  3934.57,   204.22  L  3934.06,   204.40  L  3933.65,   204.75  L  3934.04,   205.46  L  3934.04,   206.04  L  3934.42,   206.49  L  3934.99,   206.59  L  3935.49,   206.30  L  3935.69,   205.75  L  3935.49,   205.20  L  3934.99,   204.92  L  3934.42,   205.01  L  3934.84,   205.75  " /><path style="stroke-width: 0.85 ;&st7;  " d=" M  3943.34,   375.72  L  3934.84,   375.72  " /><path style="stroke-width: 0.85 ;&st7;  " d=" M  3933.65,   374.72  L  3933.38,   375.19  L  3933.28,   375.72  L  3933.38,   376.26  L  3933.65,   376.73  L  3934.06,   377.07  L  3934.57,   377.26  L  3935.11,   377.26  L  3935.62,   377.07  L  3936.03,   376.73  L  3936.31,   376.26  L  3936.40,   375.72  L  3936.31,   375.19  L  3936.03,   374.72  L  3935.62,   374.37  L  3935.11,   374.19  L  3934.57,   374.19  L  3934.06,   374.37  L  3933.65,   374.72  L  3934.04,   375.43  L  3934.04,   376.01  L  3934.42,   376.46  L  3934.99,   376.56  L  3935.49,   376.27  L  3935.69,   375.72  L  3935.49,   375.18  L  3934.99,   374.89  L  3934.42,   374.99  L  3934.84,   375.72  " /><path style="stroke-width: 0.85 ;&st7;  " d=" M  3943.34,   409.72  L  3934.84,   409.72  " /><path style="stroke-width: 0.85 ;&st7;  " d=" M  3933.65,   408.71  L  3933.38,   409.18  L  3933.28,   409.72  L  3933.38,   410.25  L  3933.65,   410.72  L  3934.06,   411.07  L  3934.57,   411.25  L  3935.11,   411.25  L  3935.62,   411.07  L  3936.03,   410.72  L  3936.31,   410.25  L  3936.40,   409.72  L  3936.31,   409.18  L  3936.03,   408.71  L  3935.62,   408.37  L  3935.11,   408.18  L  3934.57,   408.18  L  3934.06,   408.37  L  3933.65,   408.71  L  3934.04,   409.43  L  3934.04,   410.01  L  3934.42,   410.45  L  3934.99,   410.55  L  3935.49,   410.26  L  3935.69,   409.72  L  3935.49,   409.17  L  3934.99,   408.88  L  3934.42,   408.98  L  3934.84,   409.72  " /><text style="&st18;" transform="matrix(&st16;  3920.16  338.04 )">7</text><text style="&st18;" transform="matrix(&st16;  3920.16  270.05 )">8</text><text style="&st18;" transform="matrix(&st16;  3917.06  202.06 )">10</text><text style="&st18;" transform="matrix(&st16;  3928.66  426.41 )">2</text><text style="&st18;" transform="matrix(&st16;  3928.66  193.56 )">1</text><text style="&st18;" transform="matrix(&st16;  3945.92  406.03 )">11</text><text style="&st18;" transform="matrix(&st16;  3945.92  372.03 )">5</text><text style="&st18;" transform="matrix(&st16;  3945.92  338.04 )">4</text><text style="&st18;" transform="matrix(&st16;  3945.92  270.05 )">12</text><text style="&st18;" transform="matrix(&st16;  3945.92  202.06 )">9</text><g ewd:figtype="title"><text style="&st18;" transform="matrix(&st16;  3939.94  181.66 )" ewd:textID="80">No. 19 <tspan x="0 " dy="6.0">Junction </tspan><tspan x="0 " dy="6.0">Connector</tspan></text><text style="&st18;" transform="matrix(&st16;  3939.93  174.83 )">F168</text></g></g><g ewd:figtype="w2w" ewd:figID="18" ewd:code="JF1"><path style="stroke-width: 1.42 ;&st7;  " d=" M  3807.93,   447.96  L  3803.68,   443.71  L  3807.93,   439.46  " /><path style="stroke-width: 1.42 ;&st7;  " d=" M  3804.53,   447.96  L  3800.28,   443.71  L  3804.53,   439.46  " /><text style="&st18;" transform="matrix(&st16;  3788.57  436.47 )">6</text></g><g ewd:figtype="w2w" ewd:figID="19" ewd:code="LF1"><path style="stroke-width: 1.42 ;&st7;  " d=" M  3939.09,   138.33  L  3934.84,   134.08  L  3930.59,   138.33  " /><path style="stroke-width: 1.42 ;&st7;  " d=" M  3939.09,   134.93  L  3934.84,   130.68  L  3930.59,   134.93  " /><text style="&st18;" transform="matrix(&st16;  3919.11  126.98 )">11</text></g><g ewd:figtype="gp" ewd:figID="37" ewd:code="FH"><path style="stroke-width: 0.85 ;&st7;  " d=" M  3883.85,   697.25  L  3883.85,   701.50  " /><path style="stroke-width: 0.85 ;&st7;  " d=" M  3875.35,   701.50  L  3892.35,   701.50  " /><path style="stroke-width: 0.85 ;&st7;  " d=" M  3879.60,   704.33  L  3888.10,   704.33  " /><path style="stroke-width: 0.85 ;&st7;  " d=" M  3881.02,   707.17  L  3886.68,   707.17  " /><path style="stroke-width: 0.85 ;&st7;  " d=" M  3882.43,   710.00  L  3885.27,   710.00  " /></g><g ewd:figtype="gp" ewd:figID="38" ewd:code="FI"><path style="stroke-width: 0.85 ;&st7;  " d=" M  3934.84,   697.25  L  3934.84,   701.50  " /><path style="stroke-width: 0.85 ;&st7;  " d=" M  3926.34,   701.50  L  3943.34,   701.50  " /><path style="stroke-width: 0.85 ;&st7;  " d=" M  3930.59,   704.33  L  3939.09,   704.33  " /><path style="stroke-width: 0.85 ;&st7;  " d=" M  3932.01,   707.17  L  3937.67,   707.17  " /><path style="stroke-width: 0.85 ;&st7;  " d=" M  3933.42,   710.00  L  3936.26,   710.00  " /></g></svg>