﻿<?xml version="1.0" encoding="utf-8"?>
<!DOCTYPE svg PUBLIC "-//W3C//DTD SVG 1.0//EN" "http://www.w3.org/TR/2001/REC-SVG-20010904/DTD/svg10.dtd"[
	<!ENTITY ns_flows "http://ns.adobe.com/Flows/1.0/">
	<!ENTITY ns_svg "http://www.w3.org/2000/svg">
	<!ENTITY ns_xlink "http://www.w3.org/1999/xlink">
	<!ENTITY st0 "font-size:7px;font-family:'MS-PGothic';adobe-font-script:japanese;">
	<!ENTITY st1 "font-size:6px;font-family:'ArialMT';">
	<!-- White fill  -->
	<!ENTITY st2 "fill:#FFFFFF;stroke:#000000; stroke-width:1.41;stroke-linecap:round;stroke-linejoin:round;">
	<!-- Yellow fill  -->
	<!ENTITY st3 "fill:#FFFFCC;stroke:#FFFFCC; stroke-width:0.1;stroke-linecap:round;stroke-linejoin:round;">
	<!-- Gray fill  -->
	<!ENTITY st4 "fill:#CCCCCC;stroke:#CCCCCC; stroke-width:0.1;stroke-linecap:round;stroke-linejoin:round;">
	<!-- Light-blue fill -->
	<!ENTITY st5 "fill:#CCECF4;stroke:#000000; stroke-width:1.133;stroke-linecap:round;stroke-linejoin:round;">
	<!ENTITY st6 "fill:none;stroke-linecap:butt; stroke-linejoin:round;">
	<!ENTITY st7 "fill:none;stroke:#000000;stroke-linecap:round;stroke-linejoin:round;">
	<!ENTITY st8 "enable-background:new    ;">
	<!-- Black fill -->
	<!ENTITY st9 "fill:#000000;stroke:#000000; stroke-linecap:round;stroke-linejoin:round;">
	<!-- SRS note   -->
	<!ENTITY st10 "font-size:9px;font-family:'ArialMT';">
	<!ENTITY st11 "font-size:9px;font-family:'Svg Symbol';">
	<!ENTITY st12 "font-size:6px;font-family:'Svg Symbol';">
	<!ENTITY st13 "fill:none;stroke:#ff0000;stroke-linecap:round;stroke-linejoin:round;">
	<!-- Yellow fill  -->
	<!ENTITY st14 "fill:#FFFF00;stroke:#FFFF00; stroke-width:0.1;stroke-linecap:round;stroke-linejoin:round;">
	<!ENTITY st15 "font-size:6px;font-family:'MS-PGothic';adobe-font-script:japanese;">
	<!ENTITY st16 "1.00 0.00 0.00 1.00">
	<!ENTITY st17 "0.00 -1.00 1.00 0.00">
	<!ENTITY st18 "font-size:6px;font-family:'Arial';">
	<!ENTITY st19 "font-size:9px;font-family:'Arial';">
	<!ENTITY st20 "font-size:6px;font-family:'MS-PGothic','MS PGothic';adobe-font-script:japanese;">
	<!ENTITY st21 "font-size:7px;font-family:'MS-PGothic','MS PGothic';adobe-font-script:japanese;">
	<!ATTLIST svg
		xmlns:ewd CDATA #FIXED "http://shcl.co.jp/ewd"
		xmlns:a CDATA #FIXED "http://ns.adobe.com/AdobeSVGViewerExtensions/3.0/"
		ewd:ver CDATA #IMPLIED
	>
	<!ATTLIST a
		ewd:lineID CDATA #IMPLIED
		ewd:groupID CDATA #IMPLIED
		ewd:figtype CDATA #IMPLIED
		ewd:code CDATA #IMPLIED
		ewd:figID CDATA #IMPLIED
		ewd:pinNo CDATA #IMPLIED
		ewd:comment CDATA #IMPLIED >
	<!ATTLIST g
		ewd:lineID CDATA #IMPLIED
		ewd:groupID CDATA #IMPLIED
		ewd:figtype CDATA #IMPLIED
		ewd:code CDATA #IMPLIED
		ewd:figID CDATA #IMPLIED
		ewd:pinNo CDATA #IMPLIED
		ewd:comment CDATA #IMPLIED >
	<!ATTLIST text
		ewd:textID CDATA #IMPLIED >
	<!ATTLIST title
		ewd:textID CDATA #IMPLIED >
]>
<!-- Generator: Shintec Hozumi YS   -->
<svg onload="call_execInitLoadProc_svg('system')" style="overflow:visible;  enable-background:new 0 0 1521.771 710.000" viewBox="0 0 1521.771 710.000" height="710.000" width="1521.771" xml:space="preserve" ewd:ver="2.2.0.10" xmlns="&ns_svg;" xmlns:a="http://ns.adobe.com/AdobeSVGViewerExtensions/3.0/" xmlns:ewd="http://shcl.co.jp/ewd" xmlns:xlink="&ns_xlink;">
<path style="stroke-width: 1.42 ;&st7;  " d=" M   909.35,   324.73  L   917.85,   324.73  " /><path style="stroke-width: 1.42 ;&st7;  " d=" M   832.86,   324.73  L   841.36,   324.73  " /><path style="stroke-width: 1.42 ;&st7;  " d=" M   926.35,   205.75  L   917.85,   205.75  " /><path style="stroke-width: 1.42 ;&st7;  " d=" M   841.36,   545.69  L   832.86,   545.69  " /><path style="stroke-width: 1.42 ;&st7;  " d=" M   849.86,   214.25  L   841.36,   214.25  " /><path style="stroke-width: 1.42 ;&st7;  " d=" M   611.90,   392.72  L   620.40,   392.72  " /><path style="stroke-width: 1.42 ;&st7;  " d=" M   628.89,   545.69  L   620.40,   545.69  " /><text style="&st18;" transform="matrix(&st17;  616.7  360.34 )">R</text><text style="&st18;" transform="matrix(&st17;  616.7  528.27 )">GR</text><text style="&st18;" transform="matrix(&st17;  616.7  419.9 )">B</text><text style="&st18;" transform="matrix(&st17;  616.7  203.11 )">R</text><text style="&st18;" transform="matrix(&st17;  616.7  309.35 )">R</text><text style="&st18;" transform="matrix(&st17;  616.7  659.73 )">BR</text><text style="&st18;" transform="matrix(&st17;  616.7  587.49 )">BR</text><text style="&st18;" transform="matrix(&st17;  914.15  235.07 )">GR</text><text style="&st18;" transform="matrix(&st17;  829.17  589.89 )">W-B</text><text style="&st18;" transform="matrix(&st17;  829.17  662.13 )">W-B</text><text style="&st18;" transform="matrix(&st17;  914.15  175.58 )">GR</text><text style="&st18;" transform="matrix(&st17;  837.66  352.19 )">G</text><text style="&st18;" transform="matrix(&st17;  829.17  526.15 )">W-B</text><text style="&st18;" transform="matrix(&st17;  837.66  194.69 )">B</text><text style="&st18;" transform="matrix(&st17;  837.66  237.18 )">B</text><text style="&st18;" transform="matrix(&st17;  914.15  354.05 )">GR</text><text style="&st18;" transform="matrix(&st17;  837.66  300.81 )">L</text><text style="&st18;" transform="matrix(&st17;  795.17  239.05 )">BR</text><text style="&st18;" transform="matrix(&st16;  727.47  24.98 )">F52(A)</text><text style="&st18;" transform="matrix(&st16;  727.47  32.08 )" ewd:textID="3">Body ECU</text><path style="stroke-width: 1.42 ;&st7;  " d=" M   628.89,   618.65  L   623.92,   613.68  " /><path style="stroke-width: 1.42 ;&st7;  " d=" M   611.90,   625.71  L   616.87,   630.68  " /><path style="stroke-width: 1.42 ;&st7;  " d=" M   623.92,   630.68  L   628.89,   625.71  " /><path style="stroke-width: 1.42 ;&st7;  " d=" M   616.87,   613.68  L   611.90,   618.65  " /><path style="stroke-width: 1.42 ;&st7;  " d=" M   628.89,   329.70  L   623.92,   324.73  " /><path style="stroke-width: 1.42 ;&st7;  " d=" M   611.90,   336.76  L   616.87,   341.73  " /><path style="stroke-width: 1.42 ;&st7;  " d=" M   623.92,   341.73  L   628.89,   336.76  " /><path style="stroke-width: 1.42 ;&st7;  " d=" M   616.87,   324.73  L   611.90,   329.70  " /><text style="&st18;" transform="matrix(&st17;  548.71  589.89 )">W-B</text><text style="&st18;" transform="matrix(&st17;  548.71  662.13 )">W-B</text><text style="&st18;" transform="matrix(&st17;  560.04  590.2 )">(*29)</text><text style="&st18;" transform="matrix(&st17;  560.04  662.44 )">(*29)</text><text style="&st18;" transform="matrix(&st17;  628.03  590.2 )">(*30)</text><text style="&st18;" transform="matrix(&st17;  628.03  662.44 )">(*30)</text><g ewd:figtype="rb" ewd:figID="2" ewd:code="FUSE2,FUSE57"><path style="stroke-width: 0.28 ;&st9;  " d=" M   841.36,   166.86  L   838.53,   164.03  L   838.53,   168.28  L   841.36,   171.11  L   844.19,   168.28  L   844.19,   164.03  L   841.36,   166.86  " /><path style="stroke-width: 1.42 ;&st7;   " d=" M   843.48,   180.26  C   845.83    180.26    847.73    178.35    847.73    176.01  " /><path style="stroke-width: 1.42 ;&st7;   " d=" M   834.99,   176.01  C   834.99    178.35    836.89    180.26    839.23    180.26  " /><path style="stroke-width: 1.42 ;&st7;   " d=" M   839.23,   171.76  C   836.89    171.76    834.99    173.66    834.99    176.01  " /><path style="stroke-width: 1.42 ;&st7;  " d=" M   843.48,   180.26  L   839.23,   180.26  " /><path style="stroke-width: 1.42 ;&st7;  " d=" M   843.48,   171.76  L   839.23,   171.76  " /><path style="stroke-width: 1.42 ;&st7;   " d=" M   847.73,   176.01  C   847.73    173.66    845.83    171.76    843.48    171.76  " /><text style="&st18;" transform="matrix(&st16;  857.78  132.66 )">7.5A <tspan x="0 " dy="6.0">DOME</tspan></text><text style="&st18;" transform="matrix(&st16;  839.56  177.98 )">1</text><text style="&st18;" transform="matrix(&st16;  835.18  162.95 )">2</text><text style="&st18;" transform="matrix(&st16;  833.32  108.57 )">(BAT)</text><path style="stroke-width: 0.85 ;&st7;  " d=" M   841.36,   154.76  L   841.36,   171.76  " /><path style="stroke-width: 1.42 ;&st7;  " d=" M   828.61,   112.27  L   828.61,   154.76  L   854.11,   154.76  L   854.11,   112.27  L   828.61,   112.27  " /><path style="stroke-width: 0.85 ;&st7;   " d=" M   842.78,   144.84  C   842.78    144.06    842.14    143.43    841.36    143.43  " /><path style="stroke-width: 0.85 ;&st7;   " d=" M   841.36,   143.43  C   840.58    143.43    839.94    144.06    839.94    144.84  " /><path style="stroke-width: 0.85 ;&st7;   " d=" M   839.94,   144.84  C   839.94    145.63    840.58    146.26    841.36    146.26  " /><path style="stroke-width: 0.85 ;&st7;   " d=" M   841.36,   146.26  C   842.14    146.26    842.78    145.63    842.78    144.84  " /><path style="stroke-width: 0.85 ;&st7;   " d=" M   842.78,   122.18  C   842.78    121.40    842.14    120.77    841.36    120.77  " /><path style="stroke-width: 0.85 ;&st7;   " d=" M   841.36,   120.77  C   840.58    120.77    839.94    121.40    839.94    122.18  " /><path style="stroke-width: 0.85 ;&st7;   " d=" M   839.94,   122.18  C   839.94    122.96    840.58    123.60    841.36    123.60  " /><path style="stroke-width: 0.85 ;&st7;   " d=" M   841.36,   123.60  C   842.14    123.60    842.78    122.96    842.78    122.18  " /><path style="stroke-width: 1.42 ;&st7;   " d=" M   841.36,   143.43  C   844.10    141.81    845.01    138.29    843.40    135.55  " /><path style="stroke-width: 1.42 ;&st7;   " d=" M   843.40,   135.55  C   842.88    134.67    842.24    134.03    841.36    133.51  " /><path style="stroke-width: 1.42 ;&st7;   " d=" M   841.36,   123.60  C   838.62    125.21    837.71    128.74    839.32    131.48  " /><path style="stroke-width: 1.42 ;&st7;   " d=" M   839.32,   131.48  C   839.84    132.36    840.48    132.99    841.36    133.51  " /><path style="stroke-width: 0.85 ;&st7;  " d=" M   841.36,   146.26  L   841.36,   154.76  " /></g><g ewd:figtype="conn" ewd:figID="6" ewd:code="F35"><path style="stroke-width: 1.42 ;&st7;  " d=" M   603.40,   273.74  L   637.39,   273.74  L   637.39,   231.25  L   603.40,   231.25  L   603.40,   273.74  " /><path style="stroke-width: 0.28 ;&st9;  " d=" M   620.40,   256.74  L   614.73,   248.24  L   626.06,   248.24  L   620.40,   256.74  " /><path style="stroke-width: 0.85 ;&st7;  " d=" M   620.40,   231.25  L   620.40,   273.74  " /><path style="stroke-width: 0.85 ;&st7;  " d=" M   624.65,   256.74  L   616.15,   256.74  " /><text style="&st18;" transform="matrix(&st16;  622.98  270.05 )">L</text><text style="&st18;" transform="matrix(&st16;  622.98  239.44 )">B</text><text style="&st18;" transform="matrix(&st16;  614.21  281.93 )">2</text><text style="&st18;" transform="matrix(&st16;  614.21  227.56 )">1</text><g ewd:figtype="title"><text style="&st18;" transform="matrix(&st17;  593.75  276.65 )" ewd:textID="6">Diode (Luggage <tspan x="0 " dy="6.0">Compartment Light)</tspan></text><text style="&st18;" transform="matrix(&st17;  586.93  276.64 )">F35</text></g></g><g ewd:figtype="conn" ewd:figID="7" ewd:code="L5"><path style="stroke-width: 0.85 ;&st7;   " d=" M   621.81,   457.88  C   621.81    457.09    621.18    456.46    620.40    456.46  " /><path style="stroke-width: 0.85 ;&st7;   " d=" M   620.40,   456.46  C   619.61    456.46    618.98    457.09    618.98    457.88  " /><path style="stroke-width: 0.85 ;&st7;   " d=" M   618.98,   457.88  C   618.98    458.66    619.61    459.29    620.40    459.29  " /><path style="stroke-width: 0.85 ;&st7;   " d=" M   620.40,   459.29  C   621.18    459.29    621.81    458.66    621.81    457.88  " /><path style="stroke-width: 0.85 ;&st7;   " d=" M   621.81,   480.54  C   621.81    479.76    621.18    479.12    620.40    479.12  " /><path style="stroke-width: 0.85 ;&st7;   " d=" M   620.40,   479.12  C   619.61    479.12    618.98    479.76    618.98    480.54  " /><path style="stroke-width: 0.85 ;&st7;   " d=" M   618.98,   480.54  C   618.98    481.32    619.61    481.95    620.40    481.95  " /><path style="stroke-width: 0.85 ;&st7;   " d=" M   620.40,   481.95  C   621.18    481.95    621.81    481.32    621.81    480.54  " /><path style="stroke-width: 1.42 ;&st7;  " d=" M   645.89,   503.20  L   645.89,   435.21  L   594.90,   435.21  L   594.90,   503.20  L   645.89,   503.20  " /><path style="stroke-width: 0.85 ;&st7;  " d=" M   620.40,   456.46  L   620.40,   435.21  " /><path style="stroke-width: 0.85 ;&st7;  " d=" M   620.40,   503.20  L   620.40,   481.95  " /><path style="stroke-width: 1.42 ;&st7;  " d=" M   620.40,   479.12  L   626.06,   456.46  " /><text style="&st18;" transform="matrix(&st16;  622.98  443.41 )">D+</text><text style="&st18;" transform="matrix(&st17;  613.87  480.67 )" ewd:textID="5">Courtesy</text><text style="&st18;" transform="matrix(&st16;  622.98  499.51 )">ACT-</text><text style="&st18;" transform="matrix(&st16;  614.21  511.39 )">2</text><text style="&st18;" transform="matrix(&st16;  614.21  431.52 )">3</text><g ewd:figtype="title"><text style="&st18;" transform="matrix(&st17;  660.61  506.11 )" ewd:textID="11">Luggage Compartment Door Lock Assembly</text><text style="&st18;" transform="matrix(&st17;  653.5  506.1 )">L5</text></g></g><g ewd:figtype="conn" ewd:figID="10" ewd:code="F63"><path style="stroke-width: 1.42 ;&st7;  " d=" M   824.36,   613.68  L   841.36,   613.68  L   841.36,   630.68  L   824.36,   630.68  L   824.36,   613.68  " /><path style="stroke-width: 0.85 ;&st7;  " d=" M   832.86,   613.68  L   832.86,   630.68  " /><text style="&st18;" transform="matrix(&st16;  826.68  638.87 )">9</text><text style="&st18;" transform="matrix(&st16;  823.57  609.99 )">10</text><g ewd:figtype="title"><text style="&st18;" transform="matrix(&st16;  843.61  615.63 )">F63</text><text style="&st18;" transform="matrix(&st16;  843.62  622.73 )" ewd:textID="13">No. 1 Junction Connector</text></g></g><g ewd:figtype="conn" ewd:figID="11" ewd:code="F68"><path style="stroke-width: 1.42 ;&st7;  " d=" M   790.37,   256.74  L   849.86,   256.74  L   849.86,   273.74  L   790.37,   273.74  L   790.37,   256.74  " /><path style="stroke-width: 0.85 ;&st7;  " d=" M   840.17,   264.24  L   839.89,   264.71  L   839.80,   265.24  L   839.89,   265.77  L   840.17,   266.24  L   840.58,   266.59  L   841.09,   266.78  L   841.63,   266.78  L   842.14,   266.59  L   842.55,   266.24  L   842.82,   265.77  L   842.92,   265.24  L   842.82,   264.71  L   842.55,   264.24  L   842.14,   263.89  L   841.63,   263.71  L   841.09,   263.71  L   840.58,   263.89  L   840.17,   264.24  L   840.56,   264.95  L   840.56,   265.53  L   840.93,   265.98  L   841.51,   266.08  L   842.01,   265.79  L   842.21,   265.24  L   842.01,   264.69  L   841.51,   264.41  L   840.93,   264.50  L   841.36,   265.24  " /><path style="stroke-width: 0.85 ;&st7;  " d=" M   841.36,   265.24  L   798.87,   265.24  L   798.87,   256.74  " /><path style="stroke-width: 0.85 ;&st7;  " d=" M   841.36,   256.74  L   841.36,   273.74  " /><text style="&st18;" transform="matrix(&st16;  790.17  254.18 )">6</text><path style="stroke-width: 1.42 ;&st7;   " d=" M   803.40,   252.21  C   803.40    249.71    801.37    247.68    798.87    247.68  " /><path style="stroke-width: 1.42 ;&st7;   " d=" M   798.87,   247.68  C   796.36    247.68    794.33    249.71    794.33    252.21  " /><path style="stroke-width: 1.42 ;&st7;   " d=" M   794.33,   252.21  C   794.33    254.71    796.36    256.74    798.87    256.74  " /><path style="stroke-width: 1.42 ;&st7;   " d=" M   798.87,   256.74  C   801.37    256.74    803.40    254.71    803.40    252.21  " /><text style="&st18;" transform="matrix(&st16;  796.56  254.18 )">A</text><text style="&st18;" transform="matrix(&st16;  832.67  280.24 )">7</text><text style="&st18;" transform="matrix(&st16;  839.05  280.24 )">A</text><path style="stroke-width: 1.42 ;&st7;   " d=" M   845.89,   278.27  C   845.89    275.77    843.86    273.74    841.36    273.74  " /><path style="stroke-width: 1.42 ;&st7;   " d=" M   841.36,   273.74  C   838.86    273.74    836.83    275.77    836.83    278.27  " /><path style="stroke-width: 1.42 ;&st7;   " d=" M   836.83,   278.27  C   836.83    280.78    838.86    282.80    841.36    282.80  " /><path style="stroke-width: 1.42 ;&st7;   " d=" M   841.36,   282.80  C   843.86    282.80    845.89    280.78    845.89    278.27  " /><text style="&st18;" transform="matrix(&st16;  832.67  254.18 )">5</text><text style="&st18;" transform="matrix(&st16;  839.05  254.18 )">A</text><path style="stroke-width: 1.42 ;&st7;   " d=" M   845.89,   252.21  C   845.89    249.71    843.86    247.68    841.36    247.68  " /><path style="stroke-width: 1.42 ;&st7;   " d=" M   841.36,   247.68  C   838.86    247.68    836.83    249.71    836.83    252.21  " /><path style="stroke-width: 1.42 ;&st7;   " d=" M   836.83,   252.21  C   836.83    254.71    838.86    256.74    841.36    256.74  " /><path style="stroke-width: 1.42 ;&st7;   " d=" M   841.36,   256.74  C   843.86    256.74    845.89    254.71    845.89    252.21  " /><g ewd:figtype="title"><text style="&st18;" transform="matrix(&st16;  786.96  288.46 )" ewd:textID="16">No. 6 <tspan x="0 " dy="6.0">Junction </tspan><tspan x="0 " dy="6.0">Connector</tspan></text><text style="&st18;" transform="matrix(&st16;  786.96  281.35 )">F68(A)</text></g></g><g ewd:figtype="conn" ewd:figID="12" ewd:code="K1"><path style="stroke-width: 1.42 ;&st7;  " d=" M   815.86,   367.22  L   943.34,   367.22  L   943.34,   494.70  L   815.86,   494.70  L   815.86,   367.22  " /><path style="stroke-width: 0.85 ;&st7;  " d=" M   900.85,   469.21  L   900.85,   477.71  L   917.85,   477.71  L   917.85,   367.22  " /><path style="stroke-width: 0.85 ;&st7;  " d=" M   831.67,   476.70  L   831.40,   477.17  L   831.30,   477.71  L   831.40,   478.24  L   831.67,   478.71  L   832.08,   479.05  L   832.59,   479.24  L   833.13,   479.24  L   833.64,   479.05  L   834.05,   478.71  L   834.33,   478.24  L   834.42,   477.71  L   834.33,   477.17  L   834.05,   476.70  L   833.64,   476.36  L   833.13,   476.17  L   832.59,   476.17  L   832.08,   476.36  L   831.67,   476.70  L   832.06,   477.41  L   832.06,   478.00  L   832.44,   478.44  L   833.01,   478.54  L   833.51,   478.25  L   833.71,   477.71  L   833.51,   477.16  L   833.01,   476.87  L   832.44,   476.97  L   832.86,   477.71  " /><path style="stroke-width: 0.85 ;&st7;  " d=" M   832.86,   452.21  L   875.35,   452.21  L   875.35,   435.21  " /><path style="stroke-width: 0.85 ;&st7;  " d=" M   831.67,   451.21  L   831.40,   451.68  L   831.30,   452.21  L   831.40,   452.74  L   831.67,   453.21  L   832.08,   453.56  L   832.59,   453.75  L   833.13,   453.75  L   833.64,   453.56  L   834.05,   453.21  L   834.33,   452.74  L   834.42,   452.21  L   834.33,   451.68  L   834.05,   451.21  L   833.64,   450.86  L   833.13,   450.67  L   832.59,   450.67  L   832.08,   450.86  L   831.67,   451.21  L   832.06,   451.92  L   832.06,   452.50  L   832.44,   452.95  L   833.01,   453.05  L   833.51,   452.76  L   833.71,   452.21  L   833.51,   451.66  L   833.01,   451.37  L   832.44,   451.47  L   832.86,   452.21  " /><path style="stroke-width: 0.85 ;&st7;   " d=" M   885.27,   467.79  C   885.27    467.01    884.63    466.37    883.85    466.37  " /><path style="stroke-width: 0.85 ;&st7;   " d=" M   883.85,   466.37  C   883.07    466.37    882.44    467.01    882.44    467.79  " /><path style="stroke-width: 0.85 ;&st7;   " d=" M   882.44,   467.79  C   882.44    468.57    883.07    469.21    883.85    469.21  " /><path style="stroke-width: 0.85 ;&st7;   " d=" M   883.85,   469.21  C   884.63    469.21    885.27    468.57    885.27    467.79  " /><path style="stroke-width: 0.85 ;&st7;   " d=" M   893.77,   467.79  C   893.77    467.01    893.13    466.37    892.35    466.37  " /><path style="stroke-width: 0.85 ;&st7;   " d=" M   892.35,   466.37  C   891.57    466.37    890.93    467.01    890.93    467.79  " /><path style="stroke-width: 0.85 ;&st7;   " d=" M   890.93,   467.79  C   890.93    468.57    891.57    469.21    892.35    469.21  " /><path style="stroke-width: 0.85 ;&st7;   " d=" M   892.35,   469.21  C   893.13    469.21    893.77    468.57    893.77    467.79  " /><path style="stroke-width: 0.85 ;&st7;   " d=" M   902.27,   467.79  C   902.27    467.01    901.63    466.37    900.85    466.37  " /><path style="stroke-width: 0.85 ;&st7;   " d=" M   900.85,   466.37  C   900.07    466.37    899.43    467.01    899.43    467.79  " /><path style="stroke-width: 0.85 ;&st7;   " d=" M   899.43,   467.79  C   899.43    468.57    900.07    469.21    900.85    469.21  " /><path style="stroke-width: 0.85 ;&st7;   " d=" M   900.85,   469.21  C   901.63    469.21    902.27    468.57    902.27    467.79  " /><path style="stroke-width: 0.85 ;&st7;   " d=" M   893.77,   450.79  C   893.77    450.01    893.13    449.38    892.35    449.38  " /><path style="stroke-width: 0.85 ;&st7;   " d=" M   892.35,   449.38  C   891.57    449.38    890.93    450.01    890.93    450.79  " /><path style="stroke-width: 0.85 ;&st7;   " d=" M   890.93,   450.79  C   890.93    451.58    891.57    452.21    892.35    452.21  " /><path style="stroke-width: 0.85 ;&st7;   " d=" M   892.35,   452.21  C   893.13    452.21    893.77    451.58    893.77    450.79  " /><path style="stroke-width: 0.85 ;&st7;   " d=" M   876.77,   433.80  C   876.77    433.01    876.14    432.38    875.35    432.38  " /><path style="stroke-width: 0.85 ;&st7;   " d=" M   875.35,   432.38  C   874.57    432.38    873.94    433.01    873.94    433.80  " /><path style="stroke-width: 0.85 ;&st7;   " d=" M   873.94,   433.80  C   873.94    434.58    874.57    435.21    875.35    435.21  " /><path style="stroke-width: 0.85 ;&st7;   " d=" M   875.35,   435.21  C   876.14    435.21    876.77    434.58    876.77    433.80  " /><path style="stroke-width: 0.85 ;&st7;   " d=" M   883.85,   405.47  C   885.41    405.48    886.68    404.22    886.69    402.67  " /><path style="stroke-width: 0.85 ;&st7;   " d=" M   886.69,   402.67  C   886.69    401.11    885.44    399.85    883.89    399.84  " /><path style="stroke-width: 0.85 ;&st7;   " d=" M   883.89,   399.84  C   882.85    399.83    881.97    400.33    881.45    401.22  " /><path style="stroke-width: 0.85 ;&st7;   " d=" M   893.77,   433.80  C   893.77    433.01    893.13    432.38    892.35    432.38  " /><path style="stroke-width: 0.85 ;&st7;   " d=" M   892.35,   432.38  C   891.57    432.38    890.93    433.01    890.93    433.80  " /><path style="stroke-width: 0.85 ;&st7;   " d=" M   890.93,   433.80  C   890.93    434.58    891.57    435.21    892.35    435.21  " /><path style="stroke-width: 0.85 ;&st7;   " d=" M   892.35,   435.21  C   893.13    435.21    893.77    434.58    893.77    433.80  " /><path style="stroke-width: 1.42 ;&st7;   " d=" M   892.35,   401.22  C   892.35    396.52    888.55    392.72    883.85    392.72  " /><path style="stroke-width: 1.42 ;&st7;   " d=" M   883.85,   392.72  C   879.16    392.72    875.35    396.52    875.35    401.22  " /><path style="stroke-width: 1.42 ;&st7;   " d=" M   875.35,   401.22  C   875.35    405.91    879.16    409.72    883.85    409.72  " /><path style="stroke-width: 1.42 ;&st7;   " d=" M   883.85,   409.72  C   888.55    409.72    892.35    405.91    892.35    401.22  " /><path style="stroke-width: 0.85 ;&st7;  " d=" M   892.35,   443.71  L   849.86,   443.71  L   849.86,   435.21  " /><path style="stroke-width: 0.85 ;&st7;  " d=" M   891.16,   442.71  L   890.89,   443.18  L   890.79,   443.71  L   890.89,   444.24  L   891.16,   444.71  L   891.57,   445.06  L   892.08,   445.25  L   892.62,   445.25  L   893.13,   445.06  L   893.54,   444.71  L   893.82,   444.24  L   893.91,   443.71  L   893.82,   443.18  L   893.54,   442.71  L   893.13,   442.36  L   892.62,   442.18  L   892.08,   442.18  L   891.57,   442.36  L   891.16,   442.71  L   891.55,   443.42  L   891.55,   444.00  L   891.93,   444.45  L   892.50,   444.55  L   893.00,   444.26  L   893.20,   443.71  L   893.00,   443.16  L   892.50,   442.88  L   891.93,   442.97  L   892.35,   443.71  " /><path style="stroke-width: 0.85 ;&st7;   " d=" M   885.27,   416.80  C   885.27    416.02    884.63    415.38    883.85    415.38  " /><path style="stroke-width: 0.85 ;&st7;   " d=" M   883.85,   415.38  C   883.07    415.38    882.44    416.02    882.44    416.80  " /><path style="stroke-width: 0.85 ;&st7;   " d=" M   882.44,   416.80  C   882.44    417.58    883.07    418.22    883.85    418.22  " /><path style="stroke-width: 0.85 ;&st7;   " d=" M   883.85,   418.22  C   884.63    418.22    885.27    417.58    885.27    416.80  " /><path style="stroke-width: 0.85 ;&st7;   " d=" M   881.44,   401.22  C   882.24    402.56    883.96    403.00    885.30    402.21  " /><path style="stroke-width: 0.85 ;&st7;   " d=" M   885.30,   402.21  C   886.64    401.42    887.09    399.69    886.29    398.35  " /><path style="stroke-width: 0.85 ;&st7;   " d=" M   886.29,   398.35  C   885.77    397.46    884.89    396.96    883.85    396.97  " /><path style="stroke-width: 0.85 ;&st7;  " d=" M   840.17,   383.22  L   839.89,   383.69  L   839.80,   384.22  L   839.89,   384.75  L   840.17,   385.22  L   840.58,   385.57  L   841.09,   385.76  L   841.63,   385.76  L   842.14,   385.57  L   842.55,   385.22  L   842.82,   384.75  L   842.92,   384.22  L   842.82,   383.69  L   842.55,   383.22  L   842.14,   382.87  L   841.63,   382.69  L   841.09,   382.69  L   840.58,   382.87  L   840.17,   383.22  L   840.56,   383.93  L   840.56,   384.51  L   840.93,   384.96  L   841.51,   385.06  L   842.01,   384.77  L   842.21,   384.22  L   842.01,   383.67  L   841.51,   383.39  L   840.93,   383.48  L   841.36,   384.22  " /><path style="stroke-width: 0.85 ;&st7;   " d=" M   834.28,   433.80  C   834.28    433.01    833.64    432.38    832.86    432.38  " /><path style="stroke-width: 0.85 ;&st7;   " d=" M   832.86,   432.38  C   832.08    432.38    831.44    433.01    831.44    433.80  " /><path style="stroke-width: 0.85 ;&st7;   " d=" M   831.44,   433.80  C   831.44    434.58    832.08    435.21    832.86    435.21  " /><path style="stroke-width: 0.85 ;&st7;   " d=" M   832.86,   435.21  C   833.64    435.21    834.28    434.58    834.28    433.80  " /><path style="stroke-width: 0.85 ;&st7;  " d=" M   892.35,   435.21  L   892.35,   449.38  " /><path style="stroke-width: 0.85 ;&st7;  " d=" M   883.85,   469.21  L   883.85,   477.71  L   832.86,   477.71  " /><path style="stroke-width: 0.85 ;&st7;  " d=" M   883.85,   392.72  L   883.85,   384.22  L   841.36,   384.22  " /><path style="stroke-width: 0.85 ;&st7;  " d=" M   841.36,   367.22  L   841.36,   392.72  " /><path style="stroke-width: 0.85 ;&st7;  " d=" M   883.85,   415.38  L   883.85,   405.47  " /><path style="stroke-width: 0.85 ;&st7;  " d=" M   883.85,   392.72  L   883.85,   396.97  " /><path style="stroke-width: 0.85 ;&st7;  " d=" M   841.36,   415.38  L   841.36,   405.47  " /><path style="stroke-width: 0.85 ;&st7;   " d=" M   841.36,   405.47  C   842.91    405.48    844.18    404.22    844.19    402.67  " /><path style="stroke-width: 0.85 ;&st7;   " d=" M   844.19,   402.67  C   844.20    401.11    842.95    399.85    841.39    399.84  " /><path style="stroke-width: 0.85 ;&st7;   " d=" M   841.39,   399.84  C   840.36    399.83    839.48    400.33    838.95    401.22  " /><path style="stroke-width: 0.85 ;&st7;   " d=" M   851.27,   433.80  C   851.27    433.01    850.64    432.38    849.86    432.38  " /><path style="stroke-width: 0.85 ;&st7;   " d=" M   849.86,   432.38  C   849.08    432.38    848.44    433.01    848.44    433.80  " /><path style="stroke-width: 0.85 ;&st7;   " d=" M   848.44,   433.80  C   848.44    434.58    849.08    435.21    849.86    435.21  " /><path style="stroke-width: 0.85 ;&st7;   " d=" M   849.86,   435.21  C   850.64    435.21    851.27    434.58    851.27    433.80  " /><path style="stroke-width: 0.85 ;&st7;  " d=" M   841.36,   392.72  L   841.36,   396.97  " /><path style="stroke-width: 0.85 ;&st7;  " d=" M   832.86,   494.70  L   832.86,   435.21  " /><path style="stroke-width: 1.42 ;&st7;   " d=" M   849.86,   401.22  C   849.86    396.52    846.05    392.72    841.36    392.72  " /><path style="stroke-width: 1.42 ;&st7;   " d=" M   841.36,   392.72  C   836.67    392.72    832.86    396.52    832.86    401.22  " /><path style="stroke-width: 1.42 ;&st7;   " d=" M   832.86,   401.22  C   832.86    405.91    836.67    409.72    841.36    409.72  " /><path style="stroke-width: 1.42 ;&st7;   " d=" M   841.36,   409.72  C   846.05    409.72    849.86    405.91    849.86    401.22  " /><path style="stroke-width: 0.85 ;&st7;   " d=" M   842.78,   416.80  C   842.78    416.02    842.14    415.38    841.36    415.38  " /><path style="stroke-width: 0.85 ;&st7;   " d=" M   841.36,   415.38  C   840.58    415.38    839.94    416.02    839.94    416.80  " /><path style="stroke-width: 0.85 ;&st7;   " d=" M   839.94,   416.80  C   839.94    417.58    840.58    418.22    841.36    418.22  " /><path style="stroke-width: 0.85 ;&st7;   " d=" M   841.36,   418.22  C   842.14    418.22    842.78    417.58    842.78    416.80  " /><path style="stroke-width: 0.85 ;&st7;   " d=" M   838.95,   401.22  C   839.74    402.56    841.47    403.00    842.81    402.21  " /><path style="stroke-width: 0.85 ;&st7;   " d=" M   842.81,   402.21  C   844.15    401.42    844.59    399.69    843.80    398.35  " /><path style="stroke-width: 0.85 ;&st7;   " d=" M   843.80,   398.35  C   843.28    397.46    842.39    396.96    841.36    396.97  " /><text style="&st18;" transform="matrix(&st16;  835.44  491.01 )">E</text><text style="&st18;" transform="matrix(&st16;  920.43  375.42 )">CTY</text><text style="&st18;" transform="matrix(&st16;  843.94  375.42 )">B</text><text style="&st18;" transform="matrix(&st17;  853.24  431.04 )">OFF</text><text style="&st18;" transform="matrix(&st17;  833.41  431.04 )">ON</text><text style="&st18;" transform="matrix(&st17;  895.74  431.04 )">OFF</text><text style="&st18;" transform="matrix(&st17;  875.91  431.04 )">ON</text><text style="&st18;" transform="matrix(&st17;  891.49  465.03 )">OFF</text><text style="&st18;" transform="matrix(&st17;  907.07  465.03 )">DOOR</text><text style="&st18;" transform="matrix(&st17;  884.41  465.03 )">ON</text><path style="stroke-width: 1.42 ;&st7;  " d=" M   892.85,   452.12  L   899.26,   469.21  " /><path style="stroke-width: 1.42 ;&st7;  " d=" M   884.35,   418.12  L   890.76,   435.21  " /><path style="stroke-width: 1.42 ;&st7;  " d=" M   841.86,   418.12  L   848.27,   435.21  " /><text style="&st18;" transform="matrix(&st16;  826.68  502.9 )">4</text><text style="&st18;" transform="matrix(&st16;  835.17  363.53 )">1</text><text style="&st18;" transform="matrix(&st16;  911.66  363.53 )">3</text><g ewd:figtype="title"><text style="&st18;" transform="matrix(&st16;  888.95  509.42 )" ewd:textID="12">Map Light Assembly</text><text style="&st18;" transform="matrix(&st16;  888.94  502.6 )">K1</text></g></g><g ewd:figtype="conn" ewd:figID="15" ewd:code="F59"><path style="stroke-width: 0.85 ;&st7;   " d=" M   620.40,   167.51  C   621.95    167.52    623.22    166.26    623.23    164.71  " /><path style="stroke-width: 0.85 ;&st7;   " d=" M   623.23,   164.71  C   623.24    163.15    621.99    161.88    620.43    161.88  " /><path style="stroke-width: 0.85 ;&st7;   " d=" M   620.43,   161.88  C   619.40    161.87    618.51    162.37    617.99    163.26  " /><path style="stroke-width: 0.85 ;&st7;   " d=" M   617.99,   163.26  C   618.78    164.60    620.51    165.04    621.85    164.25  " /><path style="stroke-width: 0.85 ;&st7;   " d=" M   621.85,   164.25  C   623.19    163.46    623.63    161.73    622.84    160.39  " /><path style="stroke-width: 0.85 ;&st7;   " d=" M   622.84,   160.39  C   622.31    159.50    621.43    159.00    620.40    159.01  " /><path style="stroke-width: 1.42 ;&st7;   " d=" M   628.89,   163.26  C   628.89    158.56    625.09    154.76    620.40    154.76  " /><path style="stroke-width: 1.42 ;&st7;   " d=" M   620.40,   154.76  C   615.70    154.76    611.90    158.56    611.90    163.26  " /><path style="stroke-width: 1.42 ;&st7;   " d=" M   611.90,   163.26  C   611.90    167.95    615.70    171.76    620.40    171.76  " /><path style="stroke-width: 1.42 ;&st7;   " d=" M   620.40,   171.76  C   625.09    171.76    628.89    167.95    628.89    163.26  " /><path style="stroke-width: 0.85 ;&st7;  " d=" M   620.40,   154.76  L   620.40,   159.01  " /><path style="stroke-width: 0.85 ;&st7;  " d=" M   620.40,   167.51  L   620.40,   171.76  " /><text style="&st18;" transform="matrix(&st16;  614.21  179.95 )">2</text><text style="&st18;" transform="matrix(&st16;  614.21  151.07 )">1</text><g ewd:figtype="title"><text style="&st18;" transform="matrix(&st17;  636.79  174.66 )">F59</text><text style="&st18;" transform="matrix(&st17;  643.61  174.66 )" ewd:textID="14">No. 1 Luggage <tspan x="0 " dy="6.0">Compartment Light </tspan><tspan x="0 " dy="6.0">Assembly</tspan></text></g></g><g ewd:figtype="conn" ewd:figID="16" ewd:code="F70"><path style="stroke-width: 1.42 ;&st7;  " d=" M   543.91,   613.68  L   560.91,   613.68  L   560.91,   630.68  L   543.91,   630.68  L   543.91,   613.68  " /><path style="stroke-width: 0.85 ;&st7;  " d=" M   552.41,   613.68  L   552.41,   630.68  " /><text style="&st18;" transform="matrix(&st16;  546.22  638.87 )">2</text><text style="&st18;" transform="matrix(&st16;  543.12  609.99 )">11</text><g ewd:figtype="title"><text style="&st18;" transform="matrix(&st16;  563.16  615.63 )">F70</text><text style="&st18;" transform="matrix(&st16;  563.17  622.73 )" ewd:textID="17">No. 7 <tspan x="0 " dy="6.0">Junction </tspan><tspan x="0 " dy="6.0">Connector</tspan></text></g></g><g ewd:figtype="conn" ewd:figID="19" ewd:code="F52"><g ewd:lineID="50"><text style="&st18;" transform="matrix(&st16;  913.02  74.58 )">ILE</text></g></g><g ewd:figtype="jb" ewd:figID="21" ewd:code="2"><path style="stroke-width: 0.28 ;&st9;  " d=" M   917.85,   115.87  L   915.01,   113.04  L   915.01,   117.29  L   917.85,   120.12  L   920.68,   117.29  L   920.68,   113.04  L   917.85,   115.87  " /><path style="stroke-width: 1.42 ;&st7;  " d=" M   919.97,   129.26  L   915.72,   129.26  " /><path style="stroke-width: 1.42 ;&st7;  " d=" M   919.97,   120.77  L   915.72,   120.77  " /><path style="stroke-width: 0.85 ;&st7;  " d=" M   917.85,   120.77  L   917.85,    78.27  " /><path style="stroke-width: 1.42 ;&st7;   " d=" M   924.22,   125.01  C   924.22    122.67    922.32    120.77    919.97    120.77  " /><path style="stroke-width: 1.42 ;&st7;   " d=" M   919.97,   129.26  C   922.32    129.26    924.22    127.36    924.22    125.01  " /><path style="stroke-width: 1.42 ;&st7;   " d=" M   911.47,   125.01  C   911.47    127.36    913.38    129.26    915.72    129.26  " /><path style="stroke-width: 1.42 ;&st7;   " d=" M   915.72,   120.77  C   913.38    120.77    911.47    122.67    911.47    125.01  " /><text style="&st18;" transform="matrix(&st16;  913.91  126.98 )">2D</text><text style="&st18;" transform="matrix(&st16;  904.24  126.98 )">13</text><text style="&st18;" transform="matrix(&st16;  911.66  86.47 )">8</text></g><g ewd:figtype="w2w" ewd:figID="26" ewd:code="LF1"><path style="stroke-width: 1.42 ;&st7;  " d=" M   624.65,   551.36  L   620.40,   547.11  L   616.15,   551.36  " /><path style="stroke-width: 1.42 ;&st7;  " d=" M   624.65,   554.76  L   620.40,   550.51  L   616.15,   554.76  " /><text style="&st18;" transform="matrix(&st16;  604.66  543.41 )">11</text></g><g ewd:figtype="w2w" ewd:figID="27" ewd:code="LF1"><path style="stroke-width: 1.42 ;&st7;  " d=" M   616.15,   383.65  L   620.40,   387.90  L   624.65,   383.65  " /><path style="stroke-width: 1.42 ;&st7;  " d=" M   624.65,   387.05  L   620.40,   391.30  L   616.15,   387.05  " /><text style="&st18;" transform="matrix(&st16;  607.76  398.94 )">7</text></g><g ewd:figtype="w2w" ewd:figID="28" ewd:code="KF1"><path style="stroke-width: 1.42 ;&st7;  " d=" M   837.11,   554.76  L   832.86,   550.51  L   828.61,   554.76  " /><path style="stroke-width: 1.42 ;&st7;  " d=" M   837.11,   551.36  L   832.86,   547.11  L   828.61,   551.36  " /><text style="&st18;" transform="matrix(&st16;  820.23  543.41 )">3</text></g><g ewd:figtype="w2w" ewd:figID="29" ewd:code="KF1"><path style="stroke-width: 1.42 ;&st7;  " d=" M   845.61,   319.07  L   841.36,   323.31  L   837.11,   319.07  " /><path style="stroke-width: 1.42 ;&st7;  " d=" M   837.11,   315.67  L   841.36,   319.92  L   845.61,   315.67  " /><text style="&st18;" transform="matrix(&st16;  828.73  330.95 )">6</text></g><g ewd:figtype="w2w" ewd:figID="30" ewd:code="AF5"><path style="stroke-width: 1.42 ;&st7;  " d=" M   845.61,   223.31  L   841.36,   219.07  L   837.11,   223.31  " /><path style="stroke-width: 1.42 ;&st7;  " d=" M   845.61,   219.92  L   841.36,   215.67  L   837.11,   219.92  " /><text style="&st18;" transform="matrix(&st16;  825.63  211.97 )">19</text></g><g ewd:figtype="w2w" ewd:figID="31" ewd:code="KF1"><path style="stroke-width: 1.42 ;&st7;  " d=" M   922.10,   319.07  L   917.85,   323.31  L   913.60,   319.07  " /><path style="stroke-width: 1.42 ;&st7;  " d=" M   913.60,   315.67  L   917.85,   319.92  L   922.10,   315.67  " /><text style="&st18;" transform="matrix(&st16;  905.22  330.95 )">5</text></g><g ewd:figtype="w2w" ewd:figID="32" ewd:code="AF5"><path style="stroke-width: 1.42 ;&st7;  " d=" M   922.10,   214.82  L   917.85,   210.57  L   913.60,   214.82  " /><path style="stroke-width: 1.42 ;&st7;  " d=" M   922.10,   211.42  L   917.85,   207.17  L   913.60,   211.42  " /><text style="&st18;" transform="matrix(&st16;  905.22  203.47 )">9</text></g><g ewd:figtype="gp" ewd:figID="35" ewd:code="FI"><path style="stroke-width: 0.85 ;&st7;  " d=" M   550.99,   710.00  L   553.82,   710.00  " /><path style="stroke-width: 0.85 ;&st7;  " d=" M   549.57,   707.17  L   555.24,   707.17  " /><path style="stroke-width: 0.85 ;&st7;  " d=" M   548.16,   704.33  L   556.66,   704.33  " /><path style="stroke-width: 0.85 ;&st7;  " d=" M   543.91,   701.50  L   560.91,   701.50  " /><path style="stroke-width: 0.85 ;&st7;  " d=" M   552.41,   697.25  L   552.41,   701.50  " /></g><g ewd:figtype="gp" ewd:figID="36" ewd:code="FH"><path style="stroke-width: 0.85 ;&st7;  " d=" M   618.98,   710.00  L   621.81,   710.00  " /><path style="stroke-width: 0.85 ;&st7;  " d=" M   617.56,   707.17  L   623.23,   707.17  " /><path style="stroke-width: 0.85 ;&st7;  " d=" M   616.15,   704.33  L   624.65,   704.33  " /><path style="stroke-width: 0.85 ;&st7;  " d=" M   611.90,   701.50  L   628.89,   701.50  " /><path style="stroke-width: 0.85 ;&st7;  " d=" M   620.40,   697.25  L   620.40,   701.50  " /></g><g ewd:figtype="gp" ewd:figID="37" ewd:code="FA"><path style="stroke-width: 0.85 ;&st7;  " d=" M   831.44,   710.00  L   834.28,   710.00  " /><path style="stroke-width: 0.85 ;&st7;  " d=" M   830.03,   707.17  L   835.69,   707.17  " /><path style="stroke-width: 0.85 ;&st7;  " d=" M   828.61,   704.33  L   837.11,   704.33  " /><path style="stroke-width: 0.85 ;&st7;  " d=" M   824.36,   701.50  L   841.36,   701.50  " /><path style="stroke-width: 0.85 ;&st7;  " d=" M   832.86,   697.25  L   832.86,   701.50  " /></g></svg>