﻿<?xml version="1.0"?>
<!-- Generator: Adobe Illustrator 10.0, SVG Export Plug-In . SVG Version: 3.0.0 Build 77)  -->
<!DOCTYPE svg PUBLIC "-//W3C//DTD SVG 1.0//EN" "http://www.w3.org/TR/2001/REC-SVG-20010904/DTD/svg10.dtd"[
	<!ENTITY ns_flows "http://ns.adobe.com/Flows/1.0/">
	<!ENTITY ns_svg "http://www.w3.org/2000/svg">
	<!ENTITY ns_xlink "http://www.w3.org/1999/xlink">
	<!ENTITY st0 "fill:none;stroke:#000000;stroke-linecap:round;stroke-linejoin:round;">
	<!ENTITY st1 "fill:none;stroke:#000000;stroke-width:0.6;stroke-linecap:round;stroke-linejoin:round;">
	<!ENTITY st2 "font-size:6px;">
	<!ENTITY st3 "font-family:'Arial';">
	<!ATTLIST svg
		ewd:ver CDATA #IMPLIED
		xmlns:ewd CDATA #FIXED "http://shcl.co.jp/ewd"
		xmlns:a CDATA #FIXED "http://ns.adobe.com/AdobeSVGViewerExtensions/3.0/">
	<!ATTLIST g
		ewd:pinNo CDATA #IMPLIED>
]>
<svg width="47.459" height="43.352" viewBox="0 0 47.459 43.352" style="overflow:visible;enable-background:new 0 0 47.459 43.352" xml:space="preserve" onload="call_execInitLoadProc_svg('connector')" ewd:ver="2.2.0.10" xmlns="&ns_svg;" xmlns:ewd="http://shcl.co.jp/ewd" xmlns:a="http://ns.adobe.com/AdobeSVGViewerExtensions/3.0/" xmlns:xlink="&ns_xlink;">
<script type="text/javascript" xlink:href="../../../../../system/js/ewd/fig/svgfig.js"/>
<g id="レイヤー_1">
	<path style="&st1;" d="M29.395,22.172v10.906"/>
	<path style="&st0;" d="M46.959,24.296v8.782"/>
	<path style="&st0;" d="M0.5,24.296v8.782"/>
	<path style="&st1;" d="M4.891,37.327h37.677"/>
	<path style="&st0;" d="M35.061,7.441v8.782"/>
	<path style="&st0;" d="M12.398,7.441v8.782"/>
	<path style="&st0;" d="M7.865,18.347h0.284"/>
	<path style="&st0;" d="M33.078,2.908v1.274"/>
	<path style="&st0;" d="M14.381,2.908v1.274"/>
	<path style="&st1;" d="M19.48,5.6h8.499"/>
	<path style="&st1;" d="M4.891,35.911h37.677"/>
	<path style="&st1;" d="M43.276,20.472v14.731"/>
	<path style="&st1;" d="M4.183,14.948v20.255"/>
	<path style="&st1;" d="M18.063,22.172v12.323"/>
	<path style="&st0;" d="M4.891,37.327v1.983"/>
	<path style="&st0;" d="M42.568,37.327v1.983"/>
	<path style="&st0;" d="M2.625,35.203h0.142"/>
	<path style="&st0;" d="M44.692,35.203h0.142"/>
	<path style="&st0;" d="M40.868,18.347h1.7"/>
	<path style="&st0;" d="M28.97,0.783h1.983"/>
	<path style="&st0;" d="M16.506,0.783h1.983"/>
	<path style="&st0;" d="M7.299,14.948v2.833"/>
	<path style="&st0;" d="M8.715,7.441v10.34"/>
	<path style="&st0;" d="M38.744,7.441v8.782"/>
	<path style="&st0;" d="M11.588,42.852h24.283"/>
	<path style="&st1;" d="M32.936,18.347h7.932"/>
	<path style="&st1;" d="M8.149,18.347h6.374"/>
	<path style="&st1;" d="M19.48,4.183h8.499"/>
	<path style="&st1;" d="M20.33,2.625v1.558"/>
	<path style="&st1;" d="M27.129,4.183V2.625"/>
	<path style="&st1;" d="M8.291,40.727h30.878"/>
	<path style="&st1;" d="M2.766,22.172v13.031"/>
	<path style="&st1;" d="M44.692,22.172v13.031"/>
	<path style="&st0;" d="M2.625,22.172c-1.173,0-2.125,0.951-2.125,2.124"/>
	<path style="&st0;" d="M46.959,24.296c0-1.173-0.951-2.124-2.125-2.124"/>
	<path style="&st0;" d="M44.692,20.472c0-1.173-0.951-2.125-2.125-2.125"/>
	<path style="&st0;" d="M2.766,35.203c0,1.173,0.951,2.125,2.125,2.125"/>
	<path style="&st0;" d="M42.568,37.327c1.173,0,2.125-0.951,2.125-2.125"/>
	<path style="&st1;" d="M19.48,4.183c-0.782,0-1.417,0.635-1.417,1.417"/>
	<path style="&st1;" d="M29.395,5.6c0-0.782-0.634-1.417-1.417-1.417"/>
	<path style="&st0;" d="M14.381,4.183c0,0.783,0.634,1.417,1.417,1.417"/>
	<path style="&st0;" d="M31.662,5.6c0.782,0,1.416-0.634,1.416-1.417"/>
	<path style="&st1;" d="M19.48,5.6c-0.782,0-1.417,0.634-1.417,1.417"/>
	<path style="&st1;" d="M29.395,7.016c0-0.783-0.634-1.417-1.417-1.417"/>
	<path style="&st1;" d="M43.276,20.472c0-0.391-0.317-0.708-0.708-0.708"/>
	<path style="&st1;" d="M4.183,35.203c0,0.391,0.317,0.708,0.708,0.708"/>
	<path style="&st1;" d="M42.568,35.911c0.391,0,0.708-0.317,0.708-0.708"/>
	<path style="&st0;" d="M12.398,16.223c0,1.173,0.951,2.125,2.125,2.125"/>
	<path style="&st0;" d="M32.936,18.347c1.173,0,2.125-0.951,2.125-2.125"/>
	<path style="&st0;" d="M4.891,39.311c0,0.782,0.634,1.416,1.417,1.416"/>
	<path style="&st0;" d="M41.151,40.727c0.782,0,1.417-0.634,1.417-1.416"/>
	<path style="&st0;" d="M44.834,35.203c1.174,0,2.125-0.951,2.125-2.125"/>
	<path style="&st0;" d="M0.5,33.078c0,1.173,0.951,2.125,2.125,2.125"/>
	<path style="&st0;" d="M16.506,0.783c-1.174,0-2.125,0.952-2.125,2.125"/>
	<path style="&st0;" d="M33.078,2.908c0-1.173-0.951-2.125-2.125-2.125"/>
	<path style="&st0;" d="M28.97,0.783c-1.017,0-1.841,0.825-1.841,1.841"/>
	<path style="&st0;" d="M20.33,2.625c0-1.017-0.825-1.841-1.841-1.841"/>
	<path style="&st0;" d="M38.744,16.223c0,1.173,0.951,2.125,2.125,2.125"/>
	<path style="&st0;" d="M7.299,14.948c0-1.251-1.015-2.266-2.267-2.266"/>
	<path style="&st0;" d="M5.032,12.682c-1.251,0-2.266,1.015-2.266,2.266"/>
	<path style="&st1;" d="M5.882,14.948c0-0.469-0.38-0.85-0.85-0.85"/>
	<path style="&st1;" d="M5.032,14.098c-0.469,0-0.85,0.381-0.85,0.85"/>
	<path style="&st0;" d="M7.299,17.781c0,0.313,0.254,0.566,0.566,0.566"/>
	<path style="&st0;" d="M8.149,18.347c0.313,0,0.566-0.253,0.566-0.566"/>
	<path style="&st0;" d="M38.744,7.441c0-1.017-0.825-1.841-1.841-1.841"/>
	<path style="&st0;" d="M36.902,5.6c-1.017,0-1.841,0.824-1.841,1.841"/>
	<path style="&st0;" d="M12.398,7.441c0-1.017-0.824-1.841-1.841-1.841"/>
	<path style="&st0;" d="M10.557,5.6c-1.017,0-1.841,0.824-1.841,1.841"/>
	<path style="&st0;" d="M35.871,42.852c0.782,0,1.45-0.277,2.003-0.83"/>
	<path style="&st0;" d="M9.585,42.021c0.553,0.553,1.221,0.83,2.003,0.83"/>
	<path style="&st1;" d="M27.271,33.078h4.249v2.125h-4.249V33.078"/>
	<path style="&st1;" d="M31.52,34.495h9.207V22.172H6.732v12.323h20.538"/>
	<path style="&st0;" d="M20.33,2.625V0.5h6.799v2.125"/>
	<path style="&st0;" d="M14.522,18.347h3.541V5.6h-2.266"/>
	<path style="&st0;" d="M32.936,18.347h-3.541V5.6h2.267"/>
	<path style="&st1;" d="M18.063,18.347v1.417H5.882v-4.816"/>
	<path style="&st1;" d="M42.568,19.764H29.395v-1.417"/>
	<path style="&st0;" d="M2.625,22.172h0.142v-7.224"/>
	<path style="&st0;" d="M44.834,22.172h-0.142v-1.7"/>
	<path style="&st0;" d="M41.151,40.727h-1.983l-1.294,1.295"/>
	<path style="&st0;" d="M6.308,40.727h1.983l1.294,1.295"/>
	<g ewd:pinNo="1">
		<text transform="matrix(1 0 0 1 10.6958 30.2715)"><tspan x="0" y="0" style="&st3; &st2;">1</tspan></text>
	</g>
	<g ewd:pinNo="3">
		<text transform="matrix(1 0 0 1 33.3584 30.2715)"><tspan x="0" y="0" style="&st3; &st2;">3</tspan></text>
	</g>
	<g ewd:pinNo="2">
		<text transform="matrix(1 0 0 1 22.0269 30.2715)"><tspan x="0" y="0" style="&st3; &st2;">2</tspan></text>
	</g>
</g>
</svg>