﻿<?xml version="1.0"?>
<!-- Generator: Adobe Illustrator 10.0, SVG Export Plug-In . SVG Version: 3.0.0 Build 77)  -->
<!DOCTYPE svg PUBLIC "-//W3C//DTD SVG 1.0//EN" "http://www.w3.org/TR/2001/REC-SVG-20010904/DTD/svg10.dtd"[
	<!ENTITY ns_flows "http://ns.adobe.com/Flows/1.0/">
	<!ENTITY ns_svg "http://www.w3.org/2000/svg">
	<!ENTITY ns_xlink "http://www.w3.org/1999/xlink">
	<!ENTITY st0 "fill:none;stroke:#000000;stroke-linecap:round;stroke-linejoin:round;">
	<!ENTITY st1 "fill:none;stroke:#000000;stroke-width:0.6;stroke-linecap:round;stroke-linejoin:round;">
	<!ENTITY st2 "font-size:6px;">
	<!ENTITY st3 "font-family:'Arial';">
	<!ATTLIST svg
		ewd:ver CDATA #IMPLIED
		xmlns:ewd CDATA #FIXED "http://shcl.co.jp/ewd"
		xmlns:a CDATA #FIXED "http://ns.adobe.com/AdobeSVGViewerExtensions/3.0/">
	<!ATTLIST g
		ewd:pinNo CDATA #IMPLIED>
]>
<svg width="108.649" height="97.318" viewBox="0 0 108.649 97.318" style="overflow:visible;enable-background:new 0 0 108.649 97.318" xml:space="preserve" onload="call_execInitLoadProc_svg('connector')" ewd:ver="2.2.0.10" xmlns="&ns_svg;" xmlns:ewd="http://shcl.co.jp/ewd" xmlns:a="http://ns.adobe.com/AdobeSVGViewerExtensions/3.0/" xmlns:xlink="&ns_xlink;">
<script type="text/javascript" xlink:href="../../../../../system/js/ewd/fig/svgfig.js"/>
<g id="レイヤー_1">
	<path style="&st0;" d="M94.399,0.583c-0.29-0.058-0.54-0.083-0.836-0.083"/>
	<path style="&st0;" d="M15.087,0.5c-0.296,0-0.546,0.025-0.835,0.083"/>
	<path style="&st0;" d="M84.07,0.5c-1.564,0-2.833,1.269-2.833,2.833"/>
	<path style="&st0;" d="M108.149,5.657c0-1.368-0.936-2.51-2.278-2.778"/>
	<path style="&st0;" d="M2.779,2.877C1.437,3.146,0.5,4.288,0.5,5.657"/>
	<path style="&st0;" d="M27.413,3.333c0-1.564-1.269-2.833-2.833-2.833"/>
	<path style="&st0;" d="M104.875,91.923c1.947-0.459,3.274-2.135,3.274-4.136"/>
	<path style="&st0;" d="M14.946,0.5c-0.197,0-0.363,0.017-0.555,0.055"/>
	<path style="&st0;" d="M0.501,87.787c0,2.001,1.327,3.677,3.274,4.136"/>
	<path style="&st1;" d="M93.985,44.41v38.244"/>
	<path style="&st1;" d="M84.07,44.41v38.244"/>
	<path style="&st1;" d="M4.75,57.158h99.15"/>
	<path style="&st1;" d="M64.24,69.906V44.41"/>
	<path style="&st1;" d="M54.325,82.654V44.41"/>
	<path style="&st1;" d="M44.41,82.654V44.41"/>
	<path style="&st1;" d="M4.75,82.654V44.41"/>
	<path style="&st1;" d="M18.915,0.5v21.247"/>
	<path style="&st1;" d="M0.501,23.164h1.416v-7.082"/>
	<path style="&st1;" d="M33.079,7.583h42.493"/>
	<path style="&st0;" d="M33.079,4.75l12.748-2.833h16.997L75.572,4.75"/>
	<path style="&st0;" d="M33.079,4.75v11.332"/>
	<path style="&st1;" d="M48.66,16.082v-5.666h11.332v5.666"/>
	<path style="&st1;" d="M75.572,44.41V25.996"/>
	<path style="&st1;" d="M47.243,44.41V25.996"/>
	<path style="&st1;" d="M33.079,44.41V25.996"/>
	<path style="&st1;" d="M6.167,17.498v5.666h21.247"/>
	<path style="&st0;" d="M27.413,23.164h8.499"/>
	<path style="&st0;" d="M81.237,23.164h-8.499"/>
	<path style="&st1;" d="M64.24,16.082v-3.683h8.499v3.683"/>
	<path style="&st1;" d="M44.41,14.24h4.25"/>
	<path style="&st0;" d="M93.563,0.5H84.07"/>
	<path style="&st0;" d="M81.237,23.164V3.333"/>
	<path style="&st0;" d="M105.872,2.877L94.399,0.583"/>
	<path style="&st1;" d="M89.736,0.5v21.247"/>
	<path style="&st1;" d="M35.912,16.082h36.827"/>
	<path style="&st0;" d="M75.572,16.082h-2.833v7.082"/>
	<path style="&st1;" d="M35.912,16.082v-3.683h8.499v3.683"/>
	<path style="&st0;" d="M33.079,16.082h2.833v7.082"/>
	<path style="&st0;" d="M75.572,4.75v11.332"/>
	<path style="&st0;" d="M2.779,2.877l11.473-2.294"/>
	<path style="&st1;" d="M0.501,17.498l1.416-1.417H4.75l1.417,1.417"/>
	<path style="&st0;" d="M24.58,96.818h59.49"/>
	<path style="&st1;" d="M59.991,14.24h4.249"/>
	<path style="&st0;" d="M84.07,96.818l20.805-4.895"/>
	<path style="&st0;" d="M3.775,91.923l20.805,4.895"/>
	<path style="&st1;" d="M4.75,16.082v7.082h1.417"/>
	<path style="&st1;" d="M0.501,81.237l4.249,4.249"/>
	<path style="&st1;" d="M103.9,85.486l4.249-4.249"/>
	<path style="&st0;" d="M27.413,23.164V3.333"/>
	<path style="&st0;" d="M0.501,5.657v82.13"/>
	<path style="&st0;" d="M108.149,5.657v82.13"/>
	<path style="&st0;" d="M15.087,0.5h9.493"/>
	<path style="&st1;" d="M4.75,85.486v5.666h49.575v-5.666"/>
	<path style="&st1;" d="M14.665,82.654V44.41"/>
	<path style="&st1;" d="M24.58,82.654V44.41"/>
	<path style="&st1;" d="M18.915,44.41V25.996"/>
	<path style="&st1;" d="M4.75,85.486h99.15"/>
	<path style="&st1;" d="M103.9,44.41V25.996H4.75V44.41"/>
	<path style="&st1;" d="M4.75,44.41h99.15"/>
	<path style="&st1;" d="M103.9,44.41v38.244"/>
	<path style="&st1;" d="M74.155,69.906V44.41"/>
	<path style="&st1;" d="M61.407,44.41V25.996"/>
	<path style="&st1;" d="M34.495,82.654V44.41"/>
	<path style="&st1;" d="M4.75,82.654h19.83"/>
	<path style="&st1;" d="M89.736,44.41V25.996"/>
	<path style="&st1;" d="M4.75,69.906h59.49"/>
	<path style="&st1;" d="M64.24,69.906h39.66"/>
	<path style="&st1;" d="M24.58,82.654h29.745"/>
	<path style="&st1;" d="M84.07,82.654h19.83"/>
	<path style="&st1;" d="M59.991,85.486V71.889h18.414v13.598"/>
	<path style="&st1;" d="M84.07,85.486v5.666h19.83v-5.666"/>
	<path style="&st1;" d="M6.167,21.747h21.247"/>
	<path style="&st1;" d="M96.11,17.498v5.666H81.237"/>
	<path style="&st1;" d="M101.775,23.164v-5.666"/>
	<path style="&st1;" d="M96.11,21.747H81.237"/>
	<path style="&st1;" d="M105.317,23.164h-4.958v-7.082"/>
	<path style="&st1;" d="M101.775,17.498l-1.416-1.417h-2.833l-1.417,1.417"/>
	<path style="&st1;" d="M97.526,16.082v7.082H96.11"/>
	<path style="&st1;" d="M108.149,25.996l-2.833-2.833"/>
	<g ewd:pinNo="17">
		<text transform="matrix(1 0 0 1 95.3081 53.1064)"><tspan x="0" y="0" style="&st3; &st2;">17</tspan></text>
	</g>
	<g ewd:pinNo="32">
		<text transform="matrix(1 0 0 1 46.0361 78.6021)"><tspan x="0" y="0" style="&st3; &st2;">32</tspan></text>
	</g>
	<g ewd:pinNo="34">
		<text transform="matrix(1 0 0 1 95.6113 78.6021)"><tspan x="0" y="0" style="&st3; &st2;">34</tspan></text>
	</g>
	<g ewd:pinNo="20">
		<text transform="matrix(1 0 0 1 26.2065 65.854)"><tspan x="0" y="0" style="&st3; &st2;">20</tspan></text>
	</g>
	<g ewd:pinNo="10">
		<text transform="matrix(1 0 0 1 25.9033 53.1064)"><tspan x="0" y="0" style="&st3; &st2;">10</tspan></text>
	</g>
	<g ewd:pinNo="11">
		<text transform="matrix(1 0 0 1 36.0405 53.1064)"><tspan x="0" y="0" style="&st3; &st2;">11</tspan></text>
	</g>
	<g ewd:pinNo="33">
		<text transform="matrix(1 0 0 1 85.6963 78.6021)"><tspan x="0" y="0" style="&st3; &st2;">33</tspan></text>
	</g>
	<g ewd:pinNo="12">
		<text transform="matrix(1 0 0 1 45.7329 53.1064)"><tspan x="0" y="0" style="&st3; &st2;">12</tspan></text>
	</g>
	<g ewd:pinNo="6">
		<text transform="matrix(1 0 0 1 81.062 37.5254)"><tspan x="0" y="0" style="&st3; &st2;">6</tspan></text>
	</g>
	<g ewd:pinNo="5">
		<text transform="matrix(1 0 0 1 66.8975 37.5254)"><tspan x="0" y="0" style="&st3; &st2;">5</tspan></text>
	</g>
	<g ewd:pinNo="14">
		<text transform="matrix(1 0 0 1 65.563 53.1064)"><tspan x="0" y="0" style="&st3; &st2;">14</tspan></text>
	</g>
	<g ewd:pinNo="15">
		<text transform="matrix(1 0 0 1 75.478 53.1064)"><tspan x="0" y="0" style="&st3; &st2;">15</tspan></text>
	</g>
	<g ewd:pinNo="16">
		<text transform="matrix(1 0 0 1 85.3931 53.1064)"><tspan x="0" y="0" style="&st3; &st2;">16</tspan></text>
	</g>
	<g ewd:pinNo="23">
		<text transform="matrix(1 0 0 1 55.9512 65.854)"><tspan x="0" y="0" style="&st3; &st2;">23</tspan></text>
	</g>
	<g ewd:pinNo="26">
		<text transform="matrix(1 0 0 1 85.6963 65.854)"><tspan x="0" y="0" style="&st3; &st2;">26</tspan></text>
	</g>
	<g ewd:pinNo="13">
		<text transform="matrix(1 0 0 1 55.6479 53.1064)"><tspan x="0" y="0" style="&st3; &st2;">13</tspan></text>
	</g>
	<g ewd:pinNo="3">
		<text transform="matrix(1 0 0 1 38.5688 37.5254)"><tspan x="0" y="0" style="&st3; &st2;">3</tspan></text>
	</g>
	<g ewd:pinNo="2">
		<text transform="matrix(1 0 0 1 24.4048 37.5254)"><tspan x="0" y="0" style="&st3; &st2;">2</tspan></text>
	</g>
	<g ewd:pinNo="1">
		<text transform="matrix(1 0 0 1 10.2402 37.5254)"><tspan x="0" y="0" style="&st3; &st2;">1</tspan></text>
	</g>
	<g ewd:pinNo="4">
		<text transform="matrix(1 0 0 1 52.7334 37.5254)"><tspan x="0" y="0" style="&st3; &st2;">4</tspan></text>
	</g>
	<g ewd:pinNo="27">
		<text transform="matrix(1 0 0 1 95.6113 65.854)"><tspan x="0" y="0" style="&st3; &st2;">27</tspan></text>
	</g>
	<g ewd:pinNo="28">
		<text transform="matrix(1 0 0 1 6.376 78.6021)"><tspan x="0" y="0" style="&st3; &st2;">28</tspan></text>
	</g>
	<g ewd:pinNo="18">
		<text transform="matrix(1 0 0 1 6.0728 65.854)"><tspan x="0" y="0" style="&st3; &st2;">18</tspan></text>
	</g>
	<g ewd:pinNo="8">
		<text transform="matrix(1 0 0 1 8.1157 53.1064)"><tspan x="0" y="0" style="&st3; &st2;">8</tspan></text>
	</g>
	<g ewd:pinNo="29">
		<text transform="matrix(1 0 0 1 16.2915 78.6021)"><tspan x="0" y="0" style="&st3; &st2;">29</tspan></text>
	</g>
	<g ewd:pinNo="19">
		<text transform="matrix(1 0 0 1 15.9883 65.854)"><tspan x="0" y="0" style="&st3; &st2;">19</tspan></text>
	</g>
	<g ewd:pinNo="9">
		<text transform="matrix(1 0 0 1 18.0308 53.1064)"><tspan x="0" y="0" style="&st3; &st2;">9</tspan></text>
	</g>
	<g ewd:pinNo="21">
		<text transform="matrix(1 0 0 1 36.1211 65.854)"><tspan x="0" y="0" style="&st3; &st2;">21</tspan></text>
	</g>
	<g ewd:pinNo="22">
		<text transform="matrix(1 0 0 1 46.0361 65.854)"><tspan x="0" y="0" style="&st3; &st2;">22</tspan></text>
	</g>
	<g ewd:pinNo="7">
		<text transform="matrix(1 0 0 1 95.2261 37.5254)"><tspan x="0" y="0" style="&st3; &st2;">7</tspan></text>
	</g>
	<g ewd:pinNo="31">
		<text transform="matrix(1 0 0 1 36.1211 78.6021)"><tspan x="0" y="0" style="&st3; &st2;">31</tspan></text>
	</g>
	<g ewd:pinNo="30">
		<text transform="matrix(1 0 0 1 26.2065 78.6021)"><tspan x="0" y="0" style="&st3; &st2;">30</tspan></text>
	</g>
	<g ewd:pinNo="24">
		<text transform="matrix(1 0 0 1 65.8662 65.854)"><tspan x="0" y="0" style="&st3; &st2;">24</tspan></text>
	</g>
	<g ewd:pinNo="25">
		<text transform="matrix(1 0 0 1 75.7813 65.854)"><tspan x="0" y="0" style="&st3; &st2;">25</tspan></text>
	</g>
</g>
</svg>