﻿<?xml version="1.0"?>
<!-- Generator: Adobe Illustrator 10.0, SVG Export Plug-In . SVG Version: 3.0.0 Build 77)  -->
<!DOCTYPE svg PUBLIC "-//W3C//DTD SVG 1.0//EN" "http://www.w3.org/TR/2001/REC-SVG-20010904/DTD/svg10.dtd"[
	<!ENTITY ns_flows "http://ns.adobe.com/Flows/1.0/">
	<!ENTITY ns_svg "http://www.w3.org/2000/svg">
	<!ENTITY ns_xlink "http://www.w3.org/1999/xlink">
	<!ENTITY st0 "fill:none;">
	<!ENTITY st1 "stroke:#000000;">
	<!ENTITY st2 "stroke-linecap:round;">
	<!ENTITY st3 "stroke-linejoin:round;">
	<!ENTITY st4 "stroke-width:0.6;">
	<!ENTITY st5 "font-size:6px;">
	<!ENTITY st6 "font-family:'Arial';">
	<!ENTITY st7 "stroke-width:1.4;">
	<!ATTLIST svg
		ewd:ver CDATA #IMPLIED
		xmlns:ewd CDATA #FIXED "http://shcl.co.jp/ewd"
		xmlns:a CDATA #FIXED "http://ns.adobe.com/AdobeSVGViewerExtensions/3.0/">
	<!ATTLIST g
		ewd:pinNo CDATA #IMPLIED>
]>
<svg width="115.538" height="75.904" viewBox="0 0 115.538 75.904" style="overflow:visible;enable-background:new 0 0 45.405 57.621" xml:space="preserve" onload="call_execInitLoadProc_svg('connector')" ewd:ver="2.2.0.10" xmlns="&ns_svg;" xmlns:ewd="http://shcl.co.jp/ewd" xmlns:a="http://ns.adobe.com/AdobeSVGViewerExtensions/3.0/" xmlns:xlink="&ns_xlink;">
<script type="text/javascript" xlink:href="../../../../../system/js/ewd/fig/svgfig.js"/>
<g id="レイヤー_1" transform="translate(0,17.008)">
	<path style="&st0;&st1;&st4;&st2;&st3;" d="M3.154,25.571v23.584"/>
	<path style="&st0;&st1;&st2;&st3;" d="M43.31,25.571v4.25"/>
	<path style="&st0;&st1;&st2;&st3;" d="M16.95,57.121h12.567"/>
	<path style="&st0;&st1;&st2;&st3;" d="M17.922,0.5h10.624"/>
	<path style="&st0;&st1;&st2;&st3;" d="M37.786,11.231v9.028"/>
	<path style="&st0;&st1;&st2;&st3;" d="M8.678,11.231v9.028"/>
	<path style="&st0;&st1;&st4;&st2;&st3;" d="M11.865,10.169v11.683"/>
	<path style="&st0;&st1;&st4;&st2;&st3;" d="M11.865,16.54h22.734"/>
	<path style="&st0;&st1;&st4;&st2;&st3;" d="M11.865,14.416h22.734"/>
	<path style="&st0;&st1;&st4;&st2;&st3;" d="M15.797,11.231H30.67"/>
	<path style="&st0;&st1;&st4;&st2;&st3;" d="M6.341,29.82v15.085"/>
	<path style="&st0;&st1;&st2;&st3;" d="M0.5,26.633v21.459"/>
	<path style="&st0;&st1;&st2;&st3;" d="M1.562,25.571h1.592"/>
	<path style="&st0;&st1;&st2;&st3;" d="M1.562,49.155h1.592"/>
	<path style="&st0;&st1;&st2;&st3;" d="M44.905,31.413v11.898"/>
	<path style="&st0;&st1;&st4;&st2;&st3;" d="M0.5,44.373h2.654"/>
	<path style="&st0;&st1;&st4;&st2;&st3;" d="M0.5,30.35h2.654"/>
	<path style="&st0;&st1;&st4;&st2;&st3;" d="M1.829,25.571v4.779"/>
	<path style="&st0;&st1;&st4;&st2;&st3;" d="M1.829,44.373v4.782"/>
	<path style="&st0;&st1;&st4;&st2;&st3;" d="M15.797,12.823H30.67"/>
	<path style="&st0;&st1;&st4;&st2;&st3;" d="M43.31,29.82v15.085"/>
	<path style="&st0;&st1;&st2;&st3;" d="M43.31,44.905v4.25"/>
	<path style="&st0;&st1;&st4;&st2;&st3;" d="M8.999,51.809h28.47"/>
	<path style="&st0;&st1;&st4;&st2;&st3;" d="M8.115,49.685h30.238"/>
	<path style="&st0;&st1;&st4;&st2;&st3;" d="M7.407,50.393v0.708"/>
	<path style="&st0;&st1;&st4;&st2;&st3;" d="M39.061,50.393v0.708"/>
	<path style="&st0;&st1;&st2;&st3;" d="M43.31,25.571c0-1.466-1.188-2.654-2.654-2.654"/>
	<path style="&st0;&st1;&st2;&st3;" d="M40.656,22.917c-0.037,0-0.068,0-0.104,0.002"/>
	<path style="&st0;&st1;&st2;&st3;" d="M40.656,51.809c1.466,0,2.654-1.188,2.654-2.654"/>
	<path style="&st0;&st1;&st2;&st3;" d="M5.916,22.917C4.45,22.858,3.215,24,3.157,25.466"/>
	<path style="&st0;&st1;&st2;&st3;" d="M3.157,25.466c-0.001,0.037-0.002,0.068-0.002,0.104"/>
	<path style="&st0;&st1;&st2;&st3;" d="M3.154,49.155c0,1.467,1.19,2.657,2.657,2.657"/>
	<path style="&st0;&st1;&st2;&st3;" d="M37.786,20.259c0,1.468,1.189,2.657,2.657,2.657"/>
	<path style="&st0;&st1;&st2;&st3;" d="M40.443,22.917c0.037,0,0.068,0,0.105-0.002"/>
	<path style="&st0;&st1;&st2;&st3;" d="M5.919,22.914c1.466,0.058,2.701-1.084,2.759-2.55"/>
	<path style="&st0;&st1;&st2;&st3;" d="M8.678,20.364c0.001-0.037,0.002-0.068,0.002-0.105"/>
	<path style="&st0;&st1;&st2;&st3;" d="M17.922,0.5c-1.173,0-2.125,0.952-2.125,2.125"/>
	<path style="&st0;&st1;&st2;&st3;" d="M30.67,2.625c0-1.173-0.951-2.125-2.125-2.125"/>
	<path style="&st0;&st1;&st4;&st2;&st3;" d="M11.865,21.852c0,0.587,0.476,1.063,1.063,1.063"/>
	<path style="&st0;&st1;&st2;&st3;" d="M10.803,9.106c-1.174,0-2.125,0.951-2.125,2.125"/>
	<path style="&st0;&st1;&st2;&st3;" d="M37.786,11.231c0-1.174-0.951-2.125-2.125-2.125"/>
	<path style="&st0;&st1;&st4;&st2;&st3;" d="M35.662,9.106c-0.587,0-1.063,0.476-1.063,1.063"/>
	<path style="&st0;&st1;&st4;&st2;&st3;" d="M11.865,10.169c0-0.587-0.476-1.063-1.062-1.063"/>
	<path style="&st0;&st1;&st2;&st3;" d="M12.443,55.254c1.245,1.244,2.747,1.867,4.507,1.867"/>
	<path style="&st0;&st1;&st2;&st3;" d="M29.517,57.121c1.76,0,3.262-0.623,4.507-1.867"/>
	<path style="&st0;&st1;&st2;&st3;" d="M1.562,25.571c-0.586,0-1.062,0.476-1.062,1.063"/>
	<path style="&st0;&st1;&st2;&st3;" d="M0.5,48.092c0,0.586,0.476,1.063,1.062,1.063"/>
	<path style="&st0;&st1;&st2;&st3;" d="M44.905,31.413c0-0.881-0.714-1.595-1.595-1.595"/>
	<path style="&st0;&st1;&st2;&st3;" d="M43.31,44.905c0.881,0,1.595-0.714,1.595-1.595"/>
	<path style="&st0;&st1;&st4;&st2;&st3;" d="M39.061,51.101c0,0.392,0.317,0.708,0.708,0.708"/>
	<path style="&st0;&st1;&st4;&st2;&st3;" d="M6.698,51.809c0.391,0,0.708-0.317,0.708-0.708"/>
	<path style="&st0;&st1;&st4;&st2;&st3;" d="M8.115,49.685c-0.391,0-0.708,0.317-0.708,0.708"/>
	<path style="&st0;&st1;&st4;&st2;&st3;" d="M39.061,50.393c0-0.391-0.317-0.708-0.708-0.708"/>
	<path style="&st0;&st1;&st4;&st2;&st3;" d="M20.577,9.106V4.75h5.312v4.357"/>
	<path style="&st0;&st1;&st4;&st2;&st3;" d="M24.826,46.497V28.226h12.431v18.271H24.826"/>
	<path style="&st0;&st1;&st4;&st2;&st3;" d="M6.874,28.226h11.898v18.271H6.874"/>
	<path style="&st0;&st1;&st4;&st2;&st3;" d="M4.749,44.905h2.125v3.187H4.749V44.905"/>
	<path style="&st0;&st1;&st4;&st2;&st3;" d="M6.874,26.633H4.749v3.187h2.125V26.633"/>
	<path style="&st0;&st1;&st2;&st3;" d="M15.797,2.625v6.482h-4.994"/>
	<path style="&st0;&st1;&st2;&st3;" d="M35.662,9.106H30.67V2.625"/>
	<path style="&st0;&st1;&st4;&st2;&st3;" d="M15.797,16.54V9.106H30.67v7.434"/>
	<path style="&st0;&st1;&st2;&st3;" d="M40.656,51.809h-3.187l-3.445,3.445"/>
	<path style="&st0;&st1;&st2;&st3;" d="M12.443,55.254l-3.445-3.445H5.812"/>
	<path style="&st0;&st1;&st4;&st2;&st3;" d="M12.928,22.914h16.68v-5.312h4.992v-7.434"/>
	<g ewd:pinNo="1">
		<text transform="matrix(1 0 0 1 10.8701 39.4419)"><tspan x="0" y="0" style="&st6; &st5;">1</tspan></text>
	</g>
	<g ewd:pinNo="2">
		<text transform="matrix(1 0 0 1 29.3545 39.4419)"><tspan x="0" y="0" style="&st6; &st5;">2</tspan></text>
	</g>
</g>
<g id="レイヤー_1" transform="translate(65.246,17.008)">
	<path style="&st0;&st1;&st2;&st3;" d="M6.024,58.398h38.244"/>
	<path style="&st0;&st1;&st2;&st3;" d="M0.5,19.409v24.966"/>
	<path style="&st0;&st1;&st2;&st3;" d="M49.792,19.409v24.966"/>
	<path style="&st0;&st1;&st2;&st3;" d="M10.273,0.5h5.949"/>
	<path style="&st0;&st1;&st4;&st2;&st3;" d="M7.937,51.809h34.419"/>
	<path style="&st0;&st1;&st2;&st3;" d="M5.282,14.63h0.742"/>
	<path style="&st0;&st1;&st2;&st3;" d="M43.735,4.217v9.881"/>
	<path style="&st0;&st1;&st2;&st3;" d="M6.554,4.217v9.881"/>
	<path style="&st0;&st1;&st4;&st2;&st3;" d="M11.228,4.112h1.912"/>
	<path style="&st0;&st1;&st4;&st2;&st3;" d="M40.123,5.174V16.01"/>
	<path style="&st0;&st1;&st4;&st2;&st3;" d="M10.166,5.174V16.01"/>
	<path style="&st0;&st1;&st4;&st2;&st3;" d="M6.341,18.667h1.17"/>
	<path style="&st0;&st1;&st4;&st2;&st3;" d="M18.347,18.667h15.614"/>
	<path style="&st0;&st1;&st4;&st2;&st3;" d="M36.086,5.174v11.369"/>
	<path style="&st0;&st1;&st2;&st3;" d="M34.069,0.5h5.949"/>
	<path style="&st0;&st1;&st4;&st2;&st3;" d="M37.148,4.112h1.913"/>
	<path style="&st0;&st1;&st2;&st3;" d="M44.268,14.63h0.742"/>
	<path style="&st0;&st1;&st4;&st2;&st3;" d="M42.78,18.667h1.167"/>
	<path style="&st0;&st1;&st4;&st2;&st3;" d="M18.347,15.585h13.598"/>
	<path style="&st0;&st1;&st4;&st2;&st3;" d="M17.285,16.647v0.958"/>
	<path style="&st0;&st1;&st2;&st3;" d="M46.392,50.619v5.654"/>
	<path style="&st0;&st1;&st2;&st3;" d="M3.899,50.619v5.654"/>
	<path style="&st0;&st1;&st4;&st2;&st3;" d="M17.285,6.024h15.722"/>
	<path style="&st0;&st1;&st2;&st3;" d="M17.285,1.563h15.722"/>
	<path style="&st0;&st1;&st4;&st2;&st3;" d="M21.426,51.809v3.399"/>
	<path style="&st0;&st1;&st4;&st2;&st3;" d="M28.862,51.809v3.399"/>
	<path style="&st0;&st1;&st2;&st3;" d="M10.273,0.5c-2.053,0-3.717,1.664-3.717,3.717"/>
	<path style="&st0;&st1;&st2;&st3;" d="M43.735,4.217c0-2.053-1.664-3.717-3.716-3.717"/>
	<path style="&st0;&st1;&st4;&st2;&st3;" d="M4.749,46.605c0,0.879,0.713,1.592,1.592,1.592"/>
	<path style="&st0;&st1;&st4;&st2;&st3;" d="M43.948,48.197c0.879,0,1.592-0.713,1.592-1.592"/>
	<path style="&st0;&st1;&st4;&st2;&st3;" d="M45.542,20.259c0-0.881-0.714-1.595-1.595-1.595"/>
	<path style="&st0;&st1;&st4;&st2;&st3;" d="M6.341,18.667c-0.879,0-1.592,0.713-1.592,1.592"/>
	<path style="&st0;&st1;&st4;&st2;&st3;" d="M11.228,4.112c-0.587,0-1.063,0.476-1.063,1.063"/>
	<path style="&st0;&st1;&st4;&st2;&st3;" d="M40.123,5.174c0-0.587-0.476-1.063-1.062-1.063"/>
	<path style="&st0;&st1;&st4;&st2;&st3;" d="M14.203,5.174c0-0.587-0.476-1.063-1.063-1.063"/>
	<path style="&st0;&st1;&st4;&st2;&st3;" d="M37.148,4.112c-0.586,0-1.062,0.476-1.062,1.063"/>
	<path style="&st0;&st1;&st2;&st3;" d="M34.069,0.5c-0.587,0-1.063,0.476-1.063,1.063"/>
	<path style="&st0;&st1;&st2;&st3;" d="M17.285,1.563c0-0.587-0.476-1.063-1.063-1.063"/>
	<path style="&st0;&st1;&st4;&st2;&st3;" d="M40.123,16.01c0,1.467,1.19,2.657,2.657,2.657"/>
	<path style="&st0;&st1;&st4;&st2;&st3;" d="M7.511,18.667c1.468,0,2.657-1.189,2.657-2.657"/>
	<path style="&st0;&st1;&st4;&st2;&st3;" d="M18.347,15.585c-0.587,0-1.063,0.476-1.063,1.063"/>
	<path style="&st0;&st1;&st4;&st2;&st3;" d="M17.285,17.605c0,0.586,0.476,1.062,1.063,1.062"/>
	<path style="&st0;&st1;&st4;&st2;&st3;" d="M31.945,15.585c0.586,0,1.062-0.476,1.062-1.062"/>
	<path style="&st0;&st1;&st4;&st2;&st3;" d="M33.961,18.667c1.174,0,2.125-0.951,2.125-2.124"/>
	<path style="&st0;&st1;&st2;&st3;" d="M44.268,58.398c1.173,0,2.125-0.952,2.125-2.125"/>
	<path style="&st0;&st1;&st2;&st3;" d="M3.899,56.273c0,1.173,0.951,2.125,2.125,2.125"/>
	<path style="&st0;&st1;&st4;&st2;&st3;" d="M42.355,51.812c1.5,0,2.777-0.377,4.038-1.192"/>
	<path style="&st0;&st1;&st2;&st3;" d="M0.5,44.375c0,2.606,1.21,4.83,3.399,6.245"/>
	<path style="&st0;&st1;&st2;&st3;" d="M43.735,14.098c0,0.294,0.239,0.533,0.533,0.533"/>
	<path style="&st0;&st1;&st2;&st3;" d="M6.024,14.63c0.294,0,0.533-0.238,0.533-0.533"/>
	<path style="&st0;&st1;&st2;&st3;" d="M5.282,14.63c-2.64,0-4.779,2.14-4.779,4.779"/>
	<path style="&st0;&st1;&st2;&st3;" d="M49.792,19.409c0-2.641-2.141-4.781-4.782-4.781"/>
	<path style="&st0;&st1;&st4;&st2;&st3;" d="M3.899,50.619c1.26,0.814,2.537,1.191,4.037,1.191"/>
	<path style="&st0;&st1;&st2;&st3;" d="M46.392,50.619c2.188-1.415,3.398-3.638,3.398-6.244"/>
	<path style="&st0;&st1;&st4;&st2;&st3;" d="M46.392,26.633h-6.269v13.598h6.269"/>
	<path style="&st0;&st1;&st4;&st2;&st3;" d="M11.865,58.398v-3.19h26.558v3.19"/>
	<path style="&st0;&st1;&st4;&st2;&st3;" d="M4.749,23.979h5.417v18.907H4.749"/>
	<path style="&st0;&st1;&st4;&st2;&st3;" d="M45.542,46.605v-4.779l0.85-0.85V25.891l-0.85-0.85v-4.782"/>
	<path style="&st0;&st1;&st4;&st2;&st3;" d="M43.948,48.197h-3.825l-0.85,0.85H11.016l-0.85-0.85H6.341"/>
	<path style="&st0;&st1;&st4;&st2;&st3;" d="M4.749,46.605v-4.782l-0.85-0.847V25.891l0.85-0.85v-4.782"/>
	<path style="&st0;&st1;&st4;&st2;&st3;" d="M33.007,1.563v12.96"/>
	<path style="&st0;&st1;&st4;&st2;&st3;" d="M14.203,5.174v8.181h3.082V1.563"/>
	<path style="&st0;&st1;&st4;&st2;&st3;" d="M27.588,6.024v2.125h-4.887V6.024"/>
	<path style="&st0;&st1;&st4;&st2;&st3;" d="M12.291,25.041h9.348v16.782h-9.348V25.041"/>
	<path style="&st0;&st1;&st4;&st2;&st3;" d="M40.123,26.633v-1.592h-9.348v16.782h9.348v-1.592"/>
	<path style="&st0;&st1;&st4;&st2;&st3;" d="M40.123,25.041v-2.657h3.187v2.657H40.123"/>
	<path style="&st0;&st1;&st4;&st2;&st3;" d="M40.123,41.823h3.187v2.657h-3.187V41.823"/>
	<path style="&st0;&st1;&st4;&st2;&st3;" d="M29.712,6.024v3.72h-9.136v-3.72"/>
	<g ewd:pinNo="1">
		<text transform="matrix(1 0 0 1 33.8359 35.8979)"><tspan x="0" y="0" style="&st6; &st5;">1</tspan></text>
	</g>
	<g ewd:pinNo="2">
		<text transform="matrix(1 0 0 1 15.3516 35.8979)"><tspan x="0" y="0" style="&st6; &st5;">2</tspan></text>
	</g>
</g>
<path d="M22.7025,9.069v-8.504h67.6895v8.504" style="&st0;&st1;&st7;&st2;&st3;"/>
</svg>