﻿<?xml version="1.0"?>
<!-- Generator: Adobe Illustrator 10.0, SVG Export Plug-In . SVG Version: 3.0.0 Build 77)  -->
<!DOCTYPE svg PUBLIC "-//W3C//DTD SVG 1.0//EN" "http://www.w3.org/TR/2001/REC-SVG-20010904/DTD/svg10.dtd"[
	<!ENTITY ns_flows "http://ns.adobe.com/Flows/1.0/">
	<!ENTITY ns_svg "http://www.w3.org/2000/svg">
	<!ENTITY ns_xlink "http://www.w3.org/1999/xlink">
	<!ENTITY st0 "fill:none;">
	<!ENTITY st1 "stroke:#000000;">
	<!ENTITY st2 "stroke-linecap:round;">
	<!ENTITY st3 "stroke-linejoin:round;">
	<!ENTITY st4 "stroke-width:0.6;">
	<!ENTITY st5 "font-size:6px;">
	<!ENTITY st6 "font-family:'Arial';">
	<!ENTITY st7 "stroke-width:1.4;">
	<!ATTLIST svg
		ewd:ver CDATA #IMPLIED
		xmlns:ewd CDATA #FIXED "http://shcl.co.jp/ewd"
		xmlns:a CDATA #FIXED "http://ns.adobe.com/AdobeSVGViewerExtensions/3.0/">
	<!ATTLIST g
		ewd:pinNo CDATA #IMPLIED>
]>
<svg width="231.472" height="108.658" viewBox="0 0 231.472 108.658" style="overflow:visible;enable-background:new 0 0 100.15 84.57" xml:space="preserve" onload="call_execInitLoadProc_svg('connector')" ewd:ver="2.2.0.10" xmlns="&ns_svg;" xmlns:ewd="http://shcl.co.jp/ewd" xmlns:a="http://ns.adobe.com/AdobeSVGViewerExtensions/3.0/" xmlns:xlink="&ns_xlink;">
<script type="text/javascript" xlink:href="../../../../../system/js/ewd/fig/svgfig.js"/>
<g id="レイヤー_1" transform="translate(0,17.008)">
	<path style="&st0;&st1;&st4;&st2;&st3;" d="M95.401,13.248c-0.782,0-1.417,0.634-1.417,1.417"/>
	<path style="&st0;&st1;&st4;&st2;&st3;" d="M6.166,14.665c0-0.782-0.634-1.417-1.417-1.417"/>
	<path style="&st0;&st1;&st4;&st2;&st3;" d="M1.916,13.248c-0.782,0-1.416,0.634-1.416,1.417"/>
	<path style="&st0;&st1;&st4;&st2;&st3;" d="M99.65,14.665c0-0.782-0.634-1.417-1.417-1.417"/>
	<path style="&st0;&st1;&st4;&st2;&st3;" d="M92.568,23.163c0.782,0,1.417-0.634,1.417-1.417"/>
	<path style="&st0;&st1;&st4;&st2;&st3;" d="M6.166,21.747c0,0.782,0.634,1.417,1.417,1.417"/>
	<path style="&st0;&st1;&st4;&st2;&st3;" d="M24.579,23.163c0.782,0,1.417-0.634,1.417-1.417"/>
	<path style="&st0;&st1;&st4;&st2;&st3;" d="M74.154,21.747c0,0.782,0.634,1.417,1.417,1.417"/>
	<path style="&st0;&st1;&st4;&st2;&st3;" d="M62.823,21.747c0,0.782,0.634,1.417,1.417,1.417"/>
	<path style="&st0;&st1;&st4;&st2;&st3;" d="M30.245,21.747c0,0.782,0.634,1.417,1.417,1.417"/>
	<path style="&st0;&st1;&st4;&st2;&st3;" d="M68.489,23.163c0.782,0,1.416-0.634,1.416-1.417"/>
	<path style="&st0;&st1;&st4;&st2;&st3;" d="M30.245,10.416c0-0.783-0.634-1.417-1.417-1.417"/>
	<path style="&st0;&st1;&st4;&st2;&st3;" d="M27.412,8.999c-0.782,0-1.417,0.634-1.417,1.417"/>
	<path style="&st0;&st1;&st4;&st2;&st3;" d="M35.911,23.163c0.782,0,1.417-0.634,1.417-1.417"/>
	<path style="&st0;&st1;&st4;&st2;&st3;" d="M71.321,8.999c-0.782,0-1.417,0.634-1.417,1.417"/>
	<path style="&st0;&st1;&st4;&st2;&st3;" d="M74.154,10.416c0-0.783-0.634-1.417-1.417-1.417"/>
	<path style="&st0;&st1;&st2;&st3;" d="M7.582,0.5C3.67,0.5,0.5,3.671,0.5,7.583"/>
	<path style="&st0;&st1;&st2;&st3;" d="M5.092,81.58c1.66,1.66,3.664,2.491,6.012,2.491"/>
	<path style="&st0;&st1;&st2;&st3;" d="M89.046,84.07c2.348,0,4.352-0.831,6.011-2.491"/>
	<path style="&st0;&st1;&st2;&st3;" d="M99.65,7.583c0-3.912-3.171-7.083-7.082-7.083"/>
	<path style="&st0;&st1;&st4;&st2;&st3;" d="M2.812,65.594C3.992,65.2,4.75,64.15,4.75,62.905"/>
	<path style="&st0;&st1;&st4;&st2;&st3;" d="M4.749,34.413c0-1.245-0.757-2.295-1.938-2.688"/>
	<path style="&st0;&st1;&st4;&st2;&st3;" d="M97.338,31.724c-1.181,0.393-1.938,1.444-1.938,2.688"/>
	<path style="&st0;&st1;&st4;&st2;&st3;" d="M95.401,62.905c0,1.244,0.757,2.294,1.938,2.688"/>
	<path style="&st0;&st1;&st4;&st2;&st3;" d="M52.908,76.987c0,0.782,0.634,1.417,1.417,1.417"/>
	<path style="&st0;&st1;&st4;&st2;&st3;" d="M45.826,78.404c0.782,0,1.417-0.634,1.417-1.417"/>
	<path style="&st0;&st1;&st4;&st2;&st3;" d="M95.401,13.248h2.833"/>
	<path style="&st0;&st1;&st4;&st2;&st3;" d="M7.582,23.163h16.997"/>
	<path style="&st0;&st1;&st4;&st2;&st3;" d="M57.157,14.665h5.666v7.082"/>
	<path style="&st0;&st1;&st4;&st2;&st3;" d="M76.987,74.155v4.249"/>
	<path style="&st0;&st1;&st4;&st2;&st3;" d="M86.902,74.155v4.249"/>
	<path style="&st0;&st1;&st4;&st2;&st3;" d="M13.248,74.155v4.249"/>
	<path style="&st0;&st1;&st4;&st2;&st3;" d="M37.327,21.747v-7.082h5.666"/>
	<path style="&st0;&st1;&st4;&st2;&st3;" d="M64.239,23.163h4.25"/>
	<path style="&st0;&st1;&st4;&st2;&st3;" d="M25.996,10.416v11.331"/>
	<path style="&st0;&st1;&st4;&st2;&st3;" d="M28.829,8.999h-1.417"/>
	<path style="&st0;&st1;&st4;&st2;&st3;" d="M30.245,10.416v11.331"/>
	<path style="&st0;&st1;&st4;&st2;&st3;" d="M69.905,10.416v11.331"/>
	<path style="&st0;&st1;&st4;&st2;&st3;" d="M74.154,10.416v11.331"/>
	<path style="&st0;&st1;&st4;&st2;&st3;" d="M71.321,8.999h1.417"/>
	<path style="&st0;&st1;&st4;&st2;&st3;" d="M69.905,11.832h4.25"/>
	<path style="&st0;&st1;&st4;&st2;&st3;" d="M25.996,11.832h4.25"/>
	<path style="&st0;&st1;&st4;&st2;&st3;" d="M23.163,74.155v4.249"/>
	<path style="&st0;&st1;&st4;&st2;&st3;" d="M76.987,76.279h9.915"/>
	<path style="&st0;&st1;&st4;&st2;&st3;" d="M13.248,76.279h9.915"/>
	<path style="&st0;&st1;&st4;&st2;&st3;" d="M21.747,68.489h-9.915"/>
	<path style="&st0;&st1;&st4;&st2;&st3;" d="M21.747,42.993h-9.915"/>
	<path style="&st0;&st1;&st4;&st2;&st3;" d="M11.832,55.741h9.915"/>
	<path style="&st0;&st1;&st4;&st2;&st3;" d="M78.404,55.741h9.915"/>
	<path style="&st0;&st1;&st4;&st2;&st3;" d="M11.832,42.993v25.496"/>
	<path style="&st0;&st1;&st4;&st2;&st3;" d="M88.319,42.993v25.496"/>
	<path style="&st0;&st1;&st4;&st2;&st3;" d="M78.404,68.489h9.915"/>
	<path style="&st0;&st1;&st4;&st2;&st3;" d="M78.404,42.993h9.915"/>
	<path style="&st0;&st1;&st4;&st2;&st3;" d="M21.747,42.993h56.657"/>
	<path style="&st0;&st1;&st4;&st2;&st3;" d="M1.916,13.248h2.833"/>
	<path style="&st0;&st1;&st2;&st3;" d="M0.5,74.155l1.416,4.249"/>
	<path style="&st0;&st1;&st4;&st2;&st3;" d="M31.662,23.163h4.249"/>
	<path style="&st0;&st1;&st2;&st3;" d="M99.65,74.155l-1.417,4.249"/>
	<path style="&st0;&st1;&st4;&st2;&st3;" d="M75.571,23.163h16.997"/>
	<path style="&st0;&st1;&st2;&st3;" d="M11.104,84.07h77.943"/>
	<path style="&st0;&st1;&st2;&st3;" d="M1.916,78.404l3.176,3.176"/>
	<path style="&st0;&st1;&st2;&st3;" d="M98.233,78.404l-3.175,3.176"/>
	<path style="&st0;&st1;&st4;&st2;&st3;" d="M30.245,10.416V4.75h39.66v5.666"/>
	<path style="&st0;&st1;&st4;&st2;&st3;" d="M42.993,14.665v-2.833h14.165v2.833"/>
	<path style="&st0;&st1;&st4;&st2;&st3;" d="M37.327,16.081h25.496"/>
	<path style="&st0;&st1;&st4;&st2;&st3;" d="M37.327,17.498h-4.25V7.583h33.995v9.915h-4.25"/>
	<path style="&st0;&st1;&st2;&st3;" d="M99.65,10.416v5.666"/>
	<path style="&st0;&st1;&st2;&st3;" d="M99.65,16.081v5.666"/>
	<path style="&st0;&st1;&st2;&st3;" d="M0.5,66.364v7.791"/>
	<path style="&st0;&st1;&st2;&st3;" d="M99.65,66.364v7.791"/>
	<path style="&st0;&st1;&st4;&st2;&st3;" d="M97.338,65.594l2.312,0.771"/>
	<path style="&st0;&st1;&st4;&st2;&st3;" d="M95.401,34.413v28.493"/>
	<path style="&st0;&st1;&st4;&st2;&st3;" d="M99.65,30.954l-2.312,0.771"/>
	<path style="&st0;&st1;&st4;&st2;&st3;" d="M4.749,34.413v28.493"/>
	<path style="&st0;&st1;&st4;&st2;&st3;" d="M0.5,30.954l2.312,0.771"/>
	<path style="&st0;&st1;&st4;&st2;&st3;" d="M93.984,16.081h5.666"/>
	<path style="&st0;&st1;&st2;&st3;" d="M0.5,10.416v20.538"/>
	<path style="&st0;&st1;&st4;&st2;&st3;" d="M0.5,16.081h5.666"/>
	<path style="&st0;&st1;&st4;&st2;&st3;" d="M0.5,66.364l2.312-0.771"/>
	<path style="&st0;&st1;&st2;&st3;" d="M7.582,0.5h84.986"/>
	<path style="&st0;&st1;&st2;&st3;" d="M99.65,7.583v2.833"/>
	<path style="&st0;&st1;&st2;&st3;" d="M0.5,10.416V7.583"/>
	<path style="&st0;&st1;&st4;&st2;&st3;" d="M21.747,68.489h22.663"/>
	<path style="&st0;&st1;&st2;&st3;" d="M99.65,21.747v9.207"/>
	<path style="&st0;&st1;&st2;&st3;" d="M99.65,30.954v35.411"/>
	<path style="&st0;&st1;&st4;&st2;&st3;" d="M6.166,14.665v7.082"/>
	<path style="&st0;&st1;&st2;&st3;" d="M0.5,30.954v35.411"/>
	<path style="&st0;&st1;&st4;&st2;&st3;" d="M93.984,21.747v-7.082"/>
	<path style="&st0;&st1;&st4;&st2;&st3;" d="M11.832,42.993V28.829h76.487v14.165"/>
	<path style="&st0;&st1;&st4;&st2;&st3;" d="M75.571,28.829v39.66"/>
	<path style="&st0;&st1;&st4;&st2;&st3;" d="M24.579,28.829v39.66"/>
	<path style="&st0;&st1;&st4;&st2;&st3;" d="M34.494,42.993v25.496"/>
	<path style="&st0;&st1;&st4;&st2;&st3;" d="M44.409,42.993v25.496"/>
	<path style="&st0;&st1;&st4;&st2;&st3;" d="M55.741,42.993v25.496"/>
	<path style="&st0;&st1;&st4;&st2;&st3;" d="M65.656,42.993v25.496"/>
	<path style="&st0;&st1;&st4;&st2;&st3;" d="M78.404,55.741H55.741"/>
	<path style="&st0;&st1;&st4;&st2;&st3;" d="M44.409,55.741H21.747"/>
	<path style="&st0;&st1;&st4;&st2;&st3;" d="M55.741,68.489h22.663"/>
	<path style="&st0;&st1;&st4;&st2;&st3;" d="M37.327,28.829v14.165"/>
	<path style="&st0;&st1;&st4;&st2;&st3;" d="M50.075,28.829v14.165"/>
	<path style="&st0;&st1;&st4;&st2;&st3;" d="M62.823,42.993V28.829"/>
	<path style="&st0;&st1;&st4;&st2;&st3;" d="M47.242,74.155H99.65"/>
	<path style="&st0;&st1;&st4;&st2;&st3;" d="M0.5,74.155h46.742"/>
	<path style="&st0;&st1;&st4;&st2;&st3;" d="M47.242,76.987V45.826h5.666v31.161"/>
	<path style="&st0;&st1;&st4;&st2;&st3;" d="M54.324,78.404h43.909v-4.249"/>
	<path style="&st0;&st1;&st4;&st2;&st3;" d="M1.916,74.155v4.249h43.91"/>
	<path style="&st0;&st1;&st4;&st2;&st3;" d="M47.242,48.659h5.666"/>
	<g ewd:pinNo="1">
		<text transform="matrix(1 0 0 1 16.6504 38.2451)"><tspan x="0" y="0" style="&st6; &st5;">1</tspan></text>
	</g>
	<g ewd:pinNo="2">
		<text transform="matrix(1 0 0 1 29.3984 38.2451)"><tspan x="0" y="0" style="&st6; &st5;">2</tspan></text>
	</g>
	<g ewd:pinNo="3">
		<text transform="matrix(1 0 0 1 42.146 38.2451)"><tspan x="0" y="0" style="&st6; &st5;">3</tspan></text>
	</g>
	<g ewd:pinNo="4">
		<text transform="matrix(1 0 0 1 54.894 38.2451)"><tspan x="0" y="0" style="&st6; &st5;">4</tspan></text>
	</g>
	<g ewd:pinNo="5">
		<text transform="matrix(1 0 0 1 67.6421 38.2451)"><tspan x="0" y="0" style="&st6; &st5;">5</tspan></text>
	</g>
	<g ewd:pinNo="6">
		<text transform="matrix(1 0 0 1 80.3896 38.2451)"><tspan x="0" y="0" style="&st6; &st5;">6</tspan></text>
	</g>
	<g ewd:pinNo="7">
		<text transform="matrix(1 0 0 1 16.6504 51.7012)"><tspan x="0" y="0" style="&st6; &st5;">7</tspan></text>
	</g>
	<g ewd:pinNo="8">
		<text transform="matrix(1 0 0 1 27.9819 51.7012)"><tspan x="0" y="0" style="&st6; &st5;">8</tspan></text>
	</g>
	<g ewd:pinNo="9">
		<text transform="matrix(1 0 0 1 37.897 51.7012)"><tspan x="0" y="0" style="&st6; &st5;">9</tspan></text>
	</g>
	<g ewd:pinNo="10">
		<text transform="matrix(1 0 0 1 57.2397 51.7012)"><tspan x="0" y="0" style="&st6; &st5;">10</tspan></text>
	</g>
	<g ewd:pinNo="11">
		<text transform="matrix(1 0 0 1 67.3774 51.7012)"><tspan x="0" y="0" style="&st6; &st5;">11</tspan></text>
	</g>
	<g ewd:pinNo="12">
		<text transform="matrix(1 0 0 1 78.4863 51.7012)"><tspan x="0" y="0" style="&st6; &st5;">12</tspan></text>
	</g>
	<g ewd:pinNo="13">
		<text transform="matrix(1 0 0 1 14.7471 64.4487)"><tspan x="0" y="0" style="&st6; &st5;">13</tspan></text>
	</g>
	<g ewd:pinNo="14">
		<text transform="matrix(1 0 0 1 26.0786 64.4487)"><tspan x="0" y="0" style="&st6; &st5;">14</tspan></text>
	</g>
	<g ewd:pinNo="15">
		<text transform="matrix(1 0 0 1 35.9932 64.4487)"><tspan x="0" y="0" style="&st6; &st5;">15</tspan></text>
	</g>
	<g ewd:pinNo="16">
		<text transform="matrix(1 0 0 1 57.2397 64.4487)"><tspan x="0" y="0" style="&st6; &st5;">16</tspan></text>
	</g>
	<g ewd:pinNo="17">
		<text transform="matrix(1 0 0 1 67.1548 64.4487)"><tspan x="0" y="0" style="&st6; &st5;">17</tspan></text>
	</g>
	<g ewd:pinNo="18">
		<text transform="matrix(1 0 0 1 78.4863 64.4487)"><tspan x="0" y="0" style="&st6; &st5;">18</tspan></text>
	</g>
</g>
<g id="レイヤー_1" transform="translate(119.991,17.008)">
	<path style="&st0;&st1;&st4;&st2;&st3;" d="M46.534,78.404c-0.782,0-1.417,0.634-1.417,1.417"/>
	<path style="&st0;&st1;&st2;&st3;" d="M100.358,78.404c-0.782,0-1.417,0.634-1.417,1.417"/>
	<path style="&st0;&st1;&st4;&st2;&st3;" d="M13.956,56.308c0-1.095-0.888-1.983-1.983-1.983"/>
	<path style="&st0;&st1;&st4;&st2;&st3;" d="M66.364,79.82c0-0.782-0.634-1.417-1.416-1.417"/>
	<path style="&st0;&st1;&st4;&st2;&st3;" d="M11.69,54.325c-1.095,0-1.983,0.888-1.983,1.983"/>
	<path style="&st0;&st1;&st4;&st2;&st3;" d="M9.707,65.089c0,1.095,0.888,1.983,1.983,1.983"/>
	<path style="&st0;&st1;&st4;&st2;&st3;" d="M11.973,67.072c1.095,0,1.983-0.888,1.983-1.983"/>
	<path style="&st0;&st1;&st4;&st2;&st3;" d="M99.508,54.325c-1.095,0-1.983,0.888-1.983,1.983"/>
	<path style="&st0;&st1;&st4;&st2;&st3;" d="M101.774,56.308c0-1.095-0.888-1.983-1.983-1.983"/>
	<path style="&st0;&st1;&st4;&st2;&st3;" d="M97.525,65.089c0,1.095,0.888,1.983,1.983,1.983"/>
	<path style="&st0;&st1;&st4;&st2;&st3;" d="M99.792,67.072c1.095,0,1.983-0.888,1.983-1.983"/>
	<path style="&st0;&st1;&st2;&st3;" d="M110.981,8.999c0-2.347-1.902-4.25-4.249-4.25"/>
	<path style="&st0;&st1;&st4;&st2;&st3;" d="M43.701,83.361c0.782,0,1.416-0.634,1.416-1.417"/>
	<path style="&st0;&st1;&st2;&st3;" d="M106.732,78.404c2.347,0,4.249-1.902,4.249-4.249"/>
	<path style="&st0;&st1;&st4;&st2;&st3;" d="M6.166,71.322c0,0.782,0.634,1.417,1.417,1.417"/>
	<path style="&st0;&st1;&st2;&st3;" d="M4.749,4.75C2.402,4.75,0.5,6.652,0.5,8.999"/>
	<path style="&st0;&st1;&st4;&st2;&st3;" d="M66.364,81.945c0,0.782,0.634,1.417,1.417,1.417"/>
	<path style="&st0;&st1;&st2;&st3;" d="M94.692,91.152c2.347,0,4.25-1.903,4.25-4.25"/>
	<path style="&st0;&st1;&st4;&st2;&st3;" d="M82.653,85.627c0-1.251-1.015-2.266-2.266-2.266"/>
	<path style="&st0;&st1;&st2;&st3;" d="M12.54,79.82c0-0.782-0.634-1.417-1.417-1.417"/>
	<path style="&st0;&st1;&st2;&st3;" d="M0.5,74.155c0,2.347,1.902,4.249,4.249,4.249"/>
	<path style="&st0;&st1;&st2;&st3;" d="M12.54,86.902c0,2.347,1.902,4.25,4.25,4.25"/>
	<path style="&st0;&st1;&st4;&st2;&st3;" d="M98.233,13.248c-0.782,0-1.417,0.634-1.417,1.417"/>
	<path style="&st0;&st1;&st4;&st2;&st3;" d="M31.095,83.361c-1.251,0-2.266,1.015-2.266,2.266"/>
	<path style="&st0;&st1;&st4;&st2;&st3;" d="M105.316,14.665c0-0.782-0.634-1.417-1.417-1.417"/>
	<path style="&st0;&st1;&st4;&st2;&st3;" d="M103.899,72.738c0.782,0,1.417-0.634,1.417-1.417"/>
	<path style="&st0;&st1;&st4;&st2;&st3;" d="M14.664,14.665c0-0.782-0.634-1.417-1.416-1.417"/>
	<path style="&st0;&st1;&st4;&st2;&st3;" d="M7.582,13.248c-0.782,0-1.417,0.634-1.417,1.417"/>
	<path style="&st0;&st1;&st4;&st2;&st3;" d="M51.491,72.738c0.782,0,1.417-0.634,1.417-1.417"/>
	<path style="&st0;&st1;&st4;&st2;&st3;" d="M58.574,71.322c0,0.782,0.634,1.417,1.417,1.417"/>
	<path style="&st0;&st1;&st4;&st2;&st3;" d="M88.319,6.166c0-0.782-0.634-1.417-1.417-1.417"/>
	<path style="&st0;&st1;&st4;&st2;&st3;" d="M12.256,50.784c0.938,0,1.7-0.761,1.7-1.7"/>
	<path style="&st0;&st1;&st4;&st2;&st3;" d="M13.956,39.735c0-0.938-0.761-1.7-1.7-1.7"/>
	<path style="&st0;&st1;&st4;&st2;&st3;" d="M11.406,38.036c-0.938,0-1.7,0.761-1.7,1.7"/>
	<path style="&st0;&st1;&st4;&st2;&st3;" d="M9.707,49.084c0,0.938,0.761,1.7,1.7,1.7"/>
	<path style="&st0;&st1;&st4;&st2;&st3;" d="M82.653,4.75c-0.782,0-1.417,0.634-1.417,1.417"/>
	<path style="&st0;&st1;&st4;&st2;&st3;" d="M99.225,38.036c-0.938,0-1.7,0.761-1.7,1.7"/>
	<path style="&st0;&st1;&st4;&st2;&st3;" d="M101.774,39.735c0-0.938-0.761-1.7-1.7-1.7"/>
	<path style="&st0;&st1;&st4;&st2;&st3;" d="M24.579,4.75c-0.782,0-1.417,0.634-1.417,1.417"/>
	<path style="&st0;&st1;&st4;&st2;&st3;" d="M97.525,49.084c0,0.938,0.761,1.7,1.7,1.7"/>
	<path style="&st0;&st1;&st4;&st2;&st3;" d="M100.075,50.784c0.939,0,1.7-0.761,1.7-1.7"/>
	<path style="&st0;&st1;&st4;&st2;&st3;" d="M30.245,6.166c0-0.782-0.634-1.417-1.417-1.417"/>
	<path style="&st0;&st1;&st4;&st2;&st3;" d="M11.406,50.784h0.85"/>
	<path style="&st0;&st1;&st4;&st2;&st3;" d="M9.707,39.735v9.349"/>
	<path style="&st0;&st1;&st4;&st2;&st3;" d="M101.774,39.735v9.349"/>
	<path style="&st0;&st1;&st2;&st3;" d="M110.981,8.999v65.156"/>
	<path style="&st0;&st1;&st4;&st2;&st3;" d="M11.123,78.404h89.235"/>
	<path style="&st0;&st1;&st2;&st3;" d="M0.5,8.999v65.156"/>
	<path style="&st0;&st1;&st4;&st2;&st3;" d="M34.494,13.248h42.493"/>
	<path style="&st0;&st1;&st4;&st2;&st3;" d="M34.494,10.416h42.493"/>
	<path style="&st0;&st1;&st4;&st2;&st3;" d="M90.443,11.832v5.666h4.249v-5.666H90.443"/>
	<path style="&st0;&st1;&st4;&st2;&st3;" d="M16.789,11.832v5.666h4.249v-5.666H16.789"/>
	<path style="&st0;&st1;&st4;&st2;&st3;" d="M17.497,41.577v25.496h32.578"/>
	<path style="&st0;&st1;&st4;&st2;&st3;" d="M47.95,84.778v-3.541h15.581v3.541"/>
	<path style="&st0;&st1;&st4;&st2;&st3;" d="M81.236,27.413v39.66"/>
	<path style="&st0;&st1;&st4;&st2;&st3;" d="M30.245,20.33h4.249"/>
	<path style="&st0;&st1;&st4;&st2;&st3;" d="M76.987,20.33h4.249"/>
	<path style="&st0;&st1;&st4;&st2;&st3;" d="M88.319,20.33h8.498"/>
	<path style="&st0;&st1;&st4;&st2;&st3;" d="M14.664,20.33h8.499"/>
	<path style="&st0;&st1;&st4;&st2;&st3;" d="M30.245,6.166V20.33"/>
	<path style="&st0;&st1;&st4;&st2;&st3;" d="M88.319,6.166V20.33"/>
	<path style="&st0;&st1;&st4;&st2;&st3;" d="M24.579,4.75h4.25"/>
	<path style="&st0;&st1;&st4;&st2;&st3;" d="M23.163,20.33V6.166"/>
	<path style="&st0;&st1;&st4;&st2;&st3;" d="M82.653,4.75h4.25"/>
	<path style="&st0;&st1;&st4;&st2;&st3;" d="M81.236,20.33V6.166"/>
	<path style="&st0;&st1;&st4;&st2;&st3;" d="M6.166,14.665v56.657"/>
	<path style="&st0;&st1;&st4;&st2;&st3;" d="M105.316,14.665v56.657"/>
	<path style="&st0;&st1;&st4;&st2;&st3;" d="M9.707,56.308v8.782"/>
	<path style="&st0;&st1;&st4;&st2;&st3;" d="M11.69,67.072h0.283"/>
	<path style="&st0;&st1;&st4;&st2;&st3;" d="M13.956,65.089v-8.782"/>
	<path style="&st0;&st1;&st4;&st2;&st3;" d="M11.69,54.325h0.283"/>
	<path style="&st0;&st1;&st4;&st2;&st3;" d="M97.525,56.308v8.782"/>
	<path style="&st0;&st1;&st4;&st2;&st3;" d="M99.508,67.072h0.283"/>
	<path style="&st0;&st1;&st4;&st2;&st3;" d="M101.774,65.089v-8.782"/>
	<path style="&st0;&st1;&st4;&st2;&st3;" d="M99.792,54.325h-0.283"/>
	<path style="&st0;&st1;&st4;&st2;&st3;" d="M34.494,20.33V7.583h42.493V20.33"/>
	<path style="&st0;&st1;&st4;&st2;&st3;" d="M98.233,13.248h5.666"/>
	<path style="&st0;&st1;&st4;&st2;&st3;" d="M96.817,20.33v-5.666"/>
	<path style="&st0;&st1;&st4;&st2;&st3;" d="M14.664,14.665v5.666"/>
	<path style="&st0;&st1;&st4;&st2;&st3;" d="M7.582,13.248h5.666"/>
	<path style="&st0;&st1;&st4;&st2;&st3;" d="M9.707,24.58v9.915h4.25V24.58H9.707"/>
	<path style="&st0;&st1;&st4;&st2;&st3;" d="M97.525,24.58v9.915h4.249V24.58H97.525"/>
	<path style="&st0;&st1;&st4;&st2;&st3;" d="M46.534,78.404h18.414"/>
	<path style="&st0;&st1;&st2;&st3;" d="M12.54,79.82v7.082"/>
	<path style="&st0;&st1;&st2;&st3;" d="M16.789,91.152h12.04"/>
	<path style="&st0;&st1;&st2;&st3;" d="M100.358,78.404h6.374"/>
	<path style="&st0;&st1;&st2;&st3;" d="M98.942,79.82v7.082"/>
	<path style="&st0;&st1;&st2;&st3;" d="M94.692,91.152h-12.04"/>
	<path style="&st0;&st1;&st2;&st3;" d="M17.497,0.5h76.487"/>
	<path style="&st0;&st1;&st2;&st3;" d="M4.749,78.404h6.374"/>
	<path style="&st0;&st1;&st2;&st3;" d="M99.65,4.75L93.984,0.5"/>
	<path style="&st0;&st1;&st2;&st3;" d="M28.829,91.152h53.824"/>
	<path style="&st0;&st1;&st4;&st2;&st3;" d="M80.387,83.361H67.78"/>
	<path style="&st0;&st1;&st4;&st2;&st3;" d="M82.653,91.152v-5.524"/>
	<path style="&st0;&st1;&st2;&st3;" d="M4.749,4.75h7.083"/>
	<path style="&st0;&st1;&st4;&st2;&st3;" d="M28.829,91.152v-5.524"/>
	<path style="&st0;&st1;&st2;&st3;" d="M99.65,4.75h7.083"/>
	<path style="&st0;&st1;&st4;&st2;&st3;" d="M66.364,81.945V79.82"/>
	<path style="&st0;&st1;&st4;&st2;&st3;" d="M31.095,83.361h12.606"/>
	<path style="&st0;&st1;&st4;&st2;&st3;" d="M45.117,81.945V79.82"/>
	<path style="&st0;&st1;&st2;&st3;" d="M11.832,4.75l5.666-4.25"/>
	<path style="&st0;&st1;&st4;&st2;&st3;" d="M28.829,84.778h53.824"/>
	<path style="&st0;&st1;&st4;&st2;&st3;" d="M50.783,84.778v2.833h9.915v-2.833"/>
	<path style="&st0;&st1;&st4;&st2;&st3;" d="M50.783,87.61v1.417h9.915V87.61"/>
	<path style="&st0;&st1;&st4;&st2;&st3;" d="M99.225,50.784h0.85"/>
	<path style="&st0;&st1;&st4;&st2;&st3;" d="M99.225,38.036h0.85"/>
	<path style="&st0;&st1;&st4;&st2;&st3;" d="M97.525,39.735v9.349"/>
	<path style="&st0;&st1;&st4;&st2;&st3;" d="M93.984,41.577V27.413H17.497v14.164"/>
	<path style="&st0;&st1;&st4;&st2;&st3;" d="M30.245,27.413v39.66"/>
	<path style="&st0;&st1;&st4;&st2;&st3;" d="M55.741,41.577V27.413"/>
	<path style="&st0;&st1;&st4;&st2;&st3;" d="M42.993,41.577V27.413"/>
	<path style="&st0;&st1;&st4;&st2;&st3;" d="M68.489,41.577V27.413"/>
	<path style="&st0;&st1;&st4;&st2;&st3;" d="M61.406,41.577v25.496"/>
	<path style="&st0;&st1;&st4;&st2;&st3;" d="M71.321,67.072V41.577"/>
	<path style="&st0;&st1;&st4;&st2;&st3;" d="M50.075,67.072V41.577"/>
	<path style="&st0;&st1;&st4;&st2;&st3;" d="M40.16,67.072V41.577"/>
	<path style="&st0;&st1;&st4;&st2;&st3;" d="M17.497,54.325h32.578"/>
	<path style="&st0;&st1;&st4;&st2;&st3;" d="M61.406,54.325h32.578"/>
	<path style="&st0;&st1;&st4;&st2;&st3;" d="M61.406,67.072h32.578V41.577H17.497"/>
	<path style="&st0;&st1;&st4;&st2;&st3;" d="M13.956,39.735v9.349"/>
	<path style="&st0;&st1;&st4;&st2;&st3;" d="M59.99,72.738h43.909"/>
	<path style="&st0;&st1;&st4;&st2;&st3;" d="M7.582,72.738h43.909"/>
	<path style="&st0;&st1;&st4;&st2;&st3;" d="M52.908,71.322V44.41h5.666v26.912"/>
	<path style="&st0;&st1;&st4;&st2;&st3;" d="M12.256,38.036h-0.85"/>
	<g ewd:pinNo="1">
		<text transform="matrix(1 0 0 1 85.8511 36.7295)"><tspan x="0" y="0" style="&st6; &st5;">1</tspan></text>
	</g>
	<g ewd:pinNo="2">
		<text transform="matrix(1 0 0 1 73.103 36.7295)"><tspan x="0" y="0" style="&st6; &st5;">2</tspan></text>
	</g>
	<g ewd:pinNo="3">
		<text transform="matrix(1 0 0 1 60.355 36.7295)"><tspan x="0" y="0" style="&st6; &st5;">3</tspan></text>
	</g>
	<g ewd:pinNo="4">
		<text transform="matrix(1 0 0 1 47.6074 36.7295)"><tspan x="0" y="0" style="&st6; &st5;">4</tspan></text>
	</g>
	<g ewd:pinNo="5">
		<text transform="matrix(1 0 0 1 34.8594 36.7295)"><tspan x="0" y="0" style="&st6; &st5;">5</tspan></text>
	</g>
	<g ewd:pinNo="6">
		<text transform="matrix(1 0 0 1 22.1118 36.7295)"><tspan x="0" y="0" style="&st6; &st5;">6</tspan></text>
	</g>
	<g ewd:pinNo="7">
		<text transform="matrix(1 0 0 1 85.8511 50.1855)"><tspan x="0" y="0" style="&st6; &st5;">7</tspan></text>
	</g>
	<g ewd:pinNo="8">
		<text transform="matrix(1 0 0 1 74.5195 50.1855)"><tspan x="0" y="0" style="&st6; &st5;">8</tspan></text>
	</g>
	<g ewd:pinNo="9">
		<text transform="matrix(1 0 0 1 64.6045 50.1855)"><tspan x="0" y="0" style="&st6; &st5;">9</tspan></text>
	</g>
	<g ewd:pinNo="10">
		<text transform="matrix(1 0 0 1 41.5547 50.1855)"><tspan x="0" y="0" style="&st6; &st5;">10</tspan></text>
	</g>
	<g ewd:pinNo="11">
		<text transform="matrix(1 0 0 1 31.8623 50.1855)"><tspan x="0" y="0" style="&st6; &st5;">11</tspan></text>
	</g>
	<g ewd:pinNo="12">
		<text transform="matrix(1 0 0 1 20.3081 50.1855)"><tspan x="0" y="0" style="&st6; &st5;">12</tspan></text>
	</g>
	<g ewd:pinNo="13">
		<text transform="matrix(1 0 0 1 84.0474 62.9336)"><tspan x="0" y="0" style="&st6; &st5;">13</tspan></text>
	</g>
	<g ewd:pinNo="14">
		<text transform="matrix(1 0 0 1 72.7163 62.9336)"><tspan x="0" y="0" style="&st6; &st5;">14</tspan></text>
	</g>
	<g ewd:pinNo="15">
		<text transform="matrix(1 0 0 1 62.8013 62.9336)"><tspan x="0" y="0" style="&st6; &st5;">15</tspan></text>
	</g>
	<g ewd:pinNo="16">
		<text transform="matrix(1 0 0 1 41.5547 62.9336)"><tspan x="0" y="0" style="&st6; &st5;">16</tspan></text>
	</g>
	<g ewd:pinNo="17">
		<text transform="matrix(1 0 0 1 31.6396 62.9336)"><tspan x="0" y="0" style="&st6; &st5;">17</tspan></text>
	</g>
	<g ewd:pinNo="18">
		<text transform="matrix(1 0 0 1 20.3081 62.9336)"><tspan x="0" y="0" style="&st6; &st5;">18</tspan></text>
	</g>
</g>
<path d="M50.075,9.069v-8.504h125.6565v8.504" style="&st0;&st1;&st7;&st2;&st3;"/>
</svg>