﻿<?xml version="1.0"?>
<!-- Generator: Adobe Illustrator 10.0, SVG Export Plug-In . SVG Version: 3.0.0 Build 77)  -->
<!DOCTYPE svg PUBLIC "-//W3C//DTD SVG 1.0//EN" "http://www.w3.org/TR/2001/REC-SVG-20010904/DTD/svg10.dtd"[
	<!ENTITY ns_flows "http://ns.adobe.com/Flows/1.0/">
	<!ENTITY ns_svg "http://www.w3.org/2000/svg">
	<!ENTITY ns_xlink "http://www.w3.org/1999/xlink">
	<!ENTITY st0 "fill:none;stroke:#000000;stroke-linecap:round;stroke-linejoin:round;">
	<!ENTITY st1 "fill:none;stroke:#000000;stroke-width:0.6;stroke-linecap:round;stroke-linejoin:round;">
	<!ENTITY st2 "font-size:6px;">
	<!ENTITY st3 "font-family:'Arial';">
	<!ATTLIST svg
		ewd:ver CDATA #IMPLIED
		xmlns:ewd CDATA #FIXED "http://shcl.co.jp/ewd"
		xmlns:a CDATA #FIXED "http://ns.adobe.com/AdobeSVGViewerExtensions/3.0/">
	<!ATTLIST g
		ewd:pinNo CDATA #IMPLIED>
]>
<svg width="54.541" height="62.75" viewBox="0 0 54.541 62.75" style="overflow:visible;enable-background:new 0 0 54.541 62.75" xml:space="preserve" onload="call_execInitLoadProc_svg('connector')" ewd:ver="2.2.0.10" xmlns="&ns_svg;" xmlns:ewd="http://shcl.co.jp/ewd" xmlns:a="http://ns.adobe.com/AdobeSVGViewerExtensions/3.0/" xmlns:xlink="&ns_xlink;">
<script type="text/javascript" xlink:href="../../../../../system/js/ewd/fig/svgfig.js"/>
<g id="レイヤー_1">
	<path style="&st0;" d="M3.057,38.973l8.173,14.153"/>
	<path style="&st1;" d="M19.644,11.188h15.252"/>
	<path style="&st1;" d="M6.454,37.01l8.172,14.156"/>
	<path style="&st1;" d="M39.913,51.166l2.125-3.68"/>
	<path style="&st1;" d="M19.097,15.112h16.346"/>
	<path style="&st0;" d="M48.859,51.801l2.615-4.53"/>
	<path style="&st0;" d="M50.354,40.925l1.127-1.952"/>
	<path style="&st1;" d="M34.896,6.166v7.53"/>
	<path style="&st1;" d="M19.644,6.166v7.53"/>
	<path style="&st1;" d="M19.097,19.469h16.346"/>
	<path style="&st1;" d="M36.139,48.984l8.173-14.153"/>
	<path style="&st1;" d="M10.227,34.832L18.4,48.984"/>
	<path style="&st1;" d="M46.088,48.313l0.98-1.697"/>
	<path style="&st1;" d="M44.326,43.523l3.759-6.513"/>
	<path style="&st1;" d="M44.567,44.415l2.264,1.306"/>
	<path style="&st1;" d="M42.933,47.245l2.263,1.309"/>
	<path style="&st1;" d="M17.898,3.333h18.742"/>
	<path style="&st1;" d="M21.06,4.75h12.419"/>
	<path style="&st1;" d="M15.72,7.257h3.923"/>
	<path style="&st1;" d="M34.896,7.257h3.924"/>
	<path style="&st1;" d="M28.904,24.313v10.895"/>
	<path style="&st1;" d="M25.635,24.313v10.895"/>
	<path style="&st1;" d="M21.06,8.951h12.419"/>
	<path style="&st1;" d="M24.547,7.257h5.448"/>
	<path style="&st0;" d="M3.057,20.449l9.881-17.116"/>
	<path style="&st0;" d="M41.601,3.333l9.881,17.116"/>
	<path style="&st0;" d="M17.845,0.5h18.85"/>
	<path style="&st0;" d="M11.23,53.126c5.114,8.858,16.442,11.894,25.3,6.779"/>
	<path style="&st0;" d="M36.53,59.905c2.676-1.545,4.631-3.406,6.305-6.003"/>
	<path style="&st0;" d="M3.057,20.449c-3.41,5.906-3.41,12.618,0.001,18.523"/>
	<path style="&st0;" d="M51.482,38.973c3.411-5.906,3.412-12.618,0.001-18.525"/>
	<path style="&st1;" d="M15.72,15.506C7.875,17.371,3.028,25.242,4.893,33.086"/>
	<path style="&st1;" d="M4.893,33.086c0.345,1.45,0.816,2.634,1.561,3.924"/>
	<path style="&st1;" d="M14.626,51.166c4.032,6.982,12.961,9.375,19.943,5.343"/>
	<path style="&st1;" d="M34.57,56.509c2.327-1.344,3.999-3.016,5.343-5.343"/>
	<path style="&st1;" d="M48.085,37.01c4.032-6.983,1.64-15.912-5.343-19.943"/>
	<path style="&st1;" d="M42.743,17.067c-1.29-0.745-2.474-1.216-3.923-1.561"/>
	<path style="&st1;" d="M44.312,34.832c2.829-4.898,1.151-11.163-3.748-13.992"/>
	<path style="&st1;" d="M40.564,20.84c-1.633-0.943-3.236-1.372-5.122-1.372"/>
	<path style="&st1;" d="M18.4,48.984c2.827,4.899,9.09,6.578,13.989,3.751"/>
	<path style="&st1;" d="M32.389,52.735c1.634-0.943,2.808-2.117,3.75-3.751"/>
	<path style="&st1;" d="M19.097,19.469c-5.656,0-10.241,4.585-10.241,10.241"/>
	<path style="&st1;" d="M8.856,29.71c0,1.885,0.43,3.488,1.373,5.121"/>
	<path style="&st1;" d="M44.326,43.523c-0.18,0.313-0.072,0.712,0.241,0.892"/>
	<path style="&st1;" d="M42.933,47.245c-0.313-0.182-0.714-0.075-0.896,0.238"/>
	<path style="&st1;" d="M42.037,47.483c0,0,0,0.001-0.001,0.002"/>
	<path style="&st1;" d="M47.068,46.616c0.182-0.311,0.076-0.711-0.235-0.892"/>
	<path style="&st1;" d="M46.833,45.724c-0.001-0.001-0.002-0.001-0.003-0.002"/>
	<path style="&st1;" d="M45.196,48.554c0.313,0.18,0.712,0.072,0.893-0.241"/>
	<path style="&st1;" d="M17.898,3.333c-1.203,0-2.178,0.975-2.178,2.179"/>
	<path style="&st1;" d="M38.819,5.512c0-1.204-0.976-2.179-2.179-2.179"/>
	<path style="&st1;" d="M21.06,4.75c-0.782,0-1.417,0.634-1.417,1.417"/>
	<path style="&st1;" d="M34.896,6.166c0-0.782-0.634-1.417-1.416-1.417"/>
	<path style="&st0;" d="M51.474,47.271c0.695-1.204,0.433-2.692-0.632-3.586"/>
	<path style="&st0;" d="M45.423,53.042c1.309,0.484,2.738-0.032,3.437-1.241"/>
	<path style="&st0;" d="M45.423,53.042c-0.971-0.36-2.025-0.009-2.586,0.861"/>
	<path style="&st0;" d="M50.354,40.925c-0.536,0.926-0.333,2.072,0.486,2.76"/>
	<path style="&st1;" d="M19.644,7.534c0,0.782,0.634,1.417,1.417,1.417"/>
	<path style="&st1;" d="M33.479,8.951c0.782,0,1.416-0.634,1.416-1.417"/>
	<path style="&st1;" d="M34.896,10.367c0-0.782-0.634-1.417-1.416-1.417"/>
	<path style="&st1;" d="M21.06,8.951c-0.782,0-1.417,0.634-1.417,1.417"/>
	<path style="&st0;" d="M41.601,3.333C40.558,1.526,38.78,0.5,36.695,0.5"/>
	<path style="&st0;" d="M17.845,0.5c-2.086,0-3.864,1.026-4.907,2.833"/>
	<path style="&st1;" d="M24.547,11.188V6.71h-4.904"/>
	<path style="&st1;" d="M34.896,6.71h-4.9v4.479"/>
	<path style="&st1;" d="M38.819,5.512v12.541H15.72V5.512"/>
	<path style="&st1;" d="M39.799,24.313H14.74v10.895h25.06V24.313"/>
	<path style="&st1;" d="M21.822,35.208v10.895h10.895V35.208"/>
	<g ewd:pinNo="2">
		<text transform="matrix(1 0 0 1 32.7261 31.875)"><tspan x="0" y="0" style="&st3; &st2;">2</tspan></text>
	</g>
	<g ewd:pinNo="1">
		<text transform="matrix(1 0 0 1 18.562 31.875)"><tspan x="0" y="0" style="&st3; &st2;">1</tspan></text>
	</g>
	<g ewd:pinNo="3">
		<text transform="matrix(1 0 0 1 25.644 42.77)"><tspan x="0" y="0" style="&st3; &st2;">3</tspan></text>
	</g>
</g>
</svg>